{
  "_id": "oAwUOm0PTpnVEBo2",
  "name": "Greater Medium Arcane Scrolls",
  "flags": {},
  "description": "",
  "results": [
    {
      "_id": "RkVWWsGQXBBdKTf6",
      "flags": {},
      "type": 2,
      "text": "Uncommon Level 3 Arcane Scrolls",
      "img": "icons/svg/d20-black.svg",
      "collection": "pf1.ultimate-equipment",
      "resultId": "A7az8TWRyRWLojVE",
      "weight": 20,
      "range": [1, 20],
      "drawn": false
    },
    {
      "_id": "Wk0iciDEXzFaoGzZ",
      "flags": {},
      "type": 2,
      "text": "Uncommon Level 4 Arcane Scrolls",
      "img": "icons/svg/d20-black.svg",
      "collection": "pf1.ultimate-equipment",
      "resultId": "DuDxURHlWK4ZXxxx",
      "weight": 40,
      "range": [21, 60],
      "drawn": false
    },
    {
      "_id": "g5clfAlAvx8WvQk2",
      "flags": {},
      "type": 2,
      "text": "Uncommon Level 5 Arcane Scrolls",
      "collection": "pf1.ultimate-equipment",
      "resultId": "y51BUptDZTIhdHGE",
      "weight": 40,
      "range": [61, 100],
      "drawn": false
    }
  ],
  "formula": "1d100",
  "replacement": true,
  "displayRoll": true
}
