{
  "name": "Greater Minor Body",
  "flags": {},
  "description": "",
  "results": [
    {
      "_id": "CNY2xf2K79Y1eoob",
      "flags": {},
      "type": 0,
      "text": "Cassock of the Clergy",
      "weight": 15,
      "range": [1, 15],
      "drawn": false
    },
    {
      "_id": "XvdQu6WwxAyzHeMF",
      "flags": {},
      "type": 0,
      "text": "Mnemonic Vestments",
      "weight": 15,
      "range": [16, 30],
      "drawn": false
    },
    {
      "_id": "XPvQOhBM2g8BKyfm",
      "flags": {},
      "type": 0,
      "text": "Robe of Components",
      "weight": 15,
      "range": [31, 45],
      "drawn": false
    },
    {
      "_id": "9Dyg5pagNCzyhvg5",
      "flags": {},
      "type": 0,
      "text": "Sorcerer's Robe",
      "weight": 15,
      "range": [46, 60],
      "drawn": false
    },
    {
      "_id": "GxBvhpcdISYaAWH4",
      "flags": {},
      "type": 0,
      "text": "Eidolon Anchoring Harness",
      "weight": 15,
      "range": [61, 75],
      "drawn": false
    },
    {
      "_id": "BvHZUD2N9lytYHMe",
      "flags": {},
      "type": 0,
      "text": "Robe of Useful Items",
      "weight": 25,
      "range": [76, 100],
      "drawn": false
    }
  ],
  "formula": "1d100",
  "replacement": true,
  "displayRoll": true,
  "_id": "9pe1bMXjQQRuxBp4"
}
