{
  "name": "Greater Major Wrists",
  "flags": {},
  "description": "",
  "results": [
    {
      "_id": "2EawJ9zWTMyJtKp6",
      "flags": {},
      "type": 0,
      "text": "\tBracers of Armor +7",
      "weight": 60,
      "range": [1, 60],
      "drawn": false
    },
    {
      "_id": "qHOh897WHU27rBhv",
      "flags": {},
      "type": 0,
      "text": "\tBracers of Armor +8",
      "weight": 40,
      "range": [61, 100],
      "drawn": false
    }
  ],
  "formula": "1d100",
  "replacement": true,
  "displayRoll": true,
  "_id": "jmi3gPkX113TTGb3"
}
