{
  "_id": "k4AfGCVMTYYjWiyO",
  "name": "Lesser Minor Divine Scrolls",
  "flags": {},
  "description": "",
  "results": [
    {
      "_id": "RG931TAH19SLupzr",
      "flags": {},
      "type": 2,
      "text": "Common Level 0 Divine Scrolls",
      "img": "icons/svg/d20-black.svg",
      "collection": "pf1.ultimate-equipment",
      "resultId": "oQJAp9ehquwTQoEG",
      "weight": 15,
      "range": [1, 15],
      "drawn": false
    },
    {
      "_id": "j20j4RFweJTSDkdE",
      "flags": {},
      "type": 2,
      "text": "Common Level 1 Divine Scrolls",
      "img": "icons/svg/d20-black.svg",
      "collection": "pf1.ultimate-equipment",
      "resultId": "ChuzetMXj6gRKCaI",
      "weight": 80,
      "range": [16, 95],
      "drawn": false
    },
    {
      "_id": "ocTL2gYiNYbCwdl7",
      "flags": {},
      "type": 2,
      "text": "Common Level 2 Divine Scrolls",
      "collection": "pf1.ultimate-equipment",
      "resultId": "4K2GxrliYpHJs3tT",
      "weight": 5,
      "range": [96, 100],
      "drawn": false
    }
  ],
  "formula": "1d100",
  "replacement": true,
  "displayRoll": true
}
