{
  "name": "Lesser Major Specific Armours",
  "flags": {},
  "description": "",
  "results": [
    {
      "_id": "fYP2g5cl5RQyShtO",
      "flags": {},
      "type": 0,
      "text": "Armor of Insults",
      "weight": 13,
      "range": [1, 13],
      "drawn": false
    },
    {
      "_id": "Iwuuafj9EB9gMjSJ",
      "flags": {},
      "type": 0,
      "text": "Dwarven Plate",
      "weight": 16,
      "range": [14, 29],
      "drawn": false
    },
    {
      "_id": "bVkMJN2yMRg2QbFq",
      "flags": {},
      "type": 0,
      "text": "Banded Mail of Luck",
      "weight": 16,
      "range": [30, 45],
      "drawn": false
    },
    {
      "_id": "SMd9yOIlaq23Yetu",
      "flags": {},
      "type": 0,
      "text": "Catskin Leather",
      "weight": 13,
      "range": [46, 58],
      "drawn": false
    },
    {
      "_id": "79kbBXIvGTra0hez",
      "flags": {},
      "type": 0,
      "text": "Celestial Armor",
      "weight": 13,
      "range": [59, 71],
      "drawn": false
    },
    {
      "_id": "Lk5PksiAhbQlaw2x",
      "flags": {},
      "type": 0,
      "text": "Buccaneer's Breastplate",
      "weight": 13,
      "range": [72, 84],
      "drawn": false
    },
    {
      "_id": "n3oYgpKapO7FzuRL",
      "flags": {},
      "type": 0,
      "text": "Plate Armor of the Deep",
      "weight": 16,
      "range": [85, 100],
      "drawn": false
    }
  ],
  "formula": "1d100",
  "replacement": true,
  "displayRoll": true,
  "_id": "V2ldcZlI0YWWBbGY"
}
