{
  "name": "Lesser Major Staff",
  "flags": {},
  "description": "",
  "results": [
    {
      "_id": "WkYtwutyzt1PgOVL",
      "flags": {},
      "type": 0,
      "text": "Staff of Acid",
      "weight": 4,
      "range": [1, 4],
      "drawn": false
    },
    {
      "_id": "9GSnjmK9ByoSr88K",
      "flags": {},
      "type": 0,
      "text": "Staff of Shrieking",
      "weight": 4,
      "range": [5, 8],
      "drawn": false
    },
    {
      "_id": "iCt4PL1pHiCwkTgY",
      "flags": {},
      "type": 0,
      "text": "Chaotic Staff",
      "weight": 3,
      "range": [9, 11],
      "drawn": false
    },
    {
      "_id": "aWJJ5SCYOXQ99pCC",
      "flags": {},
      "type": 0,
      "text": "Holy Staff",
      "weight": 3,
      "range": [12, 14],
      "drawn": false
    },
    {
      "_id": "xP1ya8ExNLwb8RTj",
      "flags": {},
      "type": 0,
      "text": "Lawful Staff",
      "weight": 3,
      "range": [15, 17],
      "drawn": false
    },
    {
      "_id": "2ZTp64U6i0mNM4eg",
      "flags": {},
      "type": 0,
      "text": "Staff of Healing",
      "weight": 4,
      "range": [18, 21],
      "drawn": false
    },
    {
      "_id": "WS6jmgE0muNWShVL",
      "flags": {},
      "type": 0,
      "text": "Unholy Staff",
      "weight": 3,
      "range": [22, 24],
      "drawn": false
    },
    {
      "_id": "gIzCF3OmbJeqJw8K",
      "flags": {},
      "type": 0,
      "text": "Staff of the Master",
      "weight": 4,
      "range": [25, 28],
      "drawn": false
    },
    {
      "_id": "LF637xvlJunSGdFF",
      "flags": {},
      "type": 0,
      "text": "Staff of Spiders",
      "weight": 4,
      "range": [29, 32],
      "drawn": false
    },
    {
      "_id": "JWeTMQFpejKdbOlG",
      "flags": {},
      "type": 0,
      "text": "Staff of Electricity",
      "weight": 4,
      "range": [33, 36],
      "drawn": false
    },
    {
      "_id": "9y2lgr8GhJADNW4N",
      "flags": {},
      "type": 0,
      "text": "Heretic’S Bane",
      "weight": 3,
      "range": [37, 39],
      "drawn": false
    },
    {
      "_id": "bMvkUPcHCEk5wy27",
      "flags": {},
      "type": 0,
      "text": "Musical Staff",
      "weight": 3,
      "range": [40, 42],
      "drawn": false
    },
    {
      "_id": "scjkDrCYdeiotJMU",
      "flags": {},
      "type": 0,
      "text": "Staff of Souls",
      "weight": 4,
      "range": [43, 46],
      "drawn": false
    },
    {
      "_id": "KLvr4ifRPKErXjjg",
      "flags": {},
      "type": 0,
      "text": "Staff of Toxins",
      "weight": 4,
      "range": [47, 50],
      "drawn": false
    },
    {
      "_id": "zBEL3PxmfqluUjRi",
      "flags": {},
      "type": 0,
      "text": "Staff of Stealth",
      "weight": 4,
      "range": [51, 54],
      "drawn": false
    },
    {
      "_id": "ZyK1DNphxyzHELje",
      "flags": {},
      "type": 0,
      "text": "Staff of the Avenger",
      "weight": 4,
      "range": [55, 58],
      "drawn": false
    },
    {
      "_id": "SgLaYyClISq0WPBU",
      "flags": {},
      "type": 0,
      "text": "Staff of Aspects",
      "weight": 4,
      "range": [59, 62],
      "drawn": false
    },
    {
      "_id": "TRaICbmK9poOuT9f",
      "flags": {},
      "type": 0,
      "text": "Staff of Speaking",
      "weight": 4,
      "range": [63, 66],
      "drawn": false
    },
    {
      "_id": "L6ENiM45FgfyOWp5",
      "flags": {},
      "type": 0,
      "text": "Staff of Frost",
      "weight": 4,
      "range": [67, 70],
      "drawn": false
    },
    {
      "_id": "dUY8SBa94nQsuByP",
      "flags": {},
      "type": 0,
      "text": "Staff of Bolstering",
      "weight": 4,
      "range": [71, 74],
      "drawn": false
    },
    {
      "_id": "QpUVFzlnuUIVNAJz",
      "flags": {},
      "type": 0,
      "text": "Staff of Curses",
      "weight": 4,
      "range": [75, 78],
      "drawn": false
    },
    {
      "_id": "fbtZ5RigZrGmQ3e6",
      "flags": {},
      "type": 0,
      "text": "Staff of Dark Flame",
      "weight": 7,
      "range": [79, 85],
      "drawn": false
    },
    {
      "_id": "vBIykPsXMMrwIb2Y",
      "flags": {},
      "type": 0,
      "text": "Staff of Cackling Wrath",
      "weight": 4,
      "range": [86, 89],
      "drawn": false
    },
    {
      "_id": "lwZHi7LBLhrXuooi",
      "flags": {},
      "type": 0,
      "text": "Staff of Performance",
      "weight": 4,
      "range": [90, 93],
      "drawn": false
    },
    {
      "_id": "XEjKu16HAsa2wcZa",
      "flags": {},
      "type": 0,
      "text": "Animate Staff",
      "weight": 4,
      "range": [94, 97],
      "drawn": false
    },
    {
      "_id": "C41NkTWzouuC6GPz",
      "flags": {},
      "type": 0,
      "text": "Staff of Revelations",
      "weight": 3,
      "range": [98, 100],
      "drawn": false
    }
  ],
  "formula": "1d100",
  "replacement": true,
  "displayRoll": true,
  "_id": "usiS9NTj4FXec3l7"
}
