{
  "name": "Uncommon Level 1 Wands",
  "flags": {},
  "description": "",
  "results": [
    {
      "_id": "hBaLyKAUuR5JFoZj",
      "flags": {},
      "type": 0,
      "text": "Wand of Ant Haul",
      "img": "icons/svg/d20-black.svg",
      "resultId": "",
      "weight": 2,
      "range": [102, 103],
      "drawn": false
    },
    {
      "_id": "ORJPkNL026k7S6yG",
      "flags": {},
      "type": 0,
      "text": "Wand of Aspect of The Falcon",
      "img": "icons/svg/d20-black.svg",
      "resultId": "",
      "weight": 3,
      "range": [104, 106],
      "drawn": false
    },
    {
      "_id": "iFbNvyAuEZhBQONZ",
      "flags": {},
      "type": 0,
      "text": "Wand of Bless Weapon",
      "img": "icons/svg/d20-black.svg",
      "resultId": "",
      "weight": 2,
      "range": [107, 108],
      "drawn": false
    },
    {
      "_id": "hRfzewMthY0X53y4",
      "flags": {},
      "type": 0,
      "text": "Wand of Calm Animals",
      "img": "icons/svg/d20-black.svg",
      "resultId": "",
      "weight": 1,
      "range": [109, 109],
      "drawn": false
    },
    {
      "_id": "naVNe2x6GKIYm1wF",
      "flags": {},
      "type": 0,
      "text": "Wand of Charm Animal",
      "img": "icons/svg/d20-black.svg",
      "resultId": "",
      "weight": 2,
      "range": [110, 111],
      "drawn": false
    },
    {
      "_id": "SWtBlTOC8xnFPDtG",
      "flags": {},
      "type": 0,
      "text": "Wand of Chill Touch",
      "img": "icons/svg/d20-black.svg",
      "resultId": "",
      "weight": 2,
      "range": [112, 113],
      "drawn": false
    },
    {
      "_id": "ygnOG38LPmjIHjjh",
      "flags": {},
      "type": 0,
      "text": "Wand of Compel Hostility",
      "img": "icons/svg/d20-black.svg",
      "resultId": "",
      "weight": 2,
      "range": [114, 115],
      "drawn": false
    },
    {
      "_id": "PCtBxxwG4dEyb6lJ",
      "flags": {},
      "type": 0,
      "text": "Wand of Confusion, Lesser",
      "img": "icons/svg/d20-black.svg",
      "resultId": "",
      "weight": 3,
      "range": [116, 118],
      "drawn": false
    },
    {
      "_id": "vGEpMUx3NtfF4iW4",
      "flags": {},
      "type": 0,
      "text": "Wand of Corrosive Touch",
      "img": "icons/svg/d20-black.svg",
      "resultId": "",
      "weight": 2,
      "range": [119, 120],
      "drawn": false
    },
    {
      "_id": "RRjrJTrKjUAWPB3W",
      "flags": {},
      "type": 0,
      "text": "Wand of Deathwatch",
      "img": "icons/svg/d20-black.svg",
      "resultId": "",
      "weight": 2,
      "range": [121, 122],
      "drawn": false
    },
    {
      "_id": "3QQw1uLLRYPrrzpG",
      "flags": {},
      "type": 0,
      "text": "Wand of Detect Animals Or Plants",
      "img": "icons/svg/d20-black.svg",
      "resultId": "",
      "weight": 1,
      "range": [123, 123],
      "drawn": false
    },
    {
      "_id": "OLEjDHZXCIE2wCjY",
      "flags": {},
      "type": 0,
      "text": "Wand of Detect Chaos",
      "img": "icons/svg/d20-black.svg",
      "resultId": "",
      "weight": 1,
      "range": [124, 124],
      "drawn": false
    },
    {
      "_id": "WBl2A62ejPaqfpPm",
      "flags": {},
      "type": 0,
      "text": "Wand of Detect Evil",
      "img": "icons/svg/d20-black.svg",
      "resultId": "",
      "weight": 1,
      "range": [125, 125],
      "drawn": false
    },
    {
      "_id": "hPM0q4CnmU71I1e9",
      "flags": {},
      "type": 0,
      "text": "Wand of Detect Good",
      "img": "icons/svg/d20-black.svg",
      "resultId": "",
      "weight": 1,
      "range": [126, 126],
      "drawn": false
    },
    {
      "_id": "oUPYSI7i2Z97yfHA",
      "flags": {},
      "type": 0,
      "text": "Wand of Detect Law",
      "img": "icons/svg/d20-black.svg",
      "resultId": "",
      "weight": 1,
      "range": [127, 127],
      "drawn": false
    },
    {
      "_id": "ZjyPBC9fLo9eQBTO",
      "flags": {},
      "type": 0,
      "text": "Wand of Detect Secret Doors",
      "img": "icons/svg/d20-black.svg",
      "resultId": "",
      "weight": 2,
      "range": [128, 129],
      "drawn": false
    },
    {
      "_id": "f0tvt1fDak8ug44H",
      "flags": {},
      "type": 0,
      "text": "Wand of Detect Snares and Pits",
      "img": "icons/svg/d20-black.svg",
      "resultId": "",
      "weight": 1,
      "range": [130, 130],
      "drawn": false
    },
    {
      "_id": "UGq7eAjWfk4MEOn6",
      "flags": {},
      "type": 0,
      "text": "Wand of Detect Undead",
      "img": "icons/svg/d20-black.svg",
      "resultId": "",
      "weight": 2,
      "range": [131, 132],
      "drawn": false
    },
    {
      "_id": "jpCMnl7my1vsgJRx",
      "flags": {},
      "type": 0,
      "text": "Wand of Doom",
      "img": "icons/svg/d20-black.svg",
      "resultId": "",
      "weight": 4,
      "range": [133, 136],
      "drawn": false
    },
    {
      "_id": "uVn8ugLw3twLSSbf",
      "flags": {},
      "type": 0,
      "text": "Wand of Entropic Shield",
      "img": "icons/svg/d20-black.svg",
      "resultId": "",
      "weight": 2,
      "range": [137, 138],
      "drawn": false
    },
    {
      "_id": "wmFW3PVoyEXRsYxC",
      "flags": {},
      "type": 0,
      "text": "Wand of Erase",
      "img": "icons/svg/d20-black.svg",
      "resultId": "",
      "weight": 1,
      "range": [139, 139],
      "drawn": false
    },
    {
      "_id": "xqEhPXox6lJ10quv",
      "flags": {},
      "type": 0,
      "text": "Wand of Faerie Fire",
      "img": "icons/svg/d20-black.svg",
      "resultId": "",
      "weight": 1,
      "range": [140, 140],
      "drawn": false
    },
    {
      "_id": "GDsL5obpMNWh785J",
      "flags": {},
      "type": 0,
      "text": "Wand of Feather Step",
      "img": "icons/svg/d20-black.svg",
      "resultId": "",
      "weight": 2,
      "range": [141, 142],
      "drawn": false
    },
    {
      "_id": "ihz6X66mKj75fn9O",
      "flags": {},
      "type": 0,
      "text": "Wand of Floating Disk",
      "img": "icons/svg/d20-black.svg",
      "resultId": "",
      "weight": 3,
      "range": [143, 145],
      "drawn": false
    },
    {
      "_id": "K44WK7eJ2XpP3jcX",
      "flags": {},
      "type": 0,
      "text": "Wand of Goodberry",
      "img": "icons/svg/d20-black.svg",
      "resultId": "",
      "weight": 3,
      "range": [146, 148],
      "drawn": false
    },
    {
      "_id": "lK4sYqfKP5MVMDcS",
      "flags": {},
      "type": 0,
      "text": "Wand of Hide From Animals",
      "img": "icons/svg/d20-black.svg",
      "resultId": "",
      "weight": 2,
      "range": [149, 150],
      "drawn": false
    },
    {
      "_id": "0SAlcTD7q9NcEgZX",
      "flags": {},
      "type": 0,
      "text": "Wand of Hide From Undead",
      "img": "icons/svg/d20-black.svg",
      "resultId": "",
      "weight": 2,
      "range": [151, 152],
      "drawn": false
    },
    {
      "_id": "0PLeY3JIpBJRBG2O",
      "flags": {},
      "type": 0,
      "text": "Wand of Hideous Laughter",
      "img": "icons/svg/d20-black.svg",
      "resultId": "",
      "weight": 1,
      "range": [153, 153],
      "drawn": false
    },
    {
      "_id": "ytZGDuWVc5aDTX9I",
      "flags": {},
      "type": 0,
      "text": "Wand of Hold Portal",
      "img": "icons/svg/d20-black.svg",
      "resultId": "",
      "weight": 2,
      "range": [154, 155],
      "drawn": false
    },
    {
      "_id": "CHdns06CvHhxE575",
      "flags": {},
      "type": 0,
      "text": "Wand of Hypnotism",
      "img": "icons/svg/d20-black.svg",
      "resultId": "",
      "weight": 2,
      "range": [156, 157],
      "drawn": false
    },
    {
      "_id": "3ov5mi16RxyxSC57",
      "flags": {},
      "type": 0,
      "text": "Wand of Icicle Dagger",
      "img": "icons/svg/d20-black.svg",
      "resultId": "",
      "weight": 2,
      "range": [158, 159],
      "drawn": false
    },
    {
      "_id": "1b0OR6RroNrFNFKm",
      "flags": {},
      "type": 0,
      "text": "Wand of Ill Omen",
      "img": "icons/svg/d20-black.svg",
      "resultId": "",
      "weight": 2,
      "range": [160, 161],
      "drawn": false
    },
    {
      "_id": "mOgMMJhiAmKkKwR1",
      "flags": {},
      "type": 0,
      "text": "Wand of Jump",
      "img": "icons/svg/d20-black.svg",
      "resultId": "",
      "weight": 3,
      "range": [162, 164],
      "drawn": false
    },
    {
      "_id": "IJqKqi3lVtpPYPGJ",
      "flags": {},
      "type": 0,
      "text": "Wand of Longstrider",
      "img": "icons/svg/d20-black.svg",
      "resultId": "",
      "weight": 2,
      "range": [165, 166],
      "drawn": false
    },
    {
      "_id": "QuCWLmu5FwBPxFtR",
      "flags": {},
      "type": 0,
      "text": "Wand of Magic Aura",
      "img": "icons/svg/d20-black.svg",
      "resultId": "",
      "weight": 1,
      "range": [167, 167],
      "drawn": false
    },
    {
      "_id": "VDmpaC01LnoYGFpK",
      "flags": {},
      "type": 0,
      "text": "Wand of Mount",
      "img": "icons/svg/d20-black.svg",
      "resultId": "",
      "weight": 2,
      "range": [168, 169],
      "drawn": false
    },
    {
      "_id": "hzLj0QurjO6GIDjd",
      "flags": {},
      "type": 0,
      "text": "Wand of Obscure Object",
      "img": "icons/svg/d20-black.svg",
      "resultId": "",
      "weight": 1,
      "range": [170, 170],
      "drawn": false
    },
    {
      "_id": "oEgM8iICAXA3p7zd",
      "flags": {},
      "type": 0,
      "text": "Wand of Pass Without Trace",
      "img": "icons/svg/d20-black.svg",
      "resultId": "",
      "weight": 2,
      "range": [171, 172],
      "drawn": false
    },
    {
      "_id": "mOI67fS7qpfZhN2K",
      "flags": {},
      "type": 0,
      "text": "Wand of Ray of Sickening",
      "img": "icons/svg/d20-black.svg",
      "resultId": "",
      "weight": 1,
      "range": [173, 173],
      "drawn": false
    },
    {
      "_id": "N4gCFID3tzMPsdlY",
      "flags": {},
      "type": 0,
      "text": "Wand of Reduce Person",
      "img": "icons/svg/d20-black.svg",
      "resultId": "",
      "weight": 3,
      "range": [174, 176],
      "drawn": false
    },
    {
      "_id": "eZdBGNMY1ygOZITQ",
      "flags": {},
      "type": 0,
      "text": "Wand of Sanctuary",
      "img": "icons/svg/d20-black.svg",
      "resultId": "",
      "weight": 3,
      "range": [177, 179],
      "drawn": false
    },
    {
      "_id": "ubUlXeRresPrejMO",
      "flags": {},
      "type": 0,
      "text": "Wand of Shock Shield",
      "img": "icons/svg/d20-black.svg",
      "resultId": "",
      "weight": 2,
      "range": [180, 181],
      "drawn": false
    },
    {
      "_id": "skNllsyWk6dbAqNW",
      "flags": {},
      "type": 0,
      "text": "Wand of Speak With Animals",
      "img": "icons/svg/d20-black.svg",
      "resultId": "",
      "weight": 3,
      "range": [182, 184],
      "drawn": false
    },
    {
      "_id": "3PvkJhcFe7L7rDhY",
      "flags": {},
      "type": 0,
      "text": "Wand of Stone Fist",
      "img": "icons/svg/d20-black.svg",
      "resultId": "",
      "weight": 2,
      "range": [185, 186],
      "drawn": false
    },
    {
      "_id": "TIM2QQx8EDa7tvnr",
      "flags": {},
      "type": 0,
      "text": "Wand of Stone Shield",
      "img": "icons/svg/d20-black.svg",
      "resultId": "",
      "weight": 2,
      "range": [187, 188],
      "drawn": false
    },
    {
      "_id": "GJb9EVLWPHGsbzC8",
      "flags": {},
      "type": 0,
      "text": "Wand of Summon Minor Monster",
      "img": "icons/svg/d20-black.svg",
      "resultId": "",
      "weight": 1,
      "range": [189, 189],
      "drawn": false
    },
    {
      "_id": "xSdjM5smW8SnJk1m",
      "flags": {},
      "type": 0,
      "text": "Wand of Undetectable Alignment",
      "img": "icons/svg/d20-black.svg",
      "resultId": "",
      "weight": 1,
      "range": [190, 190],
      "drawn": false
    },
    {
      "_id": "y19gWksgRDpITOOR",
      "flags": {},
      "type": 0,
      "text": "Wand of Urban Grace",
      "img": "icons/svg/d20-black.svg",
      "resultId": "",
      "weight": 3,
      "range": [191, 193],
      "drawn": false
    },
    {
      "_id": "zjlbOMeCHReGJB8j",
      "flags": {},
      "type": 0,
      "text": "Wand of Vanish",
      "img": "icons/svg/d20-black.svg",
      "resultId": "",
      "weight": 4,
      "range": [194, 197],
      "drawn": false
    },
    {
      "_id": "cPCPjYRL1XLsdq8H",
      "flags": {},
      "type": 0,
      "text": "Wand of Ventriloquism",
      "img": "icons/svg/d20-black.svg",
      "resultId": "",
      "weight": 1,
      "range": [198, 198],
      "drawn": false
    },
    {
      "_id": "vYxEOvzY8caNZJwc",
      "flags": {},
      "type": 0,
      "text": "Wand of Magic Mouth",
      "img": "icons/svg/d20-black.svg",
      "resultId": "",
      "weight": 1,
      "range": [199, 199],
      "drawn": false
    },
    {
      "_id": "xNS42YDqixnx08qz",
      "flags": {},
      "type": 0,
      "text": "Wand of Bless Water",
      "img": "icons/svg/d20-black.svg",
      "resultId": "",
      "weight": 1,
      "range": [200, 200],
      "drawn": false
    },
    {
      "_id": "0F2RlaNp3J0v02Ah",
      "flags": {},
      "type": 0,
      "text": "Wand of Curse Water",
      "img": "icons/svg/d20-black.svg",
      "resultId": "",
      "weight": 1,
      "range": [201, 201],
      "drawn": false
    }
  ],
  "formula": "1d201",
  "replacement": true,
  "displayRoll": true,
  "_id": "2UQtiEKX67vy7gUT"
}
