{
  "_id": "Ovo97rjBymtgkjdH",
  "name": "Aerial",
  "type": "feat",
  "img": "systems/pf1/icons/skills/violet_07.jpg",
  "sort": 0,
  "flags": {},
  "system": {
    "description": {
      "value": "<p><strong>Acquired/Inherited Template</strong> Acquired<br><strong>Simple Template</strong> Yes<br><strong>Usable with Summons</strong> Yes - Requires the feat Versatile Summon Monster or Versatile Summon Nature's Ally<p>Aerial creatures are native denizens of the Elemental Planes of Air, and they possess unique adaptations to help them survive there. This template can be applied only to a non-outsider with none of the subtypes that follow: air, cold, earth, fire, or water. An aerial creature’s CR increases by 1 only if the base creature has 5 or more HD.<p><strong>Rebuild Rules:</strong> Type gains the air subtype; Senses gains darkvision 60 ft.; Defensive Abilities gains DR and resistance to electricity as noted on the table below; Speed gains a fly speed equal to its highest speed with perfect maneuverability (maximum fly speed of 10 feet per HD); Attacks gains bonus electricity damage as noted on the table below on attacks with natural weapons and metal weapons.</p>\n<table>\n<tbody>\n<tr>\n<td><strong>Hit Dice</strong></td>\n<td><strong>DR</strong></td>\n<td><strong>Resist Electricity</strong></td>\n<td><strong>Electricity Damage</strong></td>\n</tr>\n<tr>\n<td>1-4</td>\n<td>-</td>\n<td>10</td>\n<td>1 point</td>\n</tr>\n<tr>\n<td>5-10</td>\n<td>3/-</td>\n<td>15</td>\n<td>1d6</td>\n</tr>\n<tr>\n<td>11+</td>\n<td>5/-</td>\n<td>20</td>\n<td>2d6</td>\n</tr>\n</tbody>\n</table>"
    },
    "tags": [],
    "actions": [],
    "attackNotes": [],
    "effectNotes": [],
    "changes": [],
    "contextNotes": [],
    "links": {
      "children": [],
      "charges": []
    },
    "armorProf": {
      "value": []
    },
    "weaponProf": {
      "value": []
    },
    "languages": {
      "value": []
    },
    "scriptCalls": [],
    "subType": "template",
    "associations": {
      "classes": []
    },
    "crOffset": "@attributes.hd.total >= 5 ? 1 : 0"
  }
}
