{
  "_id": "pF1B9lqYMsFF7mie",
  "name": "Entropic",
  "type": "feat",
  "img": "systems/pf1/icons/skills/violet_07.jpg",
  "sort": 0,
  "flags": {},
  "system": {
    "description": {
      "value": "<p><strong>Acquired/Inherited Template</strong> Acquired<br><strong>Simple Template</strong> Yes<br><strong>Usable with Summons </strong>Yes<p>Creatures with the entropic template live in planes where chaos is paramount. They can be summoned using spells such as summon monster and planar ally. An entropic creature’s CR increases by +1 only if the base creature has 5 or more HD. An entropic creature’s quick and rebuild rules are the same.<p><strong>Rebuild Rules:</strong> Senses gains darkvision 60 ft.; Defensive Abilities gains DR and energy resistance as noted on the table; SR gains SR equal to new CR +5; Special Attacks smite law 1/day as a swift action (adds Cha bonus to attack rolls and damage bonus equal to HD against lawful foes; smite persists until the target is dead or the entropic creature rests).</p>\n<hr>\n<p><br><strong>Entropic Creature Defenses</strong></p>\n<table>\n<tbody>\n<tr>\n<td><strong>Hit Dice</strong></td>\n<td><strong>Resist Acid and Fire</strong></td>\n<td><strong>DR</strong></td>\n</tr>\n<tr>\n<td>1-4</td>\n<td>5</td>\n<td>—</td>\n</tr>\n<tr>\n<td>5-10</td>\n<td>10</td>\n<td>5/lawful</td>\n</tr>\n<tr>\n<td>11+</td>\n<td>15</td>\n<td>10/lawful</td>\n</tr>\n</tbody>\n</table>"
    },
    "tags": [],
    "actions": [],
    "attackNotes": [],
    "effectNotes": [],
    "changes": [],
    "contextNotes": [],
    "links": {
      "children": [],
      "charges": []
    },
    "armorProf": {
      "value": []
    },
    "weaponProf": {
      "value": []
    },
    "languages": {
      "value": []
    },
    "scriptCalls": [],
    "subType": "template",
    "associations": {
      "classes": []
    },
    "crOffset": "@attributes.hd.total >= 5 ? 1 : 0"
  }
}
