{
  "_id": "9CyU0311Ga0lFkDr",
  "name": "Shadowbound Creature",
  "type": "feat",
  "img": "systems/pf1/icons/skills/violet_07.jpg",
  "sort": 0,
  "flags": {},
  "system": {
    "description": {
      "value": "<p><strong>Acquired/Inherited Template</strong> Acquired<br><strong>Simple Template</strong> Yes<br><strong>Usable with Summons </strong>No<p>A shadowbound creature has lost its color and capacity for joy and pleasure. Quick Rules: darkvision 120 ft.; +1 to AC; +2 on rolls based on Con; +2 hp/HD; light blindness; can’t gain morale bonuses; regretful gaze (shaken 1 round, 30 ft., Will save negates, DC = 10 + 1/2 HD + Cha modifier); after taking 3 points of damage per HD in a single attack, gain a +2 profane bonus on attack rolls, damage rolls, saving throws, and skill checks for 1 round.<p><strong>Rebuild Rules:</strong></p>\n<p><strong>Senses </strong>darkvision 120 ft.;</p>\n<p><strong>AC </strong>gain a deflection bonus to AC equal to 1/4 CR (minimum 1);</p>\n<p><strong>Weaknesses </strong>light blindness, can’t gain morale bonuses;</p>\n<p><strong>Special Attacks </strong>regretful gaze (shaken 1 round, 30 ft., Will negates, DC = 10 + 1/2 HD + Cha modifier); after taking 3 points of damage per HD in a single attack, gain a +2 profane bonus on attack rolls, damage rolls, saving throws, and skill checks for 1 round;</p>\n<p><strong>Ability Scores </strong>+4 Con.</p>"
    },
    "tags": [],
    "actions": [],
    "attackNotes": [],
    "effectNotes": [],
    "changes": [
      {
        "_id": "us3qj1su",
        "formula": "max(1, floor(@details.cr.total / 4))",
        "operator": "add",
        "subTarget": "ac",
        "modifier": "deflection",
        "priority": 0,
        "value": 0,
        "target": "ac"
      },
      {
        "_id": "5ab9w1cd",
        "formula": "4",
        "operator": "add",
        "subTarget": "con",
        "modifier": "untyped",
        "priority": 0,
        "value": 0,
        "target": "ability"
      }
    ],
    "contextNotes": [],
    "links": {
      "children": [],
      "charges": []
    },
    "armorProf": {
      "value": []
    },
    "weaponProf": {
      "value": []
    },
    "languages": {
      "value": []
    },
    "scriptCalls": [],
    "subType": "template",
    "associations": {
      "classes": []
    },
    "crOffset": "1"
  }
}
