{
  "_id": "TpzJ6KRAGlpGvPNx",
  "name": "Sorcerer",
  "type": "feat",
  "img": "systems/pf1/icons/skills/violet_07.jpg",
  "sort": 0,
  "flags": {},
  "system": {
    "description": {
      "value": "<p><strong>Acquired/Inherited Template</strong> Acquired<br><strong>Simple Template</strong> Yes<br><strong>Usable with Summons</strong> No<p>Sorcerer creatures can use a variety of powerful spells and abilities to devastate their foes. Select a sorcerer creature's bloodline when the template is added. A sorcerer creature's CR increases by 2 if the creature has 8 or more HD, and it increases by 3 if the creature has 14 or more HD.<p><strong>Quick Rules:</strong> +2 on all rolls based on Cha; gains the bloodline arcana and bloodline powers of its chosen bloodline (using its HD – 2 as its sorcerer level to determine the effect and DC [minimum 1]); can cast a small number of sorcerer spells (see the Sorcerer Spells Known table below) using its HD as its CL and gaining two spell slots for every level of spells known.<p><strong>Rebuild Rules:</strong></p>\n<p><strong>Special Attacks</strong> bloodline arcana, bloodline powers (using its HD – 2 as its sorcerer level to determine the effect and DC [minimum 1]);</p>\n<p><strong>Sorcerer Spells </strong>can cast a small number of sorcerer spells (see the Sorcerer Spells Known table below) using its HD as its CL and gaining two spell slots for every spell level known;</p>\n<p><strong>Ability Scores </strong>+4 Charisma.</p>\n<p><strong>Sorcerer Spells Known</strong></p>\n<hr>\n<table>\n<tbody>\n<tr>\n<td><strong>HD</strong></td>\n<td><strong>0</strong></td>\n<td><strong>1</strong></td>\n<td><strong>2</strong></td>\n<td><strong>3</strong></td>\n<td><strong>4</strong></td>\n<td><strong>5</strong></td>\n<td><strong>6</strong></td>\n<td><strong>7</strong></td>\n<td><strong>8</strong></td>\n<td><strong>9</strong></td>\n</tr>\n<tr>\n<td>1-4</td>\n<td>2</td>\n<td>1</td>\n<td>—</td>\n<td>—</td>\n<td>—</td>\n<td>—</td>\n<td>—</td>\n<td>—</td>\n<td>—</td>\n<td>—</td>\n</tr>\n<tr>\n<td>5-7</td>\n<td>2</td>\n<td>2</td>\n<td>1</td>\n<td>—</td>\n<td>—</td>\n<td>—</td>\n<td>—</td>\n<td>—</td>\n<td>—</td>\n<td>—</td>\n</tr>\n<tr>\n<td>8-10</td>\n<td>‡</td>\n<td>2</td>\n<td>2</td>\n<td>1</td>\n<td>—</td>\n<td>—</td>\n<td>—</td>\n<td>—</td>\n<td>—</td>\n<td>—</td>\n</tr>\n<tr>\n<td>11-13</td>\n<td>‡</td>\n<td>‡</td>\n<td>2</td>\n<td>2</td>\n<td>1</td>\n<td>—</td>\n<td>—</td>\n<td>—</td>\n<td>—</td>\n<td>—</td>\n</tr>\n<tr>\n<td>14--16</td>\n<td>‡</td>\n<td>‡</td>\n<td>‡</td>\n<td>2</td>\n<td>2</td>\n<td>1</td>\n<td>—</td>\n<td>—</td>\n<td>—</td>\n<td>—</td>\n</tr>\n<tr>\n<td>17-19</td>\n<td>‡</td>\n<td>‡</td>\n<td>‡</td>\n<td>‡</td>\n<td>2</td>\n<td>2</td>\n<td>1</td>\n<td>—</td>\n<td>—</td>\n<td>—</td>\n</tr>\n<tr>\n<td>20-22</td>\n<td>‡</td>\n<td>‡</td>\n<td>‡</td>\n<td>‡</td>\n<td>‡</td>\n<td>2</td>\n<td>2</td>\n<td>1</td>\n<td>—</td>\n<td>—</td>\n</tr>\n<tr>\n<td>23-25</td>\n<td>‡</td>\n<td>‡</td>\n<td>‡</td>\n<td>‡</td>\n<td>‡</td>\n<td>‡</td>\n<td>2</td>\n<td>2</td>\n<td>1</td>\n<td>—</td>\n</tr>\n<tr>\n<td>26+</td>\n<td>‡</td>\n<td>‡</td>\n<td>‡</td>\n<td>‡</td>\n<td>‡</td>\n<td>‡</td>\n<td>‡</td>\n<td>2</td>\n<td>2</td>\n<td>1</td>\n</tr>\n</tbody>\n</table>"
    },
    "tags": [],
    "actions": [],
    "attackNotes": [],
    "effectNotes": [],
    "changes": [
      {
        "_id": "d6fn89ev",
        "formula": "4",
        "operator": "add",
        "subTarget": "cha",
        "modifier": "untyped",
        "priority": 0,
        "value": 0,
        "target": "ability"
      }
    ],
    "contextNotes": [],
    "links": {
      "children": [],
      "charges": []
    },
    "armorProf": {
      "value": []
    },
    "weaponProf": {
      "value": []
    },
    "languages": {
      "value": []
    },
    "scriptCalls": [],
    "subType": "template",
    "associations": {
      "classes": []
    },
    "crOffset": "(@attributes hd. total >= 14) ? 3 : ((@attributes.hd.total > 7 && @attributes.hd.total < 14) ? 2 : 1)"
  }
}
