{
  "_id": "b95YEbR3GE3mLuoJ",
  "name": "Thicken Ogre",
  "type": "feat",
  "img": "systems/pf1/icons/skills/violet_07.jpg",
  "sort": 0,
  "flags": {},
  "system": {
    "description": {
      "value": "<p><strong>Acquired/Inherited Template</strong> Inherited<br><strong>Simple Template</strong> Yes<br><strong>Usable with Summons</strong> No<p>These tall, bone-thin ogres have thick, bark-like skin and spiked growths all over their bodies, and their hands end in sharp, thorn-like claws.<p><strong>Quick Rules:</strong> +2 on AC, –1 hp/HD, and –1 on Fortitude saves and Constitution checks; gains 2 claw attacks (1d6); +4 racial bonus on Stealth checks in forests.<p><strong>Rebuild Rules:</strong> Ability Scores –2 Constitution, +2 natural armor bonus; Attacks gains 2 claw attacks (1d6); Special +4 racial bonus on Stealth checks in forests.</p>"
    },
    "tags": [],
    "actions": [],
    "attackNotes": [],
    "effectNotes": [],
    "changes": [
      {
        "_id": "p9zwbjw7",
        "formula": "-2",
        "operator": "add",
        "subTarget": "con",
        "modifier": "untyped",
        "priority": 0,
        "value": 0,
        "target": "ability"
      },
      {
        "_id": "2y07x5k1",
        "formula": "2",
        "operator": "add",
        "subTarget": "nac",
        "modifier": "untyped",
        "priority": 0,
        "value": 0,
        "target": "ac"
      }
    ],
    "contextNotes": [
      {
        "text": "+[[4]] in Forests",
        "target": "skill",
        "subTarget": "skill.ste"
      }
    ],
    "links": {
      "children": [],
      "charges": []
    },
    "armorProf": {
      "value": []
    },
    "weaponProf": {
      "value": []
    },
    "languages": {
      "value": []
    },
    "scriptCalls": [],
    "subType": "template",
    "associations": {
      "classes": []
    },
    "crOffset": "0"
  }
}
