{
  "_id": "nhUawPP4jfED3CYV",
  "name": "Gorgon's Fist",
  "type": "feat",
  "img": "systems/pf1/icons/feats/gorgons-fist.jpg",
  "sort": 0,
  "flags": {},
  "system": {
    "description": {
      "value": "<i>With one well-placed blow, you leave your target reeling.</i>\n<p>\n<p><b>Prerequisites</b></p>\n<p>Improved Unarmed Strike, Scorpion Style, base attack bonus +6.</p>\n<br>\n<p><b>Benefits</b></p>\n<p><p>As a standard action, make a single unarmed melee attack against a foe whose speed is reduced (such as from Scorpion Style). If the attack hits, you deal damage normally and the target is staggered until the end of your next turn unless it makes a Fortitude saving throw (DC 10 + 1/2 your character level + your Wis modifier). This feat has no effect on targets that are staggered.</p></p>"
    },
    "tags": [["Combat"], ["Offensive"], ["Unarmed"]],
    "actions": [],
    "attackNotes": [],
    "effectNotes": [],
    "changes": [],
    "contextNotes": [],
    "links": {
      "children": [],
      "charges": []
    },
    "tag": "feat_gorgonsFist",
    "useCustomTag": true,
    "armorProf": {
      "value": []
    },
    "weaponProf": {
      "value": []
    },
    "languages": {
      "value": []
    },
    "scriptCalls": [],
    "associations": {
      "classes": []
    }
  }
}
