{
  "_id": "h1vqUG9Kh3f7oKWK",
  "name": "Improved Precise Shot",
  "type": "feat",
  "img": "systems/pf1/icons/feats/improved-precise-shot.jpg",
  "sort": 0,
  "flags": {},
  "system": {
    "description": {
      "value": "<p><em>Your ranged attacks ignore anything but total concealment and cover.</em><p><strong>Prerequisites</strong><br>Dex 19, Point-Blank Shot, Precise Shot, base attack bonus +11.<p><strong>Benefits</strong><br>Your ranged attacks ignore the AC bonus granted to targets by anything less than total cover, and the miss chance granted to targets by anything less than total concealment. Total cover and total concealment provide their normal benefits against your ranged attacks.<p><strong>Normal</strong><br>See the normal rules on the effects of cover and concealment in Combat.<p><strong>Combat Trick</strong><br>When you use the ability of the Precise Shot combat trick, the bonuses increase to +4.</p>"
    },
    "tags": [["PFS"], ["Combat"]],
    "actions": [],
    "attackNotes": [],
    "effectNotes": [],
    "changes": [],
    "contextNotes": [
      {
        "subTarget": "attack",
        "target": "attacks",
        "text": "Ranged attacks ignore the AC bonus granted to targets by anything less than total cover, and the miss chance granted to targets by anything less than total concealment."
      }
    ],
    "links": {
      "children": [],
      "charges": []
    },
    "tag": "feat_improvedPreciseShot",
    "useCustomTag": true,
    "armorProf": {
      "value": []
    },
    "weaponProf": {
      "value": []
    },
    "languages": {
      "value": []
    },
    "scriptCalls": [],
    "associations": {
      "classes": []
    }
  }
}
