{
  "_id": "V8GIvVaAofyw9xIl",
  "name": "Improved Counterspell",
  "type": "feat",
  "img": "systems/pf1/icons/feats/improved-counterspell.jpg",
  "sort": 0,
  "flags": {},
  "system": {
    "description": {
      "value": "<i>You are skilled at countering the spells of others using similar spells.</i>\n<p>\n<p><b>Benefits</b></p>\n<p><p>When counterspelling, you may use a spell of the same school that is one or more spell levels higher than the target spell.</p></p>\n<br>\n<p><b>Normal</b></p>\n<p><p>Without this feat, you may counter a spell only with the same spell or with a spell specifically designated as countering the target spell.</p></p>"
    },
    "tags": [["General"], ["Magic"]],
    "actions": [],
    "attackNotes": [],
    "effectNotes": [],
    "changes": [],
    "contextNotes": [],
    "links": {
      "children": [],
      "charges": []
    },
    "tag": "feat_improvedCounterspell",
    "useCustomTag": true,
    "armorProf": {
      "value": []
    },
    "weaponProf": {
      "value": []
    },
    "languages": {
      "value": []
    },
    "scriptCalls": [],
    "associations": {
      "classes": []
    }
  }
}
