{
  "_id": "Uuiu3p982omhMEPj",
  "name": "Improved Initiative",
  "type": "feat",
  "img": "systems/pf1/icons/feats/improved-initiative.jpg",
  "sort": 0,
  "flags": {},
  "system": {
    "description": {
      "value": "<i>Your quick reflexes allow you to react rapidly to danger.</i>\n<p>\n<p><b>Benefits</b></p>\n<p><p>You get a +4 bonus on initiative checks.</p></p>"
    },
    "tags": [["Combat"]],
    "actions": [],
    "attackNotes": [],
    "effectNotes": [],
    "changes": [
      {
        "_id": "ign7okhi",
        "formula": "4",
        "operator": "add",
        "subTarget": "init",
        "modifier": "untyped",
        "priority": 0,
        "value": 0,
        "target": "misc"
      }
    ],
    "contextNotes": [],
    "links": {
      "children": [],
      "charges": []
    },
    "tag": "feat_improvedInitiative",
    "useCustomTag": true,
    "armorProf": {
      "value": []
    },
    "weaponProf": {
      "value": []
    },
    "languages": {
      "value": []
    },
    "scriptCalls": [],
    "associations": {
      "classes": []
    }
  }
}
