{
  "_id": "jVFjMIyQD6TOAsmj",
  "name": "Still Spell",
  "type": "feat",
  "img": "systems/pf1/icons/feats/still-spell.jpg",
  "sort": 0,
  "flags": {},
  "system": {
    "description": {
      "value": "<i>You can cast spells without moving.</i>\n<p>\n<p><b>Benefits</b></p>\n<p><p>A stilled spell can be cast with no somatic components. Spells without somatic components are not affected. A stilled spell uses up a spell slot one level higher than the spell's actual level.</p></p>"
    },
    "tags": [["Metamagic"], ["Magic"]],
    "actions": [],
    "attackNotes": [],
    "effectNotes": [],
    "changes": [],
    "contextNotes": [],
    "links": {
      "children": [],
      "charges": []
    },
    "tag": "feat_stillSpell",
    "useCustomTag": true,
    "armorProf": {
      "value": []
    },
    "weaponProf": {
      "value": []
    },
    "languages": {
      "value": []
    },
    "scriptCalls": [],
    "associations": {
      "classes": []
    }
  }
}
