{
  "_id": "D5ki8ZZyDXFbvf4f",
  "name": "Adamantine Bullet",
  "type": "loot",
  "img": "systems/pf1/icons/items/weapons/bullet.png",
  "sort": 0,
  "flags": {},
  "system": {
    "description": {
      "value": "<p><strong>Source</strong> <em>Ultimate Combat pg. 141</em></p><h3><span title=\"PFS Legal\">[PFS]</span> Statistics</h3><p><strong>Cost</strong> 61 gp <strong>Weight</strong> -</p><p><strong>Category</strong> Ammunition; <strong>Proficiency</strong> Exotic</p><h3>Description</h3><p>These expensive bullets are crafted from adamantine. They ignore hardness 20 or less when attacking objects.</p>"
    },
    "tags": [],
    "price": 61,
    "equipped": false,
    "hp": {
      "max": 1,
      "value": 1
    },
    "hardness": 5,
    "identifiedName": "Adamantine Bullet",
    "changes": [],
    "contextNotes": [],
    "links": {
      "children": []
    },
    "tag": "adamantineBullet",
    "scriptCalls": [],
    "subType": "ammo",
    "extraType": "slingBullet"
  }
}
