{
  "_id": "I4QMJ9pvFDdOyqve",
  "name": "Barbed Arrow",
  "type": "loot",
  "img": "icons/weapons/ammunition/arrow-simple-grey.webp",
  "sort": 0,
  "flags": {},
  "system": {
    "description": {
      "value": "<p><strong>Source</strong> <em>Ranged Tactics Toolbox pg. 19</em></p>\n<h3><span title=\"PFS Legal\">[PFS]</span> Statistics</h3>\n<p><strong>Cost</strong> 2 gp <strong>Weight</strong> 3 lbs.</p>\n<p><strong>Category</strong> Ammunition; <strong>Proficiency</strong> Ammunition</p>\n<h3>Description</h3>\n<p>The head of a barbed arrow resembles that of a harpoon.</p>\n<p>When a barbed arrow is attached to a length of silk rope and fired from a bow, the arrow's range increment is reduced to 30 feet, but it gains the <strong>grapple special weapon quality</strong> (<em>Pathfinder RPG Ultimate Equipment</em> 22).</p>\n<p>Barbed bolts exist for crossbows.</p>"
    },
    "tags": [],
    "quantity": 20,
    "weight": {
      "value": 0.15
    },
    "price": 0.1,
    "equipped": false,
    "hp": {
      "max": 1,
      "value": 1
    },
    "hardness": 5,
    "identifiedName": "Barbed Arrow",
    "changes": [],
    "contextNotes": [],
    "links": {
      "children": []
    },
    "tag": "barbedArrow",
    "scriptCalls": [],
    "subType": "ammo",
    "extraType": "arrow"
  }
}
