{
  "_id": "JVObA6FqSBzZfikV",
  "name": "Dwarven Longhammer",
  "type": "weapon",
  "img": "systems/pf1/icons/items/weapons/dwarven-long-hammer.PNG",
  "sort": 0,
  "flags": {},
  "system": {
    "description": {
      "value": "<p><strong>Source</strong> <em>Advanced Race Guide pg. 17</em></p><h3><span title=\"PFS Legal\">[PFS]</span> Statistics</h3><p><strong>Cost</strong> 70 gp <strong>Weight</strong> 20 lbs.</p><p><strong>Damage</strong> 1d10 (small), 2d6 (medium); <strong>Critical</strong> x3; <strong>Range</strong> -; <strong>Type</strong> B; <strong>Special</strong> reach</p><p><strong>Category</strong> Two-Handed; <strong>Proficiency</strong> Exotic</p><h3>Description</h3><p>These heavy-headed bludgeons are often carved or cast with monstrous faces or drilled with tiny holes to create a menacing whistling as they are swung through the air.</p>"
    },
    "tags": [["Dwarven Longhammer"], ["Dwarven"]],
    "weight": {
      "value": 20
    },
    "price": 70,
    "hardness": 10,
    "identifiedName": "Dwarven Longhammer",
    "changes": [],
    "actions": [
      {
        "_id": "323e3aicetlv61r8",
        "name": "Attack",
        "img": "systems/pf1/icons/items/weapons/dwarven-long-hammer.PNG",
        "description": "",
        "tag": "",
        "activation": {
          "cost": 1,
          "type": "attack"
        },
        "unchainedAction": {
          "activation": {
            "cost": 1,
            "type": ""
          }
        },
        "duration": {
          "value": null,
          "units": "inst"
        },
        "target": {
          "value": ""
        },
        "range": {
          "value": "0",
          "units": "reach",
          "maxIncrements": 1,
          "minValue": null,
          "minUnits": ""
        },
        "uses": {
          "autoDeductChargesCost": "",
          "self": {
            "value": 0,
            "maxFormula": "",
            "per": null
          },
          "per": "",
          "value": 0,
          "maxFormula": ""
        },
        "measureTemplate": {
          "type": "",
          "size": "",
          "overrideColor": false,
          "customColor": "",
          "overrideTexture": false,
          "customTexture": ""
        },
        "attackName": "",
        "actionType": "mwak",
        "attackBonus": "",
        "critConfirmBonus": "",
        "damage": {
          "parts": [
            [
              "sizeRoll(2, 6, @size)",
              {
                "values": ["bludgeoning"],
                "custom": ""
              }
            ]
          ],
          "critParts": [],
          "nonCritParts": []
        },
        "attackParts": [],
        "formulaicAttacks": {
          "count": {
            "formula": "min(3, ceil(@attributes.bab.total / 5) - 1)"
          },
          "bonus": {
            "formula": "@formulaicAttack * -5"
          },
          "label": null
        },
        "formula": "",
        "ability": {
          "attack": "str",
          "damage": "str",
          "damageMult": 1.5,
          "critRange": 20,
          "critMult": 3
        },
        "save": {
          "dc": "0",
          "type": "",
          "description": ""
        },
        "effectNotes": [],
        "attackNotes": [],
        "soundEffect": "",
        "powerAttack": {
          "multiplier": "",
          "damageBonus": 2,
          "critMultiplier": 1
        },
        "naturalAttack": {
          "primaryAttack": true,
          "secondary": {
            "attackBonus": "-5",
            "damageMult": 0.5
          }
        },
        "nonlethal": false,
        "usesAmmo": false,
        "spellEffect": "",
        "spellArea": "",
        "conditionals": [],
        "enh": {
          "value": null
        }
      }
    ],
    "uses": {
      "per": ""
    },
    "attackNotes": [],
    "effectNotes": [],
    "contextNotes": [],
    "links": {
      "children": []
    },
    "tag": "dwarvenLonghammer",
    "scriptCalls": [],
    "held": "2h",
    "weaponGroups": {
      "value": ["hammers"]
    },
    "subType": "exotic",
    "weaponSubtype": "2h"
  }
}
