{
  "_id": "c2cwyWi0Jn5PMggb",
  "name": "Mancatcher",
  "type": "weapon",
  "img": "systems/pf1/icons/items/weapons/mancatcher.png",
  "sort": 0,
  "flags": {},
  "system": {
    "description": {
      "value": "<p><strong>Source</strong> <em>Ultimate Equipment pg. 21</em>, <em>Adventurer's Armory pg. 4</em>, <em>Advanced Player's Guide pg. 179</em></p><h3><span title=\"PFS Legal\">[PFS]</span> Statistics</h3><p><strong>Cost</strong> 15 gp <strong>Weight</strong> 10 lbs.</p><p><strong>Damage</strong> 1 (small), 1d2 (medium); <strong>Critical</strong> -; <strong>Range</strong> -; <strong>Type</strong> P; <strong>Special</strong> reach, see text</p><p><strong>Category</strong> Two-Handed; <strong>Proficiency</strong> Exotic</p><p><strong>Weapon Groups</strong> Polearms</p><h3>Description</h3><p>This polearm consists of two curved metal bands that close around a target when you attack, allowing you to bind an opponent. A mancatcher is built to capture a creature of a particular size category (such as Small or Medium) and doesn't work on creatures of the wrong size. Make a touch attack to hit an opponent and a combat maneuver check to grapple him (without the -4 penalty for not having two hands free); success means you and the target are grappled. Once the target is grappled, you can perform a move or damage grapple action against him. The mancatcher has hardness 10 and 5 hit points; breaking it requires a DC 26 Strength check. If you drop the mancatcher, the target can free himself as a standard action.</p>"
    },
    "tags": [["Mancatcher"]],
    "weight": {
      "value": 10
    },
    "price": 15,
    "hardness": 10,
    "identifiedName": "Mancatcher",
    "changes": [],
    "actions": [
      {
        "_id": "g555cwfk4pg9q0f4",
        "name": "Attack",
        "img": "systems/pf1/icons/items/weapons/mancatcher.png",
        "description": "",
        "tag": "",
        "activation": {
          "cost": 1,
          "type": "attack"
        },
        "unchainedAction": {
          "activation": {
            "cost": 1,
            "type": ""
          }
        },
        "duration": {
          "value": null,
          "units": "inst"
        },
        "target": {
          "value": ""
        },
        "range": {
          "value": "0",
          "units": "reach",
          "maxIncrements": 1,
          "minValue": null,
          "minUnits": ""
        },
        "uses": {
          "autoDeductChargesCost": "",
          "self": {
            "value": 0,
            "maxFormula": "",
            "per": null
          },
          "per": "",
          "value": 0,
          "maxFormula": ""
        },
        "measureTemplate": {
          "type": "",
          "size": "",
          "overrideColor": false,
          "customColor": "",
          "overrideTexture": false,
          "customTexture": ""
        },
        "attackName": "",
        "actionType": "mwak",
        "attackBonus": "",
        "critConfirmBonus": "",
        "damage": {
          "parts": [
            [
              "sizeRoll(1, 2, @size)",
              {
                "values": ["piercing"],
                "custom": ""
              }
            ]
          ],
          "critParts": [],
          "nonCritParts": []
        },
        "attackParts": [],
        "formulaicAttacks": {
          "count": {
            "formula": "min(3, ceil(@attributes.bab.total / 5) - 1)"
          },
          "bonus": {
            "formula": "@formulaicAttack * -5"
          },
          "label": null
        },
        "formula": "",
        "ability": {
          "attack": "str",
          "damage": "str",
          "damageMult": 1.5,
          "critRange": 20,
          "critMult": 0
        },
        "save": {
          "dc": "0",
          "type": "",
          "description": ""
        },
        "effectNotes": [],
        "attackNotes": [],
        "soundEffect": "",
        "powerAttack": {
          "multiplier": "",
          "damageBonus": 2,
          "critMultiplier": 1
        },
        "naturalAttack": {
          "primaryAttack": true,
          "secondary": {
            "attackBonus": "-5",
            "damageMult": 0.5
          }
        },
        "nonlethal": false,
        "usesAmmo": false,
        "spellEffect": "",
        "spellArea": "",
        "conditionals": [],
        "enh": {
          "value": null
        }
      }
    ],
    "uses": {
      "per": ""
    },
    "attackNotes": [],
    "effectNotes": [],
    "contextNotes": [],
    "links": {
      "children": []
    },
    "tag": "mancatcher",
    "scriptCalls": [],
    "held": "2h",
    "weaponGroups": {
      "value": ["polearms"]
    },
    "subType": "exotic",
    "weaponSubtype": "2h"
  }
}
