{
  "_id": "qozwdcnkxulxsepe",
  "name": "Acid",
  "type": "weapon",
  "img": "systems/pf1/icons/items/potions/major-green.jpg",
  "sort": 0,
  "flags": {},
  "system": {
    "description": {
      "value": "<p class=\"source\"><strong>Source</strong> <em>PZO1110</em></p>\n<p>You can throw a flask of acid as a <em>splash weapon</em> with a range increment of 10 feet.</p>\n<p>A direct hit deals 1d6 points of acid damage. Every creature within 5 feet of the point where the acid hits takes 1 point of acid damage from the splash.</p>\n<p>Craft (alchemy) DC: 15</p>\n<p>Alchemical Power Component</p>\n<p class=\"source\"><strong>Source</strong> <em>PZO9410</em></p>\n<p>A common flask of acid has many uses as an alchemical power component, particularly with attack spells.</p>\n<ul>\n<li><em>Acid Arrow</em> (M): The spell's acid lasts 1 round longer than normal.</li>\n<li><em>Acid Fog</em> (M): The fog's radius and height increase by 5 feet.</li>\n<li><em>Acid Splash</em> (F): The spell deals +1 point of damage.</li>\n<li><em>Acid Splash</em> (M): The spell lasts 1 round longer than normal.</li>\n<li><em>Dispel Magic</em> (M): Using acid as a material component while attempting to dispel or <em>counterspell</em> a spell or effect with the earth subtype gives you a +2 bonus on your dispel check. This bonus applies whether you are using <em>dispel magic</em>, <em>greater dispel magic</em>, or some other spell that you can use for counterspelling (for example, if you have the <em>Improved Counterspell</em> feat).</li>\n<li><em>Grease</em> (M): The grease is acidic and deals 1 point of acid damage per round to any creature in the area or holding the greased object.</li>\n<li><em>Wall of Ice</em> (M): For each flask of acid used as a power component, you may designate one 10-foot square of ice wall that, if <em>broken</em> through, deals 1d6 acid damage in addition to the normal cold damage.</li>\n</ul>"
    },
    "tags": [],
    "weight": {
      "value": 1
    },
    "price": 10,
    "identifiedName": "Acid",
    "changes": [],
    "actions": [
      {
        "_id": "g2rblzzkmv43el5f",
        "name": "Attack",
        "img": "systems/pf1/icons/items/potions/major-green.jpg",
        "description": "",
        "tag": "",
        "activation": {
          "cost": 1,
          "type": "attack"
        },
        "unchainedAction": {
          "activation": {
            "cost": 1,
            "type": ""
          }
        },
        "duration": {
          "value": null,
          "units": "inst"
        },
        "target": {
          "value": ""
        },
        "range": {
          "value": "10",
          "units": "ft",
          "maxIncrements": 5,
          "minValue": null,
          "minUnits": ""
        },
        "uses": {
          "autoDeductChargesCost": "",
          "self": {
            "value": 0,
            "maxFormula": "",
            "per": null
          },
          "per": "single",
          "value": 0,
          "maxFormula": ""
        },
        "measureTemplate": {
          "type": "",
          "size": "",
          "overrideColor": false,
          "customColor": "",
          "overrideTexture": false,
          "customTexture": ""
        },
        "attackName": "",
        "actionType": "rwak",
        "attackBonus": "",
        "critConfirmBonus": "",
        "damage": {
          "parts": [
            [
              "1d6",
              {
                "values": ["acid"],
                "custom": ""
              }
            ]
          ],
          "critParts": [],
          "nonCritParts": []
        },
        "attackParts": [],
        "formulaicAttacks": {
          "count": {
            "formula": ""
          },
          "bonus": {
            "formula": ""
          },
          "label": ""
        },
        "formula": "",
        "ability": {
          "attack": "dex",
          "damage": "",
          "damageMult": 1,
          "critRange": 20,
          "critMult": 2
        },
        "save": {
          "dc": "0",
          "type": "",
          "description": ""
        },
        "effectNotes": [],
        "attackNotes": [],
        "soundEffect": "",
        "powerAttack": {
          "multiplier": "",
          "damageBonus": 2,
          "critMultiplier": 1
        },
        "naturalAttack": {
          "primaryAttack": true,
          "secondary": {
            "attackBonus": "-5",
            "damageMult": 0.5
          }
        },
        "nonlethal": false,
        "usesAmmo": false,
        "spellEffect": "",
        "spellArea": "",
        "conditionals": [],
        "enh": {
          "value": null
        }
      }
    ],
    "uses": {
      "per": "single"
    },
    "attackNotes": [],
    "effectNotes": [],
    "contextNotes": [],
    "links": {
      "children": [
        {
          "_index": 0,
          "dataType": "data",
          "hiddenLinks": {},
          "id": "VOIeK1O7fy1zwq7s",
          "img": "systems/pf1/icons/items/potions/unique-6.jpg",
          "name": "Alchemist's Fire"
        },
        {
          "_index": 1,
          "dataType": "data",
          "hiddenLinks": {},
          "id": "oaE0JqMAImcekCyU",
          "img": "systems/pf1/icons/items/potions/major-green.jpg",
          "name": "Acid"
        }
      ]
    },
    "tag": "acid",
    "scriptCalls": [],
    "weaponGroups": {
      "value": []
    },
    "subType": "misc",
    "weaponSubtype": "other"
  }
}
