{
  "_id": "lSCPUK5Ea6R0t4fz",
  "name": "Backpack",
  "type": "container",
  "img": "systems/pf1/icons/items/inventory/backpack.jpg",
  "sort": 0,
  "flags": {},
  "system": {
    "description": {
      "value": "<p>This leather knapsack has one large pocket that closes with a buckled strap and holds about 2 cubic feet of material. Some may have one or more smaller pockets on the sides.</p>"
    },
    "tags": [],
    "weight": {
      "value": 2
    },
    "price": 2,
    "identifiedName": "Backpack",
    "inventoryItems": [],
    "basePrice": 2
  }
}
