{
  "_id": "inldkkumiyknanfv",
  "name": "Basket",
  "type": "loot",
  "img": "systems/pf1/icons/items/inventory/dice.jpg",
  "sort": 0,
  "flags": {},
  "system": {
    "description": {
      "value": "<p class=\"source\"><b>Source</b> <em>PZO1110</em></p>\n<p>A common basket is constructed of wicker and holds 2 cubic ft. or 20 lbs. of materials.</p>\n<p><b>Empty Weight</b>: 1 lb.; <b>Capacity</b>: 2 cubic ft./20 lb.</p>"
    },
    "tags": [],
    "weight": {
      "value": 1
    },
    "price": 0.4,
    "equipped": false,
    "changes": [],
    "contextNotes": [],
    "links": {
      "children": []
    },
    "scriptCalls": [],
    "subType": "gear"
  }
}
