{
  "_id": "tunjtconozqhanqc",
  "name": "Brush, Dandy",
  "type": "loot",
  "img": "systems/pf1/icons/items/inventory/dice.jpg",
  "sort": 0,
  "flags": {},
  "system": {
    "description": {
      "value": "<p class=\"source\"><b>Source</b> <em>PPZO9410</em></p>\n<p><b>Price</b> 2 sp; <b>Weight</b> 2 lbs.</p>\n<p>This hard-bristled tool has a handle that slips over the wearer's hand, and is used by <em>animal</em> breeders, owners, and grooms to brush the <em>animals</em> in their care, loosening dirt and detritus from the creatures' coats and stimulating the skin so it produces the natural oils that keep them healthy and clean.</p>"
    },
    "tags": [],
    "weight": {
      "value": 2
    },
    "price": 0.2,
    "equipped": false,
    "changes": [],
    "contextNotes": [],
    "links": {
      "children": []
    },
    "scriptCalls": [],
    "subType": "gear"
  }
}
