{
  "_id": "xOb5JuJKdNUsh6kP",
  "name": "Crystal Ball (Detect Thoughts)",
  "type": "consumable",
  "img": "icons/commodities/gems/pearl-glass-purple.webp",
  "sort": 0,
  "flags": {},
  "system": {
    "description": {
      "value": "<p>This is the most common form of scrying device, a crystal sphere about 6 inches in diameter. So well-known are these items that many so-called oracles or fortune-tellers use similar appearing (but completely nonmagical) replicas of these items to ply their trades. A character can use a magical crystal ball to see over virtually any distance or into other planes of existence, as with the spell @Compendium[pf1.spells.g66w32kdup1f43bp]{Scrying}<em> </em>(Will DC 16 negates). A crystal ball can be used multiple times per day, but the DC to resist its power decreases by 1 for each additional use. Certain crystal balls have additional powers that can be used through the crystal ball on the target viewed.</p>\n<p>While looking through the crystal ball, you can use @Compendium[pf1.spells.xllxylvvqr82o2d5]{Detect Thoughts} (Will DC [[10[Base] + 1[SL] + 2[CAM]]] negates) on the subject.</p>"
    },
    "tags": [],
    "weight": {
      "value": 7
    },
    "price": 51000,
    "unidentified": {
      "name": "Crystal Ball"
    },
    "identifiedName": "Crystal Ball (Detect Thoughts)",
    "cl": 10,
    "aura": {
      "school": "div"
    },
    "actions": [
      {
        "_id": "03uaydp57ralvczo",
        "name": "Use",
        "img": "icons/commodities/gems/pearl-glass-purple.webp",
        "description": "",
        "tag": "",
        "activation": {
          "cost": 1,
          "type": "standard"
        },
        "unchainedAction": {
          "activation": {
            "cost": 1,
            "type": ""
          }
        },
        "duration": {
          "value": "@item.cl",
          "units": "minute"
        },
        "target": {
          "value": ""
        },
        "range": {
          "value": null,
          "units": "seeText",
          "maxIncrements": 1,
          "minValue": null,
          "minUnits": ""
        },
        "uses": {
          "autoDeductChargesCost": "",
          "self": {
            "value": 0,
            "maxFormula": "",
            "per": null
          },
          "per": "",
          "value": 0,
          "maxFormula": "",
          "pricePerUse": 0
        },
        "measureTemplate": {
          "type": "",
          "size": "",
          "overrideColor": false,
          "customColor": "",
          "overrideTexture": false,
          "customTexture": ""
        },
        "attackName": "",
        "actionType": "spellsave",
        "attackBonus": "",
        "critConfirmBonus": "",
        "damage": {
          "parts": [],
          "critParts": [],
          "nonCritParts": []
        },
        "attackParts": [],
        "formulaicAttacks": {
          "count": {
            "formula": ""
          },
          "bonus": {
            "formula": ""
          },
          "label": null
        },
        "formula": "",
        "ability": {
          "attack": null,
          "damage": "",
          "damageMult": 1,
          "critRange": 20,
          "critMult": 2
        },
        "save": {
          "dc": "10[Base] + 4[SL] + 2[CAM]",
          "type": "will",
          "description": "Will negates"
        },
        "effectNotes": [],
        "attackNotes": [],
        "soundEffect": "",
        "powerAttack": {
          "multiplier": "",
          "damageBonus": 2,
          "critMultiplier": 1
        },
        "naturalAttack": {
          "primaryAttack": true,
          "secondary": {
            "attackBonus": "-5",
            "damageMult": 0.5
          }
        },
        "nonlethal": false,
        "usesAmmo": false,
        "spellEffect": "",
        "spellArea": "",
        "conditionals": [],
        "enh": {
          "value": null
        },
        "attackType": "weapon"
      }
    ],
    "uses": {
      "per": ""
    },
    "attackNotes": [],
    "effectNotes": [],
    "links": {
      "children": [],
      "charges": []
    },
    "scriptCalls": [],
    "subType": "misc"
  }
}
