{
  "_id": "kuaqnhesurdacanx",
  "name": "Earplugs",
  "type": "loot",
  "img": "systems/pf1/icons/items/inventory/dice.jpg",
  "sort": 0,
  "flags": {},
  "system": {
    "description": {
      "value": "<p><b>Price</b> 3 cp; <b>Weight</b> -</p>\n<p>Made of waxed cotton or cork, earplugs give you a +2 <em>circumstance bonus</em> on saves against effects that require hearing, but also cause a -5 penalty on hearing-based <em>Perception</em> checks.</p>"
    },
    "tags": [],
    "price": 0.03,
    "equipped": false,
    "changes": [],
    "contextNotes": [],
    "links": {
      "children": []
    },
    "scriptCalls": [],
    "subType": "gear"
  }
}
