{
  "_id": "ygmrcisvftnvjyob",
  "name": "Flint And Steel",
  "type": "loot",
  "img": "icons/commodities/stone/rock-chunk-grey.webp",
  "sort": 0,
  "flags": {},
  "system": {
    "description": {
      "value": "<p>Lighting a <em>torch</em> with a <em>flint and steel</em> is a full-round action. Lighting any other fire with them takes at least that long.</p>"
    },
    "tags": [],
    "price": 1,
    "equipped": false,
    "identifiedName": "Flint And Steel",
    "changes": [],
    "contextNotes": [],
    "links": {
      "children": []
    },
    "scriptCalls": [],
    "subType": "gear"
  }
}
