{
  "name": "Fork",
  "type": "loot",
  "img": "icons/tools/cooking/fork-steel-tan.webp",
  "system": {
    "tags": [["Mundane"], ["Cooking"]],
    "weight": {
      "value": 0.1
    },
    "equipped": false,
    "changes": [],
    "contextNotes": [],
    "links": {
      "children": []
    },
    "scriptCalls": [],
    "subType": "gear"
  },
  "flags": {},
  "sort": 0,
  "_id": "jzu5QqK20bW9gkN1"
}
