{
  "_id": "d8dNMmffPaYxrxMM",
  "name": "Headband of Inspired Wisdom +4",
  "type": "equipment",
  "img": "systems/pf1/icons/items/equipment/belt-gems.jpg",
  "sort": 0,
  "flags": {},
  "system": {
    "description": {
      "value": "<p>This simple bronze headband is decorated with an intricate pattern of fine green etchings.</p>\n<p>The headband grants the wearer an <em>enhancement bonus</em> to <em>Wisdom</em> of +2, +4, or +6. Treat this as a temporary ability bonus for the first 24 hours the headband is worn.</p>",
      "unidentified": "<p>This simple bronze headband is decorated with an intricate pattern of fine green etchings.</p>"
    },
    "tags": [],
    "weight": {
      "value": 1
    },
    "price": 16000,
    "resizing": true,
    "unidentified": {
      "name": "Headband"
    },
    "identifiedName": "Headband of Inspired Wisdom +4",
    "cl": 8,
    "aura": {
      "school": "trs"
    },
    "changes": [
      {
        "_id": "06dnhzue",
        "formula": "4",
        "operator": "add",
        "subTarget": "wis",
        "modifier": "enh",
        "priority": 0,
        "value": 0,
        "target": "ability"
      }
    ],
    "contextNotes": [],
    "actions": [],
    "attackNotes": [],
    "effectNotes": [],
    "links": {
      "children": [],
      "charges": []
    },
    "scriptCalls": [],
    "subType": "misc",
    "equipmentSubtype": "wondrous",
    "slot": "headband"
  }
}
