{
  "_id": "tnrkkixraxbzsgce",
  "name": "Hourglass",
  "type": "loot",
  "img": "systems/pf1/icons/items/inventory/dice.jpg",
  "sort": 0,
  "flags": {},
  "system": {
    "description": {
      "value": "<table>\n<thead>\n<tr>\n<th>Type</th>\n<th>Price</th>\n<th>Weight</th>\n</tr>\n</thead>\n<tbody>\n<tr>\n<td>1 hour</td>\n<td>25 gp</td>\n<td>1 lb.</td>\n</tr>\n<tr>\n<td>1 minute</td>\n<td>20 gp</td>\n<td>1/2 lb.</td>\n</tr>\n<tr>\n<td>6 seconds</td>\n<td>10 gp</td>\n<td>&#8211;</td>\n</tr>\n</tbody>\n</table>\n<p>The standard hourglass takes 1 hour to empty the sand from the upper chamber; larger and smaller timers exist which mark off time in increments as short as 6 seconds.</p>"
    },
    "tags": [],
    "equipped": false,
    "changes": [],
    "contextNotes": [],
    "links": {
      "children": []
    },
    "scriptCalls": [],
    "subType": "gear"
  }
}
