{
  "_id": "crpfyeicgzylaedv",
  "name": "Incense, Scentbane",
  "type": "loot",
  "img": "systems/pf1/icons/items/inventory/dice.jpg",
  "sort": 0,
  "flags": {},
  "system": {
    "description": {
      "value": "<p class=\"source\"><b>Source</b> <em>PZO1121</em></p>\n<p>Scentbane incense is a form of <em>smokestick</em> that also blocks most scents. As long as the smoke lasts, creatures with the <em>scent</em> special ability must make <em>Perception</em> checks, opposed by the <em>Stealth</em> checks of any creatures within the smoke, to use <em>scent</em> to locate creatures within the smoke. If a creature remains in scentbane incense for 5 rounds or more, the smoke clings to it for 1 round after it leaves, making it similarly difficult to find by <em>scent</em> during that time.</p>"
    },
    "tags": [],
    "price": 80,
    "equipped": false,
    "changes": [],
    "contextNotes": [],
    "links": {
      "children": []
    },
    "scriptCalls": [],
    "subType": "gear"
  }
}
