{
  "_id": "mbhdwlzmycxkuobo",
  "name": "Liquid Ice",
  "type": "loot",
  "img": "systems/pf1/icons/items/inventory/dice.jpg",
  "sort": 0,
  "flags": {},
  "system": {
    "description": {
      "value": "<p class=\"source\"><b>Source</b> <em>PZO1115</em></p>\n<p>Also known as \"alchemist's ice,\" this sealed jar of crystalline blue fluid immediately starts to evaporate once opened. During the next 1d6 rounds, you can use it to freeze a liquid or to coat an object in a thin layer of ice. You can also throw liquid ice as a <em>splash weapon</em>. A direct hit deals 1d6 points of cold damage; creatures within 5 feet of where it hits take 1 point of cold damage from the splash.</p>\n<p><b>Create</b>: <em>Craft</em> (alchemy) DC 25</p>\n<p>Alchemical Power Component</p>\n<p class=\"source\"><b>Source</b> <em>PZO9410</em></p>\n<p>Liquid ice augments cold magic.</p>\n<ul>\n<li><em>Cone of Cold</em> (M): The spell deals +1 point of damage per <em>caster level</em>.</li>\n<li><em>Gentle Repose</em> (M): The spell's duration increases to 2 days per level.</li>\n<li><em>Ray of Frost</em> (F): The spell deals +1 point of damage.</li>\n<li><em>Ray of Frost</em> (M): The spell creates an icicle of frozen water vapor that strikes the target and deals 1d3 points of piercing damage and 1 point of cold damage.</li>\n<li><em>Protection from Energy</em> (M): If cast to ward against fire, increase the amount of fire damage absorbed by 5.</li>\n<li><em>Resist Energy</em> (M): If cast to ward against fire, increase the fire <em>resistance</em> to 12. At <em>caster level</em> 7th, you may use two jars of liquid ice as a power component to increase the fire <em>resistance</em> to 24. At <em>caster level</em> 11th, you may use three jars as a power component to increase the fire <em>resistance</em> to 36.</li>\n</ul>"
    },
    "tags": [],
    "weight": {
      "value": 2
    },
    "price": 40,
    "equipped": false,
    "changes": [],
    "contextNotes": [],
    "links": {
      "children": []
    },
    "scriptCalls": [],
    "subType": "gear"
  }
}
