{
  "_id": "pszdpdmgxixwpyis",
  "name": "Oil, Anointing",
  "type": "loot",
  "img": "systems/pf1/icons/items/inventory/dice.jpg",
  "sort": 0,
  "flags": {},
  "system": {
    "description": {
      "value": "<p class=\"source\"><b>Source</b> <em>PZO1121</em></p>\n<p>This sacred oil, infused with aromatic spices and distilled holy water, may be applied to a creature while casting a harmless divine spell with a range of touch, increasing the <em>casting time</em> to a <em>full-round action</em> but also increasing the caster's effective <em>caster level</em> by +1 for that spell.</p>"
    },
    "tags": [],
    "weight": {
      "value": 1
    },
    "price": 25,
    "equipped": false,
    "changes": [],
    "contextNotes": [],
    "links": {
      "children": []
    },
    "scriptCalls": [],
    "subType": "gear"
  }
}
