{
  "_id": "LZLwdGasEUnMplnc",
  "name": "Outfit, Explorer's",
  "type": "equipment",
  "img": "systems/pf1/icons/items/equipment/belt-plain.jpg",
  "sort": 0,
  "flags": {},
  "system": {
    "description": {
      "value": "<p class=\"source\"><strong>Source</strong> <em>PZO1110</em></p>\n<p>This set of clothes is for someone who never knows what to expect. It includes sturdy boots, leather breeches or a skirt, a belt, a shirt (perhaps with a vest or jacket), gloves, and a cloak. Rather than a leather skirt, a leather overtunic may be worn over a cloth skirt. The clothes have plenty of pockets (especially the cloak). The outfit also includes any extra accessories you might need, such as a scarf or a wide-brimmed hat.</p>"
    },
    "tags": [],
    "weight": {
      "value": 8
    },
    "price": 10,
    "identifiedName": "Outfit, Explorer's",
    "changes": [],
    "contextNotes": [],
    "actions": [],
    "attackNotes": [],
    "effectNotes": [],
    "links": {
      "children": [],
      "charges": []
    },
    "scriptCalls": [],
    "subType": "misc",
    "equipmentSubtype": "clothing",
    "slot": "body"
  }
}
