{
  "_id": "yEhNog4TPQDRkh1e",
  "name": "Outfit, Sun Sensitivity",
  "type": "equipment",
  "img": "systems/pf1/icons/items/equipment/cowl.jpg",
  "sort": 0,
  "flags": {},
  "system": {
    "description": {
      "value": "<p class=\"source\"><strong>Source</strong> PRG:TWoVHD</p>\n<p>Dhampirs and other races sensitive to glaring light know a unique hell when traveling under the sun's vicious rays. To protect against the painful light, members of these races often shield themselves with some combination of heavy cloaks, gloves, tinted glasses, screening salves, and-most importantly-wide-brimmed hats. A sun sensitivity outfit prevents creatures with <em>light sensitivity</em> from being @Compendium[pf1.conditions.2pICNUG3g7O4obyu]{dazzled} when walking, traveling, or otherwise performing simple acts in areas of bright natural light. Acclimating to the light still requires a moment of adjustment, so even when wearing this outfit, creatures with <em>light sensitivity</em> are <em>dazzled</em> for 1 minute after entering an area of bright sunlight. Violent activity such as combat (or any other act that might jostle the wearer's hat) also counters the outfit's effectiveness, causing the wearer to be subject to <em>light sensitivity</em> as normal. A sun sensitivity outfit offers no protection against magical <em>light</em>, such as the spell @Compendium[pf1.spells.7x2z0i8rcx7s81fk]{Daylight}.</p>"
    },
    "tags": [],
    "weight": {
      "value": 5
    },
    "price": 300,
    "identifiedName": "Outfit, Sun Sensitivity",
    "changes": [],
    "contextNotes": [],
    "actions": [],
    "attackNotes": [],
    "effectNotes": [],
    "links": {
      "children": [],
      "charges": []
    },
    "scriptCalls": [],
    "subType": "misc",
    "equipmentSubtype": "clothing",
    "slot": "body"
  }
}
