{
  "_id": "t75hZudxf4VBGXy7",
  "name": "Shovel (Common)",
  "type": "loot",
  "img": "systems/pf1/icons/items/inventory/dice.jpg",
  "sort": 0,
  "flags": {},
  "system": {
    "description": {
      "value": "<p>Source <a href=\"http://paizo.com/store/downloads/pathfinder/pathfinderCompanion/pathfinderRPG/v5748btpy8dmf\">Adventurer's Armory pg. 19</a>, <a href=\"http://paizo.com/pathfinderRPG/v5748btpy88yj\">PRPG Core Rulebook pg. 158</a><br>Price 2 cp; Weight 3 lbs.<br>Category Adventuring Gear</p>\n<h3>Description</h3>\n<p>This tool lets you dig a pit at a rate of 2 cubic feet per minute.</p>"
    },
    "tags": [],
    "weight": {
      "value": 8
    },
    "price": 2,
    "equipped": false,
    "identifiedName": "Shovel (Common)",
    "changes": [],
    "contextNotes": [],
    "links": {
      "children": []
    },
    "scriptCalls": [],
    "subType": "gear"
  }
}
