{
  "_id": "A05glNSu4zuU7ZsN",
  "name": "Skillet",
  "type": "loot",
  "img": "systems/pf1/icons/items/inventory/dice.jpg",
  "sort": 0,
  "flags": {},
  "system": {
    "description": {
      "value": "<p>Source <a href=\"http://paizo.com/products/btpy8tmc?Pathfinder-Roleplaying-Game-Ultimate-Equipment\">Ultimate Equipment pg. 57</a><br>Price 8 sp (common), 2,001 gp (mithral); Weight 4 lbs. (common), 2 lbs. (mithral)</p>\n<h3>Description</h3>\n<p>This 8-inch-diameter skillet has a long handle and feet so you can rest it on a fire or hot coals. Adventurers prefer models with a hinged handle that folds over the top of the skillet for easier storage and transport. A mithral skillet is lighter and food rarely sticks to it.</p>"
    },
    "tags": [],
    "weight": {
      "value": 4
    },
    "price": 0.8,
    "equipped": false,
    "identifiedName": "Skillet",
    "changes": [],
    "contextNotes": [],
    "links": {
      "children": []
    },
    "scriptCalls": [],
    "subType": "gear"
  }
}
