{
  "_id": "hohcxwqncmetform",
  "name": "Soothe Syrup",
  "type": "loot",
  "img": "systems/pf1/icons/items/inventory/dice.jpg",
  "sort": 0,
  "flags": {},
  "system": {
    "description": {
      "value": "<p class=\"source\"><b>Source</b> <em>PZO1115</em></p>\n<p>This sweet and wholesome-tasting blue liquid creates a sense of warmth and comfort. Soothe syrup coats your stomach and makes it much more difficult for you to succumb to queasiness. For 1 hour after drinking soothe syrup you gain a +5 <em>alchemical bonus</em> on <em>saving throws</em> made to resist effects that would make you <em>nauseated</em> or <em>sickened</em>.</p>\n<p><b>Create</b>: <em>Craft</em> (alchemy) DC 15</p>"
    },
    "tags": [],
    "weight": {
      "value": 0.5
    },
    "price": 25,
    "equipped": false,
    "changes": [],
    "contextNotes": [],
    "links": {
      "children": []
    },
    "scriptCalls": [],
    "subType": "gear"
  }
}
