{
  "_id": "uxbongjrdmealpjd",
  "name": "Sparring Gear",
  "type": "loot",
  "img": "systems/pf1/icons/items/inventory/dice.jpg",
  "sort": 0,
  "flags": {},
  "system": {
    "description": {
      "value": "<p class=\"source\"><b>Source</b> <em>PPZO94102</em></p>\n<p><b>Price</b> 35 sp; <b>Weight</b> 15 lb.</p>\n<p>This array of thick, heavily lined pads, including a quilted helmet, rigid shin guards, and a wraparound rib guard, protects you during hand-to-hand training. Sparring gear cannot be worn with <em>armor</em>, but grants <em>DR</em> 2/- against <em>nonlethal damage</em>. Fighting schools often customize their sparring gear to feature prestigious colors or symbols.</p>"
    },
    "tags": [],
    "equipped": false,
    "changes": [],
    "contextNotes": [],
    "links": {
      "children": []
    },
    "scriptCalls": [],
    "subType": "gear"
  }
}
