{
  "_id": "mioexvfndsvhtkgn",
  "name": "Stabling",
  "type": "loot",
  "img": "systems/pf1/icons/items/inventory/dice.jpg",
  "sort": 0,
  "flags": {},
  "system": {
    "description": {
      "value": "<p><b>Price</b> 5 sp/day; <b>Weight</b> -</p>\n<p>This is the amount it costs to stable a single creature that is Large or smaller for one day, at a typical stable or hostler. Particularly fancy stables may cost more, and larger or more exotic creatures cost double.</p>"
    },
    "tags": [],
    "price": 0.5,
    "equipped": false,
    "changes": [],
    "contextNotes": [],
    "links": {
      "children": []
    },
    "scriptCalls": [],
    "subType": "gear"
  }
}
