{
  "_id": "xyblokpjiuenfbqe",
  "name": "Tattoo",
  "type": "loot",
  "img": "systems/pf1/icons/items/inventory/dice.jpg",
  "sort": 0,
  "flags": {},
  "system": {
    "description": {
      "value": "<p class=\"source\"><b>Source</b> <em>PZO1115</em></p>\n<p>The cost of a tattoo depends on the quality, size, and number of colors used. A coin-sized tattoo in blue ink that will blur over a decade may cost 1 cp, a hand-sized one in black ink that won't fade costs 1 sp, and a tattoo covering an entire back takes several sessions and costs 10 gp. Each additional color costs as much as a single tattoo of its size.</p>\n<h3>Bags, Barrels, Boxes, Chests &amp; Pouches</h3>\n<p>All containers are empty unless stated otherwise (price and weight are for container only.)</p>\n<table>\n<thead>\n<tr>\n<th colspan=\"4\">Bags and Pouches</th>\n</tr>\n<tr>\n<th>Item</th>\n<th>Price</th>\n<th>Weight</th>\n<th>Source</th>\n</tr>\n</thead>\n<tbody>\n<tr>\n<td><em>Backpack, common</em></td>\n<td>2 gp</td>\n<td>2 lbs.<sup>1</sup></td>\n<td class=\"source text\"><em>PZO1123</em></td>\n</tr>\n<tr>\n<td><em>Backpack, masterwork</em></td>\n<td>50 gp</td>\n<td>4 lbs.<sup>1</sup></td>\n<td class=\"source text\"><em>PZO1123</em></td>\n</tr>\n<tr>\n<td><em>Bag, waterproof</em></td>\n<td>5 sp</td>\n<td>1/2 lb.</td>\n<td class=\"source text\"><em>PZO1123</em></td>\n</tr>\n<tr>\n<td><em>Bandolier</em></td>\n<td>5 sp</td>\n<td>-</td>\n<td class=\"source text\"><em>PZO1123</em></td>\n</tr>\n<tr>\n<td><em>Pocket, inside</em></td>\n<td>4 gp</td>\n<td>-</td>\n<td class=\"source text\"><em>PZO1140</em></td>\n</tr>\n<tr>\n<td><em>Pouch, belt</em></td>\n<td>1 gp</td>\n<td>1/2 lb.<sup>1</sup></td>\n<td class=\"source text\"><em>PZO1123</em></td>\n</tr>\n<tr>\n<td><em>Pouch, spell components</em></td>\n<td>5 gp</td>\n<td>2 lbs.</td>\n<td class=\"source text\"><em>PZO1110</em></td>\n</tr>\n<tr>\n<td><em>Pouch, waist</em></td>\n<td>5 sp</td>\n<td>1/2 lb.</td>\n<td class=\"source text\"><em>PZO1140</em></td>\n</tr>\n<tr>\n<td><em>Pouch, war spirit</em></td>\n<td>50 gp</td>\n<td>-</td>\n<td class=\"source text\"><em>PZO1121</em></td>\n</tr>\n<tr>\n<td><em>Sack</em></td>\n<td>1 sp</td>\n<td>1/2 lb.<sup>1</sup></td>\n<td class=\"source text\"><em>PZO1110</em></td>\n</tr>\n<tr>\n<td><em>Satchel, familiar</em></td>\n<td>25 gp</td>\n<td>6 lbs.</td>\n<td class=\"source text\"><em>PZO1123</em></td>\n</tr>\n<tr>\n<td><em>Waterskin</em></td>\n<td>1 gp</td>\n<td>4 lbs.<sup>1</sup></td>\n<td class=\"source text\"><em>PZO1110</em></td>\n</tr>\n</tbody>\n</table>\n<table>\n<thead>\n<tr>\n<th colspan=\"4\">Barrels, Boxes, and Chests</th>\n</tr>\n<tr>\n<th>Item</th>\n<th>Price</th>\n<th>Weight</th>\n<th>Source</th>\n</tr>\n</thead>\n<tbody>\n<tr>\n<td><em>Barrel</em></td>\n<td>2 gp</td>\n<td>30 lbs.</td>\n<td class=\"source text\"><em>PZO1123</em></td>\n</tr>\n<tr>\n<td><em>Basket</em></td>\n<td>4 sp</td>\n<td>1 lb.</td>\n<td class=\"source text\"><em>PZO1123</em></td>\n</tr>\n<tr>\n<td><em>Bottle</em></td>\n<td>2 gp</td>\n<td>1 lb.</td>\n<td class=\"source text\"><em>PZO1123</em></td>\n</tr>\n<tr>\n<td><em>Box, scroll</em></td>\n<td>5 gp</td>\n<td>1 lb.</td>\n<td class=\"source text\"><em>PZO1123</em></td>\n</tr>\n<tr>\n<td><em>Bucket</em></td>\n<td>5 sp</td>\n<td>2 lbs.</td>\n<td class=\"source text\"><em>PZO1123</em></td>\n</tr>\n<tr>\n<td><em>Canteen</em></td>\n<td>2 gp</td>\n<td>1 lb.</td>\n<td class=\"source text\"><em>PZO1123</em></td>\n</tr>\n<tr>\n<td><em>Case, scroll</em></td>\n<td>1 gp</td>\n<td>1/2 lb.</td>\n<td class=\"source text\"><em>PZO1123</em></td>\n</tr>\n<tr>\n<td><em>Cauldron</em></td>\n<td>1 gp</td>\n<td>5 lbs.</td>\n<td class=\"source text\"><em>PZO1123</em></td>\n</tr>\n<tr>\n<td><em>Cauldron, mithral</em></td>\n<td>2,501 gp</td>\n<td>2-1/2 lbs.</td>\n<td class=\"source text\"><em>PZO1123</em></td>\n</tr>\n<tr>\n<td><em>Chest</em>, Small / Small treasure chest</td>\n<td>2 gp / 3 gp</td>\n<td>25 lbs.</td>\n<td class=\"source text\"><em>PZO9410</em>/<em>PoIS</em></td>\n</tr>\n<tr>\n<td><em>Chest</em>, Medium / Medium treasure chest</td>\n<td>5 gp / 7 gp</td>\n<td>50 lbs.</td>\n<td class=\"source text\"><em>PZO1110</em>/<em>PoIS</em></td>\n</tr>\n<tr>\n<td><em>Chest</em>, Large / Large treasure chest</td>\n<td>10 gp / 15 gp</td>\n<td>100 lbs.</td>\n<td class=\"source text\"><em>PZO1110</em>/<em>PoIS</em></td>\n</tr>\n<tr>\n<td><em>Chest</em>, Huge / Huge treasure chest</td>\n<td>25 gp / 37 gp</td>\n<td>250 lbs.</td>\n<td class=\"source text\"><em>PZO1110</em>/<em>PoIS</em></td>\n</tr>\n<tr>\n<td><em>Cooler</em></td>\n<td>25 gp</td>\n<td>60 lbs.</td>\n</tr>\n<tr>\n<td><em>Chest</em>, false bottomed</td>\n<td>52 gp</td>\n<td>25 lbs.</td>\n<td class=\"source text\"><em>PZO9410</em></td>\n</tr>\n<tr>\n<td><em>Coffee pot</em></td>\n<td>3 gp</td>\n<td>4 lbs.</td>\n<td class=\"source text\"><em>PZO1123</em></td>\n</tr>\n<tr>\n<td><em>Coffin, common</em></td>\n<td>10 gp</td>\n<td>30 lbs.<sup>1</sup></td>\n<td class=\"source text\"><em>PZO1123</em></td>\n</tr>\n<tr>\n<td><em>Coffin, ornate</em></td>\n<td>100 gp</td>\n<td>50 lbs.<sup>1</sup></td>\n<td class=\"source text\"><em>PZO1123</em></td>\n</tr>\n<tr>\n<td><em>Cup</em></td>\n<td>1 gp</td>\n<td>-</td>\n<td class=\"source text\"><em>PZO9410</em></td>\n</tr>\n<tr>\n<td><em>Cup, false bottomed</em></td>\n<td>1 gp</td>\n<td>-</td>\n<td class=\"source text\"><em>PZO1123</em></td>\n</tr>\n<tr>\n<td><em>Flask</em></td>\n<td>3 cp</td>\n<td>1-1/2 lbs.</td>\n<td class=\"source text\"><em>PZO1123</em></td>\n</tr>\n<tr>\n<td><em>Flask, hip</em></td>\n<td>1 gp</td>\n<td>1/2 lb.<sup>1</sup></td>\n<td class=\"source text\"><em>PZO1123</em></td>\n</tr>\n<tr>\n<td>Goblet, poisoner's</td>\n<td>100 gp</td>\n<td>2 lbs.</td>\n<td>PPC:P&amp;P</td>\n</tr>\n<tr>\n<td><em>Jug</em></td>\n<td>3 cp</td>\n<td>9 lbs.</td>\n<td class=\"source text\"><em>PZO1123</em></td>\n</tr>\n<tr>\n<td><em>Mug/Tankard, clay</em></td>\n<td>2 cp</td>\n<td>1 lbs.</td>\n<td class=\"source text\"><em>PZO1110</em></td>\n</tr>\n<tr>\n<td><em>Pitcher</em></td>\n<td>2 cp</td>\n<td>5 lbs.</td>\n<td class=\"source text\"><em>PZO1123</em></td>\n</tr>\n<tr>\n<td><em>Pot, iron</em></td>\n<td>8 sp</td>\n<td>4 lbs.</td>\n<td class=\"source text\"><em>PZO1110</em></td>\n</tr>\n<tr>\n<td>Pot, mithral</td>\n<td>2,001 gp</td>\n<td>2 lbs.</td>\n<td class=\"source text\">PZO1123</td>\n</tr>\n<tr>\n<td><em>Potion Sponge</em></td>\n<td>2 gp</td>\n<td>-</td>\n<td class=\"source text\"><em>PZO1121</em></td>\n</tr>\n<tr>\n<td><em>Vial</em> (for ink or potions)</td>\n<td>1 gp</td>\n<td>-</td>\n<td class=\"source text\"><em>PZO1123</em></td>\n</tr>\n<tr>\n<td><em>Vial, iron</em></td>\n<td>1 sp</td>\n<td>1 lb.</td>\n<td class=\"source text\"><em>PZO1123</em></td>\n</tr>\n</tbody>\n</table>\n<table>\n<thead>\n<tr>\n<th colspan=\"4\">Other Containers</th>\n</tr>\n<tr>\n<th>Item</th>\n<th>Price</th>\n<th>Weight</th>\n<th>Source</th>\n</tr>\n</thead>\n<tbody>\n<tr>\n<td><em>Aquarium ball</em></td>\n<td>80 gp</td>\n<td>20 lbs.</td>\n<td class=\"source text\"><em>PPC:FF</em></td>\n</tr>\n<tr>\n<td>Rockshard canister</td>\n<td>50 gp</td>\n<td>25 lbs.</td>\n<td><em>MTT</em></td>\n</tr>\n</tbody>\n</table>\n<p class=\"source\"><sup>1</sup> These items weigh one-quarter this amount when made for Small characters. Containers for Small characters also carry one-quarter the normal amount.<br><sup>2</sup> These items weigh approximately three-quarters this amount when made for Small characters. Containers for Small characters also carry one-quarter the normal amount.</p>"
    },
    "tags": [],
    "price": 0.01,
    "equipped": false,
    "changes": [],
    "contextNotes": [],
    "links": {
      "children": []
    },
    "scriptCalls": [],
    "subType": "gear"
  }
}
