{
  "_id": "uivteduqlgptxoki",
  "name": "Tea, Night",
  "type": "loot",
  "img": "systems/pf1/icons/items/inventory/dice.jpg",
  "sort": 0,
  "flags": {},
  "system": {
    "description": {
      "value": "<p class=\"source\"><b>Source</b> <em>PZO9410</em></p>\n<p>This frothy tea made from the bone-white, triangular leaves of the night tea plant renders a <em>humanoid</em> female sterile if drunk every day. In high doses, it may be able to end a pregnancy.</p>"
    },
    "tags": [],
    "price": 0.1,
    "equipped": false,
    "changes": [],
    "contextNotes": [],
    "links": {
      "children": []
    },
    "scriptCalls": [],
    "subType": "gear"
  }
}
