{
  "_id": "nvunxxlzfyxidarr",
  "name": "Tome Of Epics",
  "type": "loot",
  "img": "systems/pf1/icons/items/inventory/dice.jpg",
  "sort": 0,
  "flags": {},
  "system": {
    "description": {
      "value": "<p><b>Tome of Epics</b> This hefty book is bound in oilskin and decorated with scenes of glorious combat between ancient heroes and ferocious monsters. It contains several tales of valor, defeat, and victory, all with brightly colored illustrations. After consulting the book for 1 hour, for the next 24 hours you gain a +2 bonus on <em>Perform</em> (oratory) and <em>Perform</em> (sing) checks and a +2 <em>circumstance bonus</em> on <em>Knowledge</em> (nobility) checks pertaining to heroic lineages. <b>Price</b> 50 gp; <b>Weight</b> 3 lbs. <b>Source</b> <em>PZO1129</em></p>"
    },
    "tags": [],
    "weight": {
      "value": 3
    },
    "price": 50,
    "equipped": false,
    "changes": [],
    "contextNotes": [],
    "links": {
      "children": []
    },
    "scriptCalls": [],
    "subType": "gear"
  }
}
