{
  "_id": "pvyrghmqefkulkik",
  "name": "Tools, Artisan's",
  "type": "loot",
  "img": "systems/pf1/icons/items/inventory/dice.jpg",
  "sort": 0,
  "flags": {},
  "system": {
    "description": {
      "value": "<table>\n<thead>\n<tr>\n<th>Type</th>\n<th>Price</th>\n<th>Weight</th>\n</tr>\n</thead>\n<tbody>\n<tr>\n<td>Common</td>\n<td>5 gp</td>\n<td>5 lbs.</td>\n</tr>\n<tr>\n<td>Masterwork</td>\n<td>55 gp</td>\n<td>5 lbs.</td>\n</tr>\n</tbody>\n</table>\n<p>These special tools include the items needed to pursue any single craft. Without them, you have to use improvised tools (-2 penalty on <em>Craft</em> checks), if you can do the job at all.</p>\n<ul>\n<li><i>Masterwork Artisan's Tools</i>: These tools serve the same purpose as artisan's tools, but masterwork artisan's tools are the perfect tools for the job, so you get a +2 <em>circumstance bonus</em> on <em>Craft</em> checks made with them.</li>\n</ul>"
    },
    "tags": [],
    "equipped": false,
    "changes": [],
    "contextNotes": [],
    "links": {
      "children": []
    },
    "scriptCalls": [],
    "subType": "gear"
  }
}
