{
  "_id": "cnnpyxypoanjonon",
  "name": "Training Kit, Bird",
  "type": "loot",
  "img": "systems/pf1/icons/items/inventory/dice.jpg",
  "sort": 0,
  "flags": {},
  "system": {
    "description": {
      "value": "<p class=\"source\"><b>Source</b> <em>PPZO9410</em></p>\n<p><b>Price</b> 17 gp; <b>Weight</b> 8 lbs.</p>\n<p>This kit includes a falconry gauntlet, Tiny cage, training whip, and 2 days' worth of bird feed.</p>"
    },
    "tags": [],
    "weight": {
      "value": 8
    },
    "price": 17,
    "equipped": false,
    "changes": [],
    "contextNotes": [],
    "links": {
      "children": []
    },
    "scriptCalls": [],
    "subType": "gear"
  }
}
