{
  "_id": "qcwmcvcgcjmqhkzl",
  "name": "Trap, Decoy Trap Door",
  "type": "loot",
  "img": "systems/pf1/icons/items/inventory/dice.jpg",
  "sort": 0,
  "flags": {},
  "system": {
    "description": {
      "value": "<p><b>Price</b> 120 gp; <b>Weight</b> &#8211;</p>\n<p><b>Type</b> mechanical; <em>Perception</em> DC 10; <em>Sense Motive</em> DC 28</p>\n<p>EFFECTS</p>\n<p><b>Trap</b> <em>Perception</em> DC +9, <b>CR Modifier</b>: +3</p>"
    },
    "tags": [],
    "price": 120,
    "equipped": false,
    "changes": [],
    "contextNotes": [],
    "links": {
      "children": []
    },
    "scriptCalls": [],
    "subType": "gear"
  }
}
