{
  "_id": "vVwRLC3OFfmmkTaS",
  "name": "Wrist sheath",
  "type": "equipment",
  "img": "icons/equipment/wrist/bracer-shadow.webp",
  "sort": 0,
  "flags": {},
  "system": {
    "description": {
      "value": "<p class=\"source\"><strong>Source</strong> <em>PZO9410</em></p>\n<p>This is a sheath designed to be strapped to your forearm and hidden under a long sleeve. The sheath can hold one forearm-length item such as a <em>dagger</em>, <em>dart</em>, or <em>wand</em>, or up to five arrows or crossbow bolts. Alternatively, you may store up to 1 pound of ammunition in a wrist sheath. As a <em>move action</em>, you can bend your wrist to cause some or all of these items to drop into your hand (provoking <em>attacks of opportunity</em> as normal). You have a +2 bonus on <em>Sleight of Hand</em> checks made to oppose the <em>Perception</em> check of someone observing or frisking you regarding items in the sheath. You can only wear one wrist sheath per arm.</p>"
    },
    "tags": [],
    "weight": {
      "value": 1
    },
    "price": 1,
    "size": "sm",
    "carried": false,
    "identifiedName": "Wrist sheath",
    "changes": [],
    "contextNotes": [
      {
        "subTarget": "skill.slt",
        "target": "skill",
        "text": "+[[2]] vs Perception check of someone observing or frisking you regarding items in the sheath"
      }
    ],
    "actions": [],
    "uses": {
      "per": ""
    },
    "attackNotes": [],
    "effectNotes": [],
    "links": {
      "children": [],
      "charges": []
    },
    "tag": "wristSheath",
    "scriptCalls": [],
    "subType": "misc",
    "equipmentSubtype": "clothing"
  }
}
