{
  "_id": "7D0gtn4Sf2kW3fQy",
  "name": "Abyssal Bloodrager Bloodline",
  "type": "feat",
  "img": "systems/pf1/icons/skills/red_13.jpg",
  "sort": 0,
  "flags": {},
  "system": {
    "description": {
      "value": "<p><em>Generations ago, a demon spread its filth into the essence of your bloodline. While it doesn’t manifest in all of your kin, in those moments when you’re bloodraging, you embody its terrifying presence.</em><p><strong>Bonus Feats:</strong></p>\n<ul>\n<li>@Compendium[pf1.feats.Zeq6RWYv5otvg8q7]{Cleave}</li>\n<li>@Compendium[pf1.feats.fVRnBIHR4Jq6btvm]{Great Fortitude}</li>\n<li>@Compendium[pf1.feats.dn2KgHFQRbuoNRx0]{Improved Bull Rush}</li>\n<li>@Compendium[pf1.feats.lpXdFoT6OqS5vi2X]{Improved Sunder}</li>\n<li>@Compendium[pf1.feats.O0jbkTJcIji9BNiF]{Intimidating Prowess}</li>\n<li>@Compendium[pf1.feats.FUW5mIXHNBBIQ1Sq]{Power Attack}</li>\n<li>@Compendium[pf1.feats.8snLqsJN4LLL00Nq]{Toughness}</li>\n</ul>\n<p><strong>Bonus Spells:</strong></p>\n<ul>\n<li>@Compendium[pf1.spells.mczdgwo3xl8c6e26]{Ray Of Enfeeblement} (7th), </li>\n<li>@Compendium[pf1.spells.05i5rxwim12hwktu]{Bull's Strength} (10th), </li>\n<li>@Compendium[pf1.spells.8u1xa5javcxc6szk]{Rage} (13th),</li>\n<li>@Compendium[pf1.spells.knyako6zopc1chrv]{Stoneskin} (16th)</li>\n</ul>"
    },
    "tags": [],
    "actions": [],
    "attackNotes": [],
    "effectNotes": [],
    "changes": [],
    "contextNotes": [],
    "links": {
      "children": [],
      "charges": []
    },
    "tag": "classFeat_abyssalBloodragerBloodline",
    "useCustomTag": true,
    "armorProf": {
      "value": []
    },
    "weaponProf": {
      "value": []
    },
    "languages": {
      "value": []
    },
    "scriptCalls": [],
    "subType": "classFeat",
    "associations": {
      "classes": [["Bloodrager"]]
    }
  }
}
