{
  "_id": "ztLI2DxRrjkvuqP3",
  "name": "Agility Patron",
  "type": "feat",
  "img": "systems/pf1/icons/feats/improved-familiar.jpg",
  "sort": 0,
  "flags": {},
  "system": {
    "description": {
      "value": "<ul>\n<li>2nd — @Compendium[pf1.spells.ns2zo6qgd9co02uf]{Jump}</li>\n<li>4th — @Compendium[pf1.spells.ns8jbp0ilbvbvuif]{Cat's Grace}</li>\n<li>6th — @Compendium[pf1.spells.s9amdo5398alb5p0]{Haste}</li>\n<li>8th — @Compendium[pf1.spells.lvzq2mwkqmozolpl]{Freedom of Movement}</li>\n<li>10th — @Compendium[pf1.spells.d40ia71c2eljm91k]{Polymorph}</li>\n<li>12th — @Compendium[pf1.spells.xlch97n99ea0pog6]{Cat's Grace, Mass}</li>\n<li>14th — @Compendium[pf1.spells.btccs4sjo2nog1a0]{Ethereal Jaunt}</li>\n<li>16th — @Compendium[pf1.spells.3ah9mmg0odateh8l]{Animal Shapes}</li>\n<li>18th — @Compendium[pf1.spells.n3lp01euzcdmtbw5]{Shapechange}</li>\n</ul>"
    },
    "tags": [],
    "actions": [],
    "attackNotes": [],
    "effectNotes": [],
    "changes": [],
    "contextNotes": [],
    "links": {
      "children": [],
      "charges": []
    },
    "tag": "classFeat_agilityPatron",
    "useCustomTag": true,
    "armorProf": {
      "value": []
    },
    "weaponProf": {
      "value": []
    },
    "languages": {
      "value": []
    },
    "scriptCalls": [],
    "subType": "classFeat",
    "associations": {
      "classes": [["Witch"]]
    }
  }
}
