{
  "_id": "Sk6HhZfGOK7yTNQv",
  "name": "Ancestors Spirit Manifestation",
  "type": "feat",
  "img": "systems/pf1/icons/skills/violet_20.jpg",
  "sort": 0,
  "flags": {},
  "system": {
    "description": {
      "value": "<p>Upon reaching 20th level, the shaman becomes one with the spirits of her ancestors. She gains a bonus on Will saving throws equal to her Charisma modifier, blindsense out to a range of 60 feet, and a +4 bonus to her caster level for all divination spells. She can cast @Compendium[pf1.spells.lnahlmp5mih2ongh]{Astral Projection} as a spell-like ability once per day without requiring material components.</p>"
    },
    "tags": [],
    "actions": [],
    "attackNotes": [],
    "effectNotes": [],
    "changes": [
      {
        "_id": "aas5uzh2",
        "formula": "@abilities.cha.mod",
        "operator": "add",
        "subTarget": "allSavingThrows",
        "modifier": "untyped",
        "priority": 0,
        "value": 0,
        "target": "savingThrows"
      }
    ],
    "contextNotes": [],
    "links": {
      "children": [],
      "charges": []
    },
    "tag": "classFeat_ancestorsSpiritManifestation",
    "useCustomTag": true,
    "armorProf": {
      "value": []
    },
    "weaponProf": {
      "value": []
    },
    "languages": {
      "value": []
    },
    "scriptCalls": [],
    "subType": "classFeat",
    "associations": {
      "classes": [["Shaman"]]
    }
  }
}
