{
  "_id": "s6g8PtZLUdtV6KGy",
  "name": "Arcane Crafter Susbchool",
  "type": "feat",
  "img": "systems/pf1/icons/skills/emerald_01.jpg",
  "sort": 0,
  "flags": {},
  "system": {
    "description": {
      "value": "<p>An Arcane crafter is one of the builders of the arcane world, assembling magic items with facility, skill, and power. He is intimately familiar with the craft and practice of imbuing items with arcane power, and works with precision even early in his career to help create some of the most powerful magic items.</p>\n<p><strong>Associated School:</strong> Universalist.</p>\n<p><strong>Replacement Power: </strong>This subschool replaces the hand of the apprentice power of the universalist school.</p>"
    },
    "tags": [],
    "actions": [],
    "attackNotes": [],
    "effectNotes": [],
    "changes": [],
    "contextNotes": [],
    "links": {
      "children": [],
      "charges": []
    },
    "tag": "classFeat_arcaneCrafterSusbchool",
    "useCustomTag": true,
    "armorProf": {
      "value": []
    },
    "weaponProf": {
      "value": []
    },
    "languages": {
      "value": []
    },
    "scriptCalls": [],
    "subType": "classFeat",
    "associations": {
      "classes": [["Wizard"]]
    }
  }
}
