{
  "_id": "Wkv124hVPATT35bm",
  "name": "Aura",
  "type": "feat",
  "img": "systems/pf1/icons/skills/blue_35.jpg",
  "sort": 0,
  "flags": {},
  "system": {
    "description": {
      "value": "<p>A cleric of a chaotic, evil, good, or lawful deity has a particularly powerful aura corresponding to the deity's alignment (see @Compendium[pf1.spells.tr7m97npkbgm4wp7]{Detect Evil} for details).</p>"
    },
    "tags": [],
    "actions": [],
    "attackNotes": [],
    "effectNotes": [],
    "changes": [],
    "contextNotes": [],
    "links": {
      "children": [],
      "charges": []
    },
    "tag": "classFeat_aura",
    "useCustomTag": true,
    "armorProf": {
      "value": []
    },
    "weaponProf": {
      "value": []
    },
    "languages": {
      "value": []
    },
    "scriptCalls": [],
    "subType": "classFeat",
    "associations": {
      "classes": [["Cleric"]]
    },
    "abilityType": "ex"
  }
}
