{
  "_id": "OpVO9FD9eFuJ6frM",
  "name": "Bloody Bite",
  "type": "feat",
  "img": "systems/pf1/icons/feats/deafening-critical.jpg",
  "sort": 0,
  "flags": {},
  "system": {
    "description": {
      "value": "<p>This rage power is available to half-orc barbarians. The barbarian’s bite attack deals 1d6 points of bleed damage in addition to its other effects.</p>\n<p>The barbarian must have the animal fury rage power or a natural bite attack before selecting this power.</p>"
    },
    "tags": [],
    "actions": [],
    "attackNotes": [],
    "effectNotes": [],
    "changes": [],
    "contextNotes": [],
    "links": {
      "children": [],
      "charges": []
    },
    "tag": "classFeat_bloodyBite",
    "useCustomTag": true,
    "armorProf": {
      "value": []
    },
    "weaponProf": {
      "value": []
    },
    "languages": {
      "value": []
    },
    "scriptCalls": [],
    "subType": "classFeat",
    "associations": {
      "classes": [["Barbarian"], ["Skald"]]
    },
    "abilityType": "ex"
  }
}
