{
  "_id": "bBsAVKQpS4oiqdjr",
  "name": "Boar Aspect",
  "type": "feat",
  "img": "systems/pf1/icons/skills/blue_29.jpg",
  "sort": 0,
  "flags": {},
  "system": {
    "description": {
      "value": "<p><em>Those with the aspect of the boar are famously stubborn.</em><p><strong>Minor Form:</strong> You gain @Compendium[pf1.feats.O0e0UCim27GPKFuW]{Diehard} as a bonus feat.</p>\n<p>At 8th level, you add your Hit Dice to your Constitution when determining the negative number of hit points at which you die.<p><strong>Major Form: </strong>Your shape changes to that of a <a href=\"https://www.aonprd.com/MonsterDisplay.aspx?ItemName=Dire%20Boar%20(Daeodon)\">dire boar</a> . While in this form, you gain low-light vision, the <a href=\"https://www.aonprd.com/UMR.aspx?ItemName=Scent\">scent</a> ability, a gore attack (1d8), and a base speed of 40 feet.</p>\n<p>At 8th level you gain <a href=\"https://www.aonprd.com/FeatDisplay.aspx?ItemName=Improved%20Natural%20Attack\">Improved Natural Attack</a> with your gore attack, and you gain <a href=\"https://www.aonprd.com/UMR.aspx?ItemName=Powerful%20Charge\">powerful charge</a> (+1d8 on your gore attack).</p>\n<p>At 15th level, you gain 1 additional hit point per Hit Die you have, and you gain <a href=\"https://www.aonprd.com/FeatDisplay.aspx?ItemName=Awesome%20Blow\">Awesome Blow</a> (Bestiary 314) as a bonus feat.<p><strong>Alternate Natural Attacks:</strong> Gore (P), hoof (B)</p>"
    },
    "tags": [],
    "actions": [],
    "attackNotes": [],
    "effectNotes": [],
    "changes": [],
    "contextNotes": [],
    "links": {
      "children": [],
      "charges": []
    },
    "tag": "classFeat_boarAspect",
    "useCustomTag": true,
    "armorProf": {
      "value": []
    },
    "weaponProf": {
      "value": []
    },
    "languages": {
      "value": []
    },
    "scriptCalls": [],
    "subType": "classFeat",
    "associations": {
      "classes": [["Shifter"]]
    }
  }
}
