{
  "_id": "7R0XwVjXcWC3ngd5",
  "name": "Clockwork Puppet",
  "type": "feat",
  "img": "systems/pf1/icons/spells/rock-sky-3.jpg",
  "sort": 0,
  "flags": {},
  "system": {
    "description": {
      "value": "<p><strong>Element </strong>earth; <strong>Type </strong>utility (Su); <strong>Level </strong>5; <strong>Burn </strong>0<br><strong>Prerequisite </strong>metal blast</p>\n<p>You can weave metal into clockwork parts, creating clockwork constructs to attack your foes. This functions as the <a href=\"https://aonprd.com/KineticistTalentsDisplay.aspx?ItemName=%Aether%20Puppet\">aether puppet</a> wild talent, except the object animated gains the clockwork subtype and cannot have the stone Construction Point ability.</p>"
    },
    "tags": [],
    "actions": [],
    "attackNotes": [],
    "effectNotes": [],
    "changes": [],
    "contextNotes": [],
    "links": {
      "children": [],
      "charges": []
    },
    "tag": "classFeat_clockworkPuppet",
    "useCustomTag": true,
    "armorProf": {
      "value": []
    },
    "weaponProf": {
      "value": []
    },
    "languages": {
      "value": []
    },
    "scriptCalls": [],
    "subType": "classFeat",
    "associations": {
      "classes": [["Kineticist"]]
    },
    "abilityType": "su"
  }
}
