{
  "_id": "dmX9hKuQiwiyNmkl",
  "name": "Crippling Strike",
  "type": "feat",
  "img": "systems/pf1/icons/items/weapons/butterfly-knife.PNG",
  "sort": 0,
  "flags": {},
  "system": {
    "description": {
      "value": "<p>A rogue with this ability can sneak attack opponents with such precision that her blows weaken and hamper them. An opponent damaged by one of her sneak attacks also takes 2 points of Strength damage.</p>"
    },
    "tags": [],
    "actions": [],
    "attackNotes": [],
    "effectNotes": [],
    "changes": [],
    "contextNotes": [],
    "links": {
      "children": [],
      "charges": []
    },
    "tag": "classFeat_cripplingStrike",
    "useCustomTag": true,
    "armorProf": {
      "value": []
    },
    "weaponProf": {
      "value": []
    },
    "languages": {
      "value": []
    },
    "scriptCalls": [],
    "subType": "classFeat",
    "associations": {
      "classes": [["Rogue"]]
    },
    "abilityType": "ex"
  }
}
