{
  "name": "Danger Sense (ROG)",
  "type": "feat",
  "img": "systems/pf1/icons/feats/tiring-critical.jpg",
  "flags": {},
  "system": {
    "description": {
      "value": "<p>At 3rd level, a rogue gains a +1 bonus on <em>Reflex</em> saves to avoid traps and a +1 <em>dodge bonus</em> to AC against attacks made by traps. In addition, she gains a +1 bonus on <em>Perception</em> checks to avoid being surprised by a foe. These bonuses increase by 1 every 3 rogue levels thereafter (to a maximum of +6 at 18th level).</p>\n<p>This ability counts as <em>trap sense</em> for the purpose of any feat or class prerequisite, and can be replaced by any archetype class feature that replaces <em>trap sense</em>. The bonuses gained from this ability stack with those gained from <em>trap sense</em> (from another class).</p>"
    },
    "tags": [],
    "actions": [],
    "uses": {
      "per": ""
    },
    "attackNotes": [],
    "effectNotes": [],
    "changes": [],
    "contextNotes": [
      {
        "subTarget": "ref",
        "target": "savingThrows",
        "text": "+[[@classes.rogueUnchained.level < 3 ? 1 : (floor(@classes.rogueUnchained.level / 3))]] vs Traps"
      },
      {
        "subTarget": "skill.per",
        "target": "skill",
        "text": "+[[@classes.rogueUnchained.level < 3 ? 1 : (floor(@classes.rogueUnchained.level / 3))]] to avoid being surprised by a foe"
      },
      {
        "subTarget": "ac",
        "target": "misc",
        "text": "+[[@classes.rogueUnchained.level < 3 ? 1 : (floor(@classes.rogueUnchained.level / 3))]] vs attacks made by traps"
      }
    ],
    "links": {
      "children": [],
      "charges": []
    },
    "tag": "classFeat_dangerSense",
    "useCustomTag": true,
    "armorProf": {
      "value": []
    },
    "weaponProf": {
      "value": []
    },
    "languages": {
      "value": []
    },
    "scriptCalls": [],
    "subType": "classFeat",
    "associations": {
      "classes": [["Rogue (Unchained)"]]
    },
    "abilityType": "ex",
    "classSkills": {
      "acr": false,
      "apr": false,
      "art": false,
      "blf": false,
      "clm": false,
      "crf": false,
      "dip": false,
      "dev": false,
      "dis": false,
      "esc": false,
      "fly": false,
      "han": false,
      "hea": false,
      "int": false,
      "kar": false,
      "kdu": false,
      "ken": false,
      "kge": false,
      "khi": false,
      "klo": false,
      "kna": false,
      "kno": false,
      "kpl": false,
      "kre": false,
      "lin": false,
      "lor": false,
      "per": false,
      "prf": false,
      "pro": false,
      "rid": false,
      "sen": false,
      "slt": false,
      "spl": false,
      "ste": false,
      "sur": false,
      "swm": false,
      "umd": false
    }
  },
  "sort": 0,
  "_id": "sTlu3zgAEDdJnER5"
}
