{
  "_id": "yyZVrAliHjUmQBle",
  "name": "Dark Tapestry Mystery",
  "type": "feat",
  "img": "systems/pf1/icons/spells/light-magenta-2.jpg",
  "sort": 0,
  "flags": {},
  "system": {
    "description": {
      "value": "<p><strong>Class Skills:</strong> An oracle with the dark tapestry mystery adds Disguise, Intimidate, Knowledge (arcana), and Stealth to her list of class skills.<p><strong>Bonus Spells: </strong></p>\n<ul>\n<li>@Compendium[pf1.spells.ja005kj1gh7g0dnk]{Entropic Shield} (2nd), </li>\n<li>@Compendium[pf1.spells.ech2cibcsmsms9s7]{Dust Of Twilight} (4th), </li>\n<li>@Compendium[pf1.spells.m1rmcpcaixcpz9ib]{Tongues} (6th), </li>\n<li>@Compendium[pf1.spells.wralcmyi4tdcai24]{Black Tentacles} (8th), </li>\n<li>@Compendium[pf1.spells.66vvhyiy5q8yzbq2]{Feeblemind} (10th), </li>\n<li>@Compendium[pf1.spells.qf4bqjgeff1q4hjt]{Planar Binding} (12th), </li>\n<li>@Compendium[pf1.spells.s6q72tw2zra9sycu]{Insanity} (14th), </li>\n<li>@Compendium[pf1.spells.3bdfw5f15hwcxlth]{Reverse Gravity} (16th), </li>\n<li>@Compendium[pf1.spells.4qriqew7d2ot7wr5]{Interplanetary Teleport} (18th).</li>\n</ul>"
    },
    "tags": [],
    "actions": [],
    "attackNotes": [],
    "effectNotes": [],
    "changes": [],
    "contextNotes": [],
    "links": {
      "children": [],
      "charges": []
    },
    "tag": "classFeat_darkTapestryMystery",
    "useCustomTag": true,
    "armorProf": {
      "value": []
    },
    "weaponProf": {
      "value": []
    },
    "languages": {
      "value": []
    },
    "scriptCalls": [],
    "subType": "classFeat",
    "associations": {
      "classes": [["Oracle"]]
    }
  }
}
