{
  "_id": "dH4iOnIfvhVeGQa4",
  "name": "Dark Defense",
  "type": "feat",
  "img": "systems/pf1/icons/spells/slice-spirit-3.jpg",
  "sort": 0,
  "flags": {},
  "system": {
    "description": {
      "value": "<p>At 5th level, light and darkness become your allies, moving around you to protect you from your enemies. You gain a +2 deflection bonus to Armor Class against any attack while you benefit from concealment against that attack. If you have full concealment from that attack, this deflection bonus increases to +4.</p>"
    },
    "tags": [],
    "actions": [],
    "attackNotes": [],
    "effectNotes": [],
    "changes": [],
    "contextNotes": [],
    "links": {
      "children": [],
      "charges": []
    },
    "tag": "classFeat_darkDefense",
    "useCustomTag": true,
    "armorProf": {
      "value": []
    },
    "weaponProf": {
      "value": []
    },
    "languages": {
      "value": []
    },
    "scriptCalls": [],
    "subType": "classFeat",
    "associations": {
      "classes": [["Psychic"]]
    },
    "abilityType": "su"
  }
}
