{
  "_id": "DSh2Xxb2D8qx5ejm",
  "name": "Deadly Range",
  "type": "feat",
  "img": "systems/pf1/icons/items/weapons/kunai.png",
  "sort": 0,
  "flags": {},
  "system": {
    "description": {
      "value": "<p>A ninja with this ninja trick increases the range at which she can deal sneak attack damage by 10 feet. A ninja can take this trick more than once. Its effects stack.</p>"
    },
    "tags": [["Ninja Trick"], ["Sneak Attack"]],
    "actions": [],
    "attackNotes": [],
    "effectNotes": [],
    "changes": [],
    "contextNotes": [],
    "links": {
      "children": [],
      "charges": []
    },
    "tag": "classFeat_deadlyRange",
    "useCustomTag": true,
    "armorProf": {
      "value": []
    },
    "weaponProf": {
      "value": []
    },
    "languages": {
      "value": []
    },
    "scriptCalls": [],
    "subType": "classFeat",
    "associations": {
      "classes": [["Ninja"]]
    },
    "abilityType": "ex"
  }
}
