{
  "_id": "RG1cy6Mqv8yk7vgE",
  "name": "Dilution",
  "type": "feat",
  "img": "systems/pf1/icons/items/potions/unique-3.jpg",
  "sort": 0,
  "flags": {},
  "system": {
    "description": {
      "value": "<p>Once per day, the alchemist can dilute any one potion or elixir, creating two doses of the same potion from one. Diluting a potion costs a number of gp equal to one-quarter of the potion's market value. A potion that has been diluted cannot be diluted again. This discovery cannot be used to dilute extracts or mutagens.</p>\n<p>An alchemist must be at least 12th level before selecting this discovery.</p>"
    },
    "tags": [],
    "actions": [],
    "attackNotes": [],
    "effectNotes": [],
    "changes": [],
    "contextNotes": [],
    "links": {
      "children": [],
      "charges": []
    },
    "tag": "classFeat_dilution",
    "useCustomTag": true,
    "armorProf": {
      "value": []
    },
    "weaponProf": {
      "value": []
    },
    "languages": {
      "value": []
    },
    "scriptCalls": [],
    "subType": "classFeat",
    "associations": {
      "classes": [["Alchemist"]]
    }
  }
}
