{
  "_id": "jYOMxBxMHT6MXajA",
  "name": "Dragon Subdomain",
  "type": "feat",
  "img": "systems/pf1/icons/skills/ice_11.jpg",
  "sort": 0,
  "flags": {},
  "system": {
    "description": {
      "value": "<p><strong>Replacement Domain Spells:</strong></p>\n<ul>\n<li>3rd—@Compendium[pf1.spells.mjxpdh9jlmr92f1q]{Draconic Reservoir}</li>\n<li>4th—@Compendium[pf1.spells.cdedzw5d9ui73ua7]{Dragon's Breath}</li>\n<li>6th—@Compendium[pf1.spells.iqcjiyi9leldfzxt]{Form of the Dragon I}</li>\n</ul>"
    },
    "tags": [],
    "actions": [],
    "attackNotes": [],
    "effectNotes": [],
    "changes": [],
    "contextNotes": [],
    "links": {
      "children": [],
      "charges": []
    },
    "tag": "classFeat_dragonSubdomain",
    "useCustomTag": true,
    "armorProf": {
      "value": []
    },
    "weaponProf": {
      "value": []
    },
    "languages": {
      "value": []
    },
    "scriptCalls": [],
    "subType": "classFeat",
    "associations": {
      "classes": [["Cleric"]]
    }
  }
}
