{
  "_id": "XyEVbTc4iLgc6cob",
  "name": "Energy Absorption",
  "type": "feat",
  "img": "systems/pf1/icons/feats/deafening-critical.jpg",
  "sort": 0,
  "flags": {},
  "system": {
    "description": {
      "value": "<p>While raging, the barbarian can absorb energy from a single attack of her chosen energy type once per rage. She does not make a saving throw against the effect but takes no damage from it, instead gaining 1 temporary hit point per 3 points of damage the attack would have inflicted. These temporary hit points last until the end of the barbarian’s rage.</p>\n<p>A barbarian must have the greater energy resistance rage power to select this rage power.</p>\n<p>A barbarian must be at least 12th level to select this rage power.</p>"
    },
    "tags": [],
    "actions": [],
    "attackNotes": [],
    "effectNotes": [],
    "changes": [],
    "contextNotes": [],
    "links": {
      "children": [],
      "charges": []
    },
    "tag": "classFeat_energyAbsorption",
    "useCustomTag": true,
    "armorProf": {
      "value": []
    },
    "weaponProf": {
      "value": []
    },
    "languages": {
      "value": []
    },
    "scriptCalls": [],
    "subType": "classFeat",
    "associations": {
      "classes": [["Barbarian"], ["Skald"]]
    },
    "abilityType": "su"
  }
}
