{
  "_id": "m4FcSx9a9WY7myn2",
  "name": "Fast Stealth",
  "type": "feat",
  "img": "systems/pf1/icons/items/weapons/dagger.PNG",
  "sort": 0,
  "flags": {},
  "system": {
    "description": {
      "value": "<p>This ability allows a rogue to move at full speed using the Stealth skill without penalty.</p>"
    },
    "tags": [],
    "actions": [],
    "attackNotes": [],
    "effectNotes": [],
    "changes": [],
    "contextNotes": [
      {
        "subTarget": "skill.ste",
        "target": "skill",
        "text": "Fast stealth"
      }
    ],
    "links": {
      "children": [],
      "charges": []
    },
    "tag": "classFeat_fastStealth",
    "useCustomTag": true,
    "armorProf": {
      "value": []
    },
    "weaponProf": {
      "value": []
    },
    "languages": {
      "value": []
    },
    "scriptCalls": [],
    "subType": "classFeat",
    "associations": {
      "classes": [["Rogue"]]
    },
    "abilityType": "ex"
  }
}
