{
  "_id": "YvkymTmb5YLbqsjK",
  "name": "Fist Subdomain",
  "type": "feat",
  "img": "systems/pf1/icons/feats/improved-unarmed-strike.jpg",
  "sort": 0,
  "flags": {},
  "system": {
    "description": {
      "value": "<p><strong>Replacement Domain Spells:</strong></p>\n<ul>\n<li>1st—@Compendium[pf1.spells.xco22162bwgxn7pj]{True Strike}</li>\n<li>3rd—@Compendium[pf1.spells.bgtmki0xl4xl4y91]{Magic Fang, Greater}</li>\n<li>4th—@Compendium[pf1.spells.lmst00dtapf4xhya]{Force Punch}</li>\n</ul>"
    },
    "tags": [],
    "actions": [],
    "attackNotes": [],
    "effectNotes": [],
    "changes": [],
    "contextNotes": [],
    "links": {
      "children": [],
      "charges": []
    },
    "tag": "classFeat_fistSubdomain",
    "useCustomTag": true,
    "armorProf": {
      "value": []
    },
    "weaponProf": {
      "value": []
    },
    "languages": {
      "value": []
    },
    "scriptCalls": [],
    "subType": "classFeat",
    "associations": {
      "classes": [["Cleric"]]
    }
  }
}
