{
  "_id": "ZfELy8jQ2LalbJDK",
  "name": "Improved Natural Armor (UC) (1 pt)",
  "type": "feat",
  "img": "systems/pf1/icons/skills/blue_26.jpg",
  "sort": 0,
  "flags": {},
  "system": {
    "description": {
      "value": "<p>The eidolon’s hide grows thick fur, rigid scales, or bony plates, giving it a +2 bonus to its natural armor.</p>\n<p>This evolution can be taken once, plus one additional time for every 5 levels the summoner possesses. Each additional time it’s taken, the bonus increases by 2.</p>"
    },
    "tags": [],
    "actions": [],
    "attackNotes": [],
    "effectNotes": [],
    "changes": [
      {
        "_id": "21tm8kma",
        "formula": "2",
        "operator": "add",
        "subTarget": "nac",
        "modifier": "racial",
        "priority": 0,
        "value": 0,
        "target": "ac"
      }
    ],
    "contextNotes": [],
    "links": {
      "children": [],
      "charges": []
    },
    "tag": "classFeat_improvedNaturalArmorUc1Pt",
    "useCustomTag": true,
    "armorProf": {
      "value": []
    },
    "weaponProf": {
      "value": []
    },
    "languages": {
      "value": []
    },
    "scriptCalls": [],
    "subType": "classFeat",
    "associations": {
      "classes": [["Eidolon (Unchained)"]]
    },
    "abilityType": "ex"
  }
}
