{
  "_id": "CQodaSz6k3JZzgyf",
  "name": "Infernal Bargain",
  "type": "feat",
  "img": "systems/pf1/icons/spells/runes-blue-1.jpg",
  "sort": 0,
  "flags": {},
  "system": {
    "description": {
      "value": "<p><strong>Element </strong>universal; <strong>Type </strong>utility (Sp); <strong>Level </strong>1; <strong>Burn </strong>0<br><strong>Prerequisite </strong>tiefling or <a href=\"https://aonprd.com/FeatDisplay.aspx?ItemName=Planar%20Infusion\">Planar Infusion</a> (Hell)<br><strong>Saving Throw </strong>none; <strong>SR </strong>yes</p>\n<p>As a swift action before using a utility talent on a willing target, you can add the effects of @Compendium[pf1.spells.3bdl22oblfph0n33]{Conditional Favor}, except that it applies to any beneficial utility talent instead of to spells of certain schools.</p>"
    },
    "tags": [],
    "actions": [],
    "attackNotes": [],
    "effectNotes": [],
    "changes": [],
    "contextNotes": [],
    "links": {
      "children": [],
      "charges": []
    },
    "tag": "classFeat_infernalBargain",
    "useCustomTag": true,
    "armorProf": {
      "value": []
    },
    "weaponProf": {
      "value": []
    },
    "languages": {
      "value": []
    },
    "scriptCalls": [],
    "subType": "classFeat",
    "associations": {
      "classes": [["Kineticist"]]
    },
    "abilityType": "sp"
  }
}
