{
  "_id": "u9KUlA4J4xUm8Wj8",
  "name": "Lame Curse",
  "type": "feat",
  "img": "systems/pf1/icons/spells/horror-eerie-1.jpg",
  "sort": 0,
  "flags": {},
  "system": {
    "description": {
      "value": "<p>One of your legs is permanently wounded, reducing your base land speed by 10 feet if your base speed is 30 feet or more. If your base speed is less than 30 feet, your speed is reduced by 5 feet. Your speed is never reduced due to encumbrance.</p>\n<p>At 5th level, you are immune to the fatigued condition (but not exhaustion).</p>\n<p>At 10th level, your speed is never reduced by armor.</p>\n<p>At 15th level, you are immune to the exhausted condition.</p>"
    },
    "tags": [],
    "actions": [],
    "attackNotes": [],
    "effectNotes": [],
    "changes": [],
    "contextNotes": [],
    "links": {
      "children": [],
      "charges": []
    },
    "tag": "classFeat_lameCurse",
    "useCustomTag": true,
    "armorProf": {
      "value": []
    },
    "weaponProf": {
      "value": []
    },
    "languages": {
      "value": []
    },
    "scriptCalls": [],
    "subType": "classFeat",
    "associations": {
      "classes": [["Oracle"]]
    }
  }
}
