{
  "_id": "q64PA4PuEGaqqdPM",
  "name": "Leap and Bound",
  "type": "feat",
  "img": "systems/pf1/icons/feats/deceitful.jpg",
  "sort": 0,
  "flags": {},
  "system": {
    "description": {
      "value": "<p>A vigilante with this talent adds his Strength bonus on Acrobatics checks in addition to his Dexterity modifier. He is always treated as having a running start when jumping, and his high jumps are treated as long jumps when determining the DC. When the vigilante jumps, he does not fall until the end of his turn, allowing him to attack or perform other actions in midair. If the vigilante grapples a creature capable of bearing his weight, he does not fall, instead remaining adjacent to the creature as it moves.</p>\n<p>A vigilante must be at least 10th level to select this talent.</p>"
    },
    "tags": [],
    "actions": [],
    "attackNotes": [],
    "effectNotes": [],
    "changes": [
      {
        "_id": "gei58eqa",
        "formula": "@abilities.str.mod",
        "operator": "add",
        "subTarget": "skill.acr",
        "modifier": "untyped",
        "priority": 0,
        "value": 0,
        "target": "skill"
      }
    ],
    "contextNotes": [],
    "links": {
      "children": [],
      "charges": []
    },
    "tag": "classFeat_leapAndBound",
    "useCustomTag": true,
    "armorProf": {
      "value": []
    },
    "weaponProf": {
      "value": []
    },
    "languages": {
      "value": []
    },
    "scriptCalls": [],
    "subType": "classFeat",
    "associations": {
      "classes": [["Vigilante"]]
    },
    "abilityType": "ex"
  }
}
