{
  "_id": "0JvEYXslAj6JDZyS",
  "name": "Ledge Walker (UC)",
  "type": "feat",
  "img": "systems/pf1/icons/items/weapons/hunga-munga.PNG",
  "sort": 0,
  "flags": {},
  "system": {
    "description": {
      "value": "<p>This ability allows a rogue to move along narrow, uneven, or slippery surfaces (such as ice) at full speed using the Acrobatics skill without penalty. In addition, a rogue with this talent is not flat-footed when using Acrobatics to move along such surfaces, and retains her Dexterity bonus to AC.</p>"
    },
    "tags": [],
    "actions": [],
    "attackNotes": [],
    "effectNotes": [],
    "changes": [],
    "contextNotes": [],
    "links": {
      "children": [],
      "charges": []
    },
    "tag": "classFeat_ledgeWalkerUc",
    "useCustomTag": true,
    "armorProf": {
      "value": []
    },
    "weaponProf": {
      "value": []
    },
    "languages": {
      "value": []
    },
    "scriptCalls": [],
    "subType": "classFeat",
    "associations": {
      "classes": [["Rogue (Unchained)"]]
    },
    "abilityType": "ex"
  }
}
