{
  "_id": "jb0WCVxSOi5e8gEE",
  "name": "Madness Domain",
  "type": "feat",
  "img": "systems/pf1/icons/skills/red_22.jpg",
  "sort": 0,
  "flags": {},
  "system": {
    "description": {
      "value": "<p><strong>Granted Powers:</strong> You embrace the madness that lurks deep in your heart, and can unleash it to drive your foes insane or to sacrifice certain abilities to hone others.</p>\n<p><strong>Domain Spells:</strong></p>\n<ul>\n<li>1st—@Compendium[pf1.spells.ud4xukzhan89qhm4]{Confusion, Lesser}</li>\n<li>2nd—@Compendium[pf1.spells.648x72rflah0ggyz]{Touch of Idiocy}</li>\n<li>3rd—@Compendium[pf1.spells.8u1xa5javcxc6szk]{Rage}</li>\n<li>4th—@Compendium[pf1.spells.n0bsyxchnigkkuqo]{Confusion}</li>\n<li>5th—@Compendium[pf1.spells.siv3ub7hbmcklf8c]{Nightmare}</li>\n<li>6th—@Compendium[pf1.spells.6efjgs1qvmj6yxqv]{Phantasmal Killer}</li>\n<li>7th—@Compendium[pf1.spells.s6q72tw2zra9sycu]{Insanity}</li>\n<li>8th—@Compendium[pf1.spells.34jyuvdflia4goib]{Scintillating Pattern}</li>\n<li>9th—@Compendium[pf1.spells.3wdx7fjulsohi1lk]{Weird}</li>\n</ul>"
    },
    "tags": [],
    "actions": [],
    "attackNotes": [],
    "effectNotes": [],
    "changes": [],
    "contextNotes": [],
    "links": {
      "children": [],
      "charges": []
    },
    "tag": "classFeat_madnessDomain",
    "useCustomTag": true,
    "armorProf": {
      "value": []
    },
    "weaponProf": {
      "value": []
    },
    "languages": {
      "value": []
    },
    "scriptCalls": [],
    "subType": "classFeat",
    "associations": {
      "classes": [["Cleric"]]
    }
  }
}
