{
  "_id": "q7aOR0jKvbkVHhyF",
  "name": "Master Skald",
  "type": "feat",
  "img": "systems/pf1/icons/feats/intimidating-prowess.jpg",
  "sort": 0,
  "flags": {},
  "system": {
    "description": {
      "value": "<p>At 20th level, a skald’s inspired rage no longer gives allies a penalty to AC, nor limits what skills or abilities they can use. Allies with rage class abilities may use features dependent on those abilities without restriction, such as a barbarian’s rage powers and a bloodrager’s blood casting and bloodline abilities. Finally, when making a full attack, affected allies may make an additional attack each round (as if using a haste effect).</p>"
    },
    "tags": [],
    "actions": [],
    "attackNotes": [],
    "effectNotes": [],
    "changes": [],
    "contextNotes": [],
    "links": {
      "children": [],
      "charges": []
    },
    "tag": "classFeat_masterSkald",
    "useCustomTag": true,
    "armorProf": {
      "value": []
    },
    "weaponProf": {
      "value": []
    },
    "languages": {
      "value": []
    },
    "scriptCalls": [],
    "subType": "classFeat",
    "associations": {
      "classes": [["Skald"]]
    },
    "abilityType": "su"
  }
}
