{
  "_id": "hFHJ4B9hwrGll8o4",
  "name": "Metal Subdomain",
  "type": "feat",
  "img": "systems/pf1/icons/skills/mech_5.jpg",
  "sort": 0,
  "flags": {},
  "system": {
    "description": {
      "value": "<p><strong>Replacement Domain Spells:</strong></p>\n<ul>\n<li>2nd—@Compendium[pf1.spells.3b1x69kfhnsa2d54]{Heat Metal}</li>\n<li>6th—@Compendium[pf1.spells.fnxgq54y02f6ri82]{Wall of Iron}</li>\n<li>8th—@Compendium[pf1.spells.mkrjbrp57yfdqrx0]{Iron Body}</li>\n</ul>"
    },
    "tags": [],
    "actions": [],
    "attackNotes": [],
    "effectNotes": [],
    "changes": [],
    "contextNotes": [],
    "links": {
      "children": [],
      "charges": []
    },
    "tag": "classFeat_metalSubdomain",
    "useCustomTag": true,
    "armorProf": {
      "value": []
    },
    "weaponProf": {
      "value": []
    },
    "languages": {
      "value": []
    },
    "scriptCalls": [],
    "subType": "classFeat",
    "associations": {
      "classes": [["Cleric"]]
    }
  }
}
