{
  "_id": "qqfc9I2awuSdfCxf",
  "name": "Nature Training",
  "type": "feat",
  "img": "systems/pf1/icons/skills/green_20.jpg",
  "sort": 0,
  "flags": {},
  "system": {
    "description": {
      "value": "<p>A hunter counts her total hunter level as both druid levels and ranger levels for the purpose of qualifying for feats, traits, and options that modify or improve an animal companion.</p>"
    },
    "tags": [],
    "actions": [],
    "attackNotes": [],
    "effectNotes": [],
    "changes": [],
    "contextNotes": [],
    "links": {
      "children": [],
      "charges": []
    },
    "tag": "classFeat_natureTraining",
    "useCustomTag": true,
    "armorProf": {
      "value": []
    },
    "weaponProf": {
      "value": []
    },
    "languages": {
      "value": []
    },
    "scriptCalls": [],
    "subType": "classFeat",
    "associations": {
      "classes": [["Hunter"]]
    },
    "abilityType": "ex"
  }
}
