{
  "_id": "0ZfpdepXs7JYw975",
  "name": "New Arcana",
  "type": "feat",
  "img": "systems/pf1/icons/spells/runes-blue-2.jpg",
  "sort": 0,
  "flags": {},
  "system": {
    "description": {
      "value": "<p> At 9th level, you can add any one spell from the sorcerer/wizard spell list to your list of spells known. This spell must be of a level that you are capable of casting. You can also add one additional spell at 13th level and 17th level.</p>"
    },
    "tags": [],
    "actions": [],
    "attackNotes": [],
    "effectNotes": [],
    "changes": [],
    "contextNotes": [],
    "links": {
      "children": [],
      "charges": []
    },
    "tag": "classFeat_newArcana",
    "useCustomTag": true,
    "armorProf": {
      "value": []
    },
    "weaponProf": {
      "value": []
    },
    "languages": {
      "value": []
    },
    "scriptCalls": [],
    "subType": "classFeat",
    "associations": {
      "classes": [["Sorcerer"]]
    },
    "abilityType": "ex"
  }
}
