{
  "_id": "LZUh2JH0j1x4WvCg",
  "name": "Phantasmagoric Display",
  "type": "feat",
  "img": "systems/pf1/icons/skills/violet_20.jpg",
  "sort": 0,
  "flags": {},
  "system": {
    "description": {
      "value": "<p>The shaman can cast @Compendium[pf1.spells.ijwcwnt3oatnfghq]{Prismatic Wall} and @Compendium[pf1.spells.mb819hvwpk0zmw53]{Prismatic Spray}, each once per day with a caster level equal to her shaman level.</p>"
    },
    "tags": [],
    "actions": [],
    "attackNotes": [],
    "effectNotes": [],
    "changes": [],
    "contextNotes": [],
    "links": {
      "children": [],
      "charges": []
    },
    "tag": "classFeat_phantasmagoricDisplay",
    "useCustomTag": true,
    "armorProf": {
      "value": []
    },
    "weaponProf": {
      "value": []
    },
    "languages": {
      "value": []
    },
    "scriptCalls": [],
    "subType": "classFeat",
    "associations": {
      "classes": [["Shaman"]]
    },
    "abilityType": "sp"
  }
}
