{
  "_id": "JKVMIIKdkhMEIlKg",
  "name": "Quenching Infusion",
  "type": "feat",
  "img": "systems/pf1/icons/spells/ice-blue-2.jpg",
  "sort": 0,
  "flags": {},
  "system": {
    "description": {
      "value": "<p><strong>Element </strong>water; <strong>Type </strong>substance infusion; <strong>Level </strong>1; <strong>Burn </strong>1<br><strong>Associated Blasts </strong>charged water, water<br><strong>Saving Throw </strong>none</p>\n<p>Your blast puts out nonmagical fires as if they had been touched by a water elemental. If you increase the burn cost to 2 or reduce the damage to 0, it also dispels magical fires as if you were a water elemental with a number of Hit Dice equal to your kineticist level.</p>"
    },
    "tags": [],
    "actions": [],
    "attackNotes": [],
    "effectNotes": [],
    "changes": [],
    "contextNotes": [],
    "links": {
      "children": [],
      "charges": []
    },
    "tag": "classFeat_quenchingInfusion",
    "useCustomTag": true,
    "armorProf": {
      "value": []
    },
    "weaponProf": {
      "value": []
    },
    "languages": {
      "value": []
    },
    "scriptCalls": [],
    "subType": "classFeat",
    "associations": {
      "classes": [["Kineticist"]]
    }
  }
}
