{
  "_id": "lzX9gHnP0UDKDzPU",
  "name": "Quick Disguise",
  "type": "feat",
  "img": "systems/pf1/icons/items/weapons/dagger.PNG",
  "sort": 0,
  "flags": {},
  "system": {
    "description": {
      "value": "<p>A rogue with this talent can use the items at hand and seemingly innocuous material hidden on her person to create startlingly effective disguises, reducing the amount of time it takes to create a disguise using the Disguise skill.<p>The time needed for the rogue to alter her appearance in this manner is based on the complexity of the disguise, as noted on the following table. The times are cumulative, so if a female rogue wants to disguise herself as a male of a different race, that takes 2 minutes.<br><br></p>\n<table>\n<tbody>\n<tr>\n<td><strong>Disguise</strong></td>\n<td><strong>Time</strong></td>\n</tr>\n<tr>\n<td>Minor details only</td>\n<td>1 full-round action</td>\n</tr>\n<tr>\n<td>Disguise as a different gender</td>\n<td>1 minute</td>\n</tr>\n<tr>\n<td>Disguise as a different race</td>\n<td>1 minute</td>\n</tr>\n<tr>\n<td>Disguise as a different age category</td>\n<td>1 minute</td>\n</tr>\n<tr>\n<td>Disguise as a different size category</td>\n<td>1 minute</td>\n</tr>\n</tbody>\n</table>"
    },
    "tags": [],
    "actions": [],
    "attackNotes": [],
    "effectNotes": [],
    "changes": [],
    "contextNotes": [],
    "links": {
      "children": [],
      "charges": []
    },
    "tag": "classFeat_quickDisguise",
    "useCustomTag": true,
    "armorProf": {
      "value": []
    },
    "weaponProf": {
      "value": []
    },
    "languages": {
      "value": []
    },
    "scriptCalls": [],
    "subType": "classFeat",
    "associations": {
      "classes": [["Rogue"]]
    },
    "abilityType": "ex"
  }
}
