{
  "_id": "65vrvWCBGkJVorXD",
  "name": "Reflect Fear",
  "type": "feat",
  "img": "systems/pf1/icons/skills/violet_26.jpg",
  "sort": 0,
  "flags": {},
  "system": {
    "description": {
      "value": "<p>The mesmerist can trigger this trick when the subject is affected by a fear effect or is the target of an Intimidate check to demoralize it. When the trick is triggered, the subject suppresses the fear effect that triggered the trick for 1d4 rounds, and any creature that caused this effect must succeed at a Will save or become shaken for 1 round. The rounds during which the subject ignores the triggering fear effect still count against the effect’s duration.</p>\n<p>If the duration of the reflect fear trick is longer than the fear effect lasts, the subject isn’t affected by the fear effect at all.</p>"
    },
    "tags": [],
    "actions": [],
    "attackNotes": [],
    "effectNotes": [],
    "changes": [],
    "contextNotes": [],
    "links": {
      "children": [],
      "charges": []
    },
    "tag": "classFeat_reflectFear",
    "useCustomTag": true,
    "armorProf": {
      "value": []
    },
    "weaponProf": {
      "value": []
    },
    "languages": {
      "value": []
    },
    "scriptCalls": [],
    "subType": "classFeat",
    "associations": {
      "classes": [["Mesmerist"]]
    }
  }
}
