{
  "_id": "fukX7UOOr7xTSBPv",
  "name": "Rivethun Discipline",
  "type": "feat",
  "img": "systems/pf1/icons/spells/slice-spirit-3.jpg",
  "sort": 0,
  "flags": {},
  "system": {
    "description": {
      "value": "<p>You have embraced those aspects of your body that cause you agony, respecting the perspective they grant you if not necessarily the roles they’ve condemned you to in life.<p><strong>Phrenic Pool Ability:</strong> Charisma<p><strong>Bonus Spells:</strong></p>\n<ul>\n<li>@Compendium[pf1.spells.r8bhei88g6h26fp0]{Heightened Awareness} (1st), </li>\n<li>@Compendium[pf1.spells.usdv1eqvibmxun6x]{Bear's Endurance} (4th), </li>\n<li>@Compendium[pf1.spells.isrnyw9biluqoo80]{Aura Sight} (6th), </li>\n<li>@Compendium[pf1.spells.ev845glbl54em94v]{Persistent Vigor} (8th), </li>\n<li>@Compendium[pf1.spells.jbqo4o2b2tmdz7wv]{True Seeing} (10th), </li>\n<li>@Compendium[pf1.spells.37ubwx82nqaog3ib]{Thought Shield V} (12th), </li>\n<li>@Compendium[pf1.spells.blvetbc929cfx4m8]{Mind Blank} (14th), </li>\n<li>@Compendium[pf1.spells.mkrjbrp57yfdqrx0]{Iron Body} (16th), </li>\n<li>@Compendium[pf1.spells.au6p72aztjhtokwr]{Akashic Form} (18th).</li>\n</ul>"
    },
    "tags": [],
    "actions": [],
    "attackNotes": [],
    "effectNotes": [],
    "changes": [],
    "contextNotes": [],
    "links": {
      "children": [],
      "charges": []
    },
    "tag": "classFeat_rivethunDiscipline",
    "useCustomTag": true,
    "armorProf": {
      "value": []
    },
    "weaponProf": {
      "value": []
    },
    "languages": {
      "value": []
    },
    "scriptCalls": [],
    "subType": "classFeat",
    "associations": {
      "classes": [["Psychic"]]
    }
  }
}
