{
  "_id": "2TsDfK0SKC8IGVx4",
  "name": "Smite Evil",
  "type": "feat",
  "img": "systems/pf1/icons/feats/greater-weapon-focus.jpg",
  "sort": 0,
  "flags": {},
  "system": {
    "description": {
      "value": "<p>Once per day, a paladin can call out to the powers of good to aid her in her struggle against evil. As a swift action, the paladin chooses one target within sight to smite. If this target is evil, the paladin adds her <em>Cha</em> bonus (if any) to her attack rolls and adds her paladin level to all damage rolls made against the target of her smite. If the target of smite evil is an outsider with the evil subtype, an evil-aligned dragon, or an undead creature, the bonus to damage on the first successful attack increases to 2 points of damage per level the paladin possesses. Regardless of the target, smite evil attacks automatically bypass any <em>DR</em> the creature might possess.</p>\n<p>In addition, while smite evil is in effect, the paladin gains a deflection bonus equal to her <em>Charisma</em> modifier (if any) to her <em>AC</em> against attacks made by the target of the smite. If the paladin targets a creature that is not evil, the smite is wasted with no effect.</p>\n<p>The smite evil effect remains until the target of the smite is dead or the next time the paladin rests and regains her uses of this ability. At 4th level, and at every three levels thereafter, the paladin may smite evil one additional time per day, as indicated on Table: Paladin, to a maximum of seven times per day at 19th level.</p>"
    },
    "tags": [],
    "actions": [
      {
        "_id": "rp3my4fea7xog21f",
        "name": "Use",
        "img": "systems/pf1/icons/feats/greater-weapon-focus.jpg",
        "description": "",
        "tag": "",
        "activation": {
          "cost": 1,
          "type": "swift"
        },
        "unchainedAction": {
          "activation": {
            "cost": 1,
            "type": "action"
          }
        },
        "duration": {
          "value": null,
          "units": "inst"
        },
        "target": {
          "value": ""
        },
        "range": {
          "value": null,
          "units": "seeText",
          "maxIncrements": 1,
          "minValue": null,
          "minUnits": ""
        },
        "uses": {
          "autoDeductChargesCost": "",
          "self": {
            "value": 0,
            "maxFormula": "",
            "per": null
          },
          "per": "day",
          "value": 0,
          "maxFormula": "floor((@attributes.hd.total - 1) / 3) + 1"
        },
        "measureTemplate": {
          "type": "",
          "size": "0",
          "overrideColor": false,
          "customColor": "",
          "overrideTexture": false,
          "customTexture": ""
        },
        "attackName": "",
        "actionType": "",
        "attackBonus": "",
        "critConfirmBonus": "",
        "damage": {
          "parts": [],
          "critParts": [],
          "nonCritParts": []
        },
        "attackParts": [],
        "formulaicAttacks": {
          "count": {
            "formula": ""
          },
          "bonus": {
            "formula": ""
          },
          "label": null
        },
        "formula": "",
        "ability": {
          "attack": null,
          "damage": null,
          "damageMult": 1,
          "critRange": 20,
          "critMult": 2
        },
        "save": {
          "dc": 0,
          "type": "",
          "description": ""
        },
        "effectNotes": [],
        "attackNotes": [],
        "soundEffect": "",
        "powerAttack": {
          "multiplier": "",
          "damageBonus": 2,
          "critMultiplier": 1
        },
        "naturalAttack": {
          "primaryAttack": true,
          "secondary": {
            "attackBonus": "-5",
            "damageMult": 0.5
          }
        },
        "nonlethal": false,
        "usesAmmo": false,
        "spellEffect": "",
        "spellArea": "",
        "conditionals": [],
        "enh": {
          "value": null
        }
      }
    ],
    "uses": {
      "per": "day",
      "maxFormula": "floor((@attributes.hd.total - 1) / 3) + 1"
    },
    "attackNotes": [],
    "effectNotes": [],
    "changes": [],
    "contextNotes": [],
    "links": {
      "children": [],
      "charges": []
    },
    "tag": "classFeat_smiteEvil",
    "useCustomTag": true,
    "armorProf": {
      "value": []
    },
    "weaponProf": {
      "value": []
    },
    "languages": {
      "value": []
    },
    "scriptCalls": [],
    "subType": "classFeat",
    "associations": {
      "classes": [["Paladin"]]
    },
    "abilityType": "su"
  }
}
