{
  "_id": "dQbZpHRRuycZaAMD",
  "name": "Surprise Attack",
  "type": "feat",
  "img": "systems/pf1/icons/items/weapons/dagger.PNG",
  "sort": 0,
  "flags": {},
  "system": {
    "description": {
      "value": "<p>During the surprise round, opponents are always considered flat-footed to a rogue with this ability, even if they have already acted.</p>"
    },
    "tags": [],
    "actions": [],
    "attackNotes": [],
    "effectNotes": [],
    "changes": [],
    "contextNotes": [],
    "links": {
      "children": [],
      "charges": []
    },
    "tag": "classFeat_surpriseAttack",
    "useCustomTag": true,
    "armorProf": {
      "value": []
    },
    "weaponProf": {
      "value": []
    },
    "languages": {
      "value": []
    },
    "scriptCalls": [],
    "subType": "classFeat",
    "associations": {
      "classes": [["Rogue"]]
    },
    "abilityType": "ex"
  }
}
