{
  "_id": "5TbpHfdRRUhJ4CZP",
  "name": "Team Player",
  "type": "feat",
  "img": "systems/pf1/icons/feats/deceitful.jpg",
  "sort": 0,
  "flags": {},
  "system": {
    "description": {
      "value": "<p>The vigilante gains Swift Aid as a bonus feat, ignoring its prerequisites. Additionally, the vigilante can use the feat as a standard action, in which case it applies to every ally adjacent to the vigilante.</p>\n<p>At 10th level, the vigilante can increase the bonus provided to one ally by this feat to +2 by using the aid another action as a move action rather than as a swift action.</p>"
    },
    "tags": [],
    "actions": [],
    "attackNotes": [],
    "effectNotes": [],
    "changes": [],
    "contextNotes": [],
    "links": {
      "children": [],
      "charges": []
    },
    "tag": "classFeat_teamPlayer",
    "useCustomTag": true,
    "armorProf": {
      "value": []
    },
    "weaponProf": {
      "value": []
    },
    "languages": {
      "value": []
    },
    "scriptCalls": [],
    "subType": "classFeat",
    "associations": {
      "classes": [["Vigilante"]]
    },
    "abilityType": "ex"
  }
}
