{
  "_id": "QXskUuwbmQtFoFti",
  "name": "Third Judgment",
  "type": "feat",
  "img": "systems/pf1/icons/skills/yellow_38.jpg",
  "sort": 0,
  "flags": {},
  "system": {
    "description": {
      "value": "<p>At 16th level, whenever an inquisitor uses her judgment ability, she selects three different judgments, instead of just two. This only consumes one use of her judgment ability. As a swift action, the inquisitor can change one of these judgments to another type.</p>"
    },
    "tags": [],
    "actions": [],
    "attackNotes": [],
    "effectNotes": [],
    "changes": [],
    "contextNotes": [],
    "links": {
      "children": [],
      "charges": []
    },
    "tag": "classFeat_thirdJudgment",
    "useCustomTag": true,
    "armorProf": {
      "value": []
    },
    "weaponProf": {
      "value": []
    },
    "languages": {
      "value": []
    },
    "scriptCalls": [],
    "subType": "classFeat",
    "associations": {
      "classes": [["Inquisitor"]]
    },
    "abilityType": "ex"
  }
}
