{
  "_id": "TZPWrQ8XAgyZUzdb",
  "name": "Time Mystery",
  "type": "feat",
  "img": "systems/pf1/icons/spells/light-magenta-2.jpg",
  "sort": 0,
  "flags": {},
  "system": {
    "description": {
      "value": "<p><strong>Class Skills:</strong> An oracle with the time mystery adds Fly, Knowledge (arcana), Perception, and Use Magic Device to her list of class skills.<p><strong>Bonus Spells: </strong></p>\n<ul>\n<li>@Compendium[pf1.spells.5eg2f7nek9cjmv0n]{Memory Lapse} (2nd), </li>\n<li>@Compendium[pf1.spells.vdmsaodgnbo8wjfx]{Gentle Repose} (4th), </li>\n<li>@Compendium[pf1.spells.l7tmsbg37zr1q382]{Sands of Time} (6th), </li>\n<li>@Compendium[pf1.spells.w2yf0ksu14e91uae]{Threefold Aspect} (8th), </li>\n<li>@Compendium[pf1.spells.nsxngq65mbrzgwnm]{Permanency} (10th), </li>\n<li>@Compendium[pf1.spells.4br9puuneexco5hx]{Contingency} (12th), </li>\n<li>@Compendium[pf1.spells.sxyiwj0z95piv96i]{Disintegrate} (14th), </li>\n<li>@Compendium[pf1.spells.qptzjtg2m9cqnuwh]{Temporal Stasis} (16th), </li>\n<li>@Compendium[pf1.spells.7mstq5c76h3e6zzx]{Time Stop} (18th).</li>\n</ul>"
    },
    "tags": [["Time Mystery"]],
    "actions": [],
    "attackNotes": [],
    "effectNotes": [],
    "changes": [],
    "contextNotes": [],
    "links": {
      "children": [],
      "charges": []
    },
    "tag": "classFeat_timeMystery",
    "useCustomTag": true,
    "armorProf": {
      "value": []
    },
    "weaponProf": {
      "value": []
    },
    "languages": {
      "value": []
    },
    "scriptCalls": [],
    "subType": "classFeat",
    "associations": {
      "classes": [["Oracle"]]
    }
  }
}
