{
  "_id": "2rhBzKEAoebdMai0",
  "name": "Time Patron",
  "type": "feat",
  "img": "systems/pf1/icons/feats/improved-familiar.jpg",
  "sort": 0,
  "flags": {},
  "system": {
    "description": {
      "value": "<ul>\n<li>2nd — @Compendium[pf1.spells.0onqjy8gfgop1xsi]{Ventriloquism}</li>\n<li>4th — @Compendium[pf1.spells.ow4t1zox6dtybgji]{Silence}</li>\n<li>6th — @Compendium[pf1.spells.s9amdo5398alb5p0]{Haste}</li>\n<li>8th — @Compendium[pf1.spells.w2yf0ksu14e91uae]{Threefold Aspect}</li>\n<li>10th — @Compendium[pf1.spells.ptqu8gtrujxsvwy1]{Teleport}</li>\n<li>12th — @Compendium[pf1.spells.sxyiwj0z95piv96i]{Disintegrate}</li>\n<li>14th — @Compendium[pf1.spells.uuzeynxotp9dzu15]{Expend}</li>\n<li>16th — @Compendium[pf1.spells.qptzjtg2m9cqnuwh]{Temporal Stasis}</li>\n<li>18th — @Compendium[pf1.spells.7mstq5c76h3e6zzx]{Time Stop}</li>\n</ul>"
    },
    "tags": [],
    "actions": [],
    "attackNotes": [],
    "effectNotes": [],
    "changes": [],
    "contextNotes": [],
    "links": {
      "children": [],
      "charges": []
    },
    "tag": "classFeat_timePatron",
    "useCustomTag": true,
    "armorProf": {
      "value": []
    },
    "weaponProf": {
      "value": []
    },
    "languages": {
      "value": []
    },
    "scriptCalls": [],
    "subType": "classFeat",
    "associations": {
      "classes": [["Witch"]]
    }
  }
}
