{
  "_id": "6rqIMKpnCiimDyLo",
  "name": "Toil Subdomain",
  "type": "feat",
  "img": "systems/pf1/icons/spells/rip-jade-1.jpg",
  "sort": 0,
  "flags": {},
  "system": {
    "description": {
      "value": "<p><strong>Replacement Domain Spells:</strong></p>\n<ul>\n<li>1st—@Compendium[pf1.spells.2p6fzj5t03oivndd]{Command}</li>\n<li>5th—@Compendium[pf1.spells.ijvb1exko6dskalz]{Waves of Fatigue}</li>\n<li>7th—@Compendium[pf1.spells.9f3hf9h3j8q8062b]{Waves of Exhaustion}</li>\n</ul>"
    },
    "tags": [],
    "actions": [],
    "attackNotes": [],
    "effectNotes": [],
    "changes": [],
    "contextNotes": [],
    "links": {
      "children": [],
      "charges": []
    },
    "tag": "classFeat_toilSubdomain",
    "useCustomTag": true,
    "armorProf": {
      "value": []
    },
    "weaponProf": {
      "value": []
    },
    "languages": {
      "value": []
    },
    "scriptCalls": [],
    "subType": "classFeat",
    "associations": {
      "classes": [["Cleric"]]
    }
  }
}
