{
  "_id": "pctNgVcWt0SJZcxz",
  "name": "Trapfinding (SLA)",
  "type": "feat",
  "img": "systems/pf1/icons/items/weapons/rhoka.PNG",
  "sort": 0,
  "flags": {},
  "system": {
    "description": {
      "value": "<p>The slayer gains Disable Device as a class skill. The slayer also gains the @UUID[Compendium.pf1.class-abilities.pEODJDoTk7uhCZY7]{trapfinding} and @UUID[Compendium.pf1.class-abilities.BoEkMviJrW0PKmhj]{trap sense} rogue abilities, using his slayer level as his effective rogue level.</p>"
    },
    "tags": [],
    "actions": [],
    "attackNotes": [],
    "effectNotes": [],
    "changes": [
      {
        "_id": "dzjkz8b1",
        "formula": "max(1, floor(@classes.slayer.level / 2))",
        "operator": "add",
        "subTarget": "skill.dev",
        "modifier": "untyped",
        "priority": 0,
        "value": 0,
        "target": "skill"
      }
    ],
    "contextNotes": [
      {
        "text": "+[[max(1, floor(@classes.slayer.level / 2))]] vs Traps",
        "target": "skill",
        "subTarget": "skill.per"
      }
    ],
    "links": {
      "children": [],
      "charges": []
    },
    "tag": "classFeat_trapfindingSla",
    "useCustomTag": true,
    "armorProf": {
      "value": []
    },
    "weaponProf": {
      "value": []
    },
    "languages": {
      "value": []
    },
    "scriptCalls": [],
    "subType": "classFeat",
    "associations": {
      "classes": [["Slayer"]]
    },
    "classSkills": {
      "dev": true
    },
    "abilityType": "ex"
  }
}
