{
  "_id": "CEwc60rpSMFlbjce",
  "name": "Trap Spotter",
  "type": "feat",
  "img": "systems/pf1/icons/items/weapons/dagger.PNG",
  "sort": 0,
  "flags": {},
  "system": {
    "description": {
      "value": "<p>Whenever a rogue with this talent comes within 10 feet of a trap, she receives an immediate Perception skill check to notice the trap. This check should be made in secret by the GM.</p>"
    },
    "tags": [],
    "actions": [],
    "attackNotes": [],
    "effectNotes": [],
    "changes": [],
    "contextNotes": [],
    "links": {
      "children": [],
      "charges": []
    },
    "tag": "classFeat_trapSpotter",
    "useCustomTag": true,
    "armorProf": {
      "value": []
    },
    "weaponProf": {
      "value": []
    },
    "languages": {
      "value": []
    },
    "scriptCalls": [],
    "subType": "classFeat",
    "associations": {
      "classes": [["Rogue"]]
    },
    "abilityType": "ex"
  }
}
