{
  "_id": "WQrX7i9acM9EHMTR",
  "name": "Winter Mystery",
  "type": "feat",
  "img": "systems/pf1/icons/spells/light-magenta-2.jpg",
  "sort": 0,
  "flags": {},
  "system": {
    "description": {
      "value": "<p><strong>Class Skills: </strong>An oracle with the winter mystery adds Intimidate, Knowledge (nature), Stealth, and Survival to her list of class skills.<p><strong>Bonus Spells: </strong></p>\n<ul>\n<li>@Compendium[pf1.spells.pau0ejk30fs1eebl]{Endure Elements}(2nd), </li>\n<li>@Compendium[pf1.spells.ue0h9b1fl21m8lzy]{Frost Fall} (4th), </li>\n<li>@Compendium[pf1.spells.qnp4eosajai8s3sf]{Sleet Storm} (6th), </li>\n<li>@Compendium[pf1.spells.t1uhggjfimtabp4v]{Ice Storm} (8th), </li>\n<li>@Compendium[pf1.spells.jjjy56tcyfq8wa9g]{Icy Prison} (10th), </li>\n<li>@Compendium[pf1.spells.pkm8um5t1cxsn6jh]{Cone of Cold} (12th), </li>\n<li>@Compendium[pf1.spells.qubzqiz5mqs8tbqr]{Ice Body} (14th), </li>\n<li>@Compendium[pf1.spells.8jq1atxonnerix55]{Polar Ray} (16th), </li>\n<li>@Compendium[pf1.spells.ezpm33cvtlq8aswa]{Icy Prison, Mass} (18th).</li>\n</ul>"
    },
    "tags": [],
    "actions": [],
    "attackNotes": [],
    "effectNotes": [],
    "changes": [],
    "contextNotes": [],
    "links": {
      "children": [],
      "charges": []
    },
    "tag": "classFeat_winterMystery",
    "useCustomTag": true,
    "armorProf": {
      "value": []
    },
    "weaponProf": {
      "value": []
    },
    "languages": {
      "value": []
    },
    "scriptCalls": [],
    "subType": "classFeat",
    "associations": {
      "classes": [["Oracle"]]
    }
  }
}
