{
  "_id": "kXvipUvebDtVfxEv",
  "name": "Prayer (Positive)",
  "type": "buff",
  "img": "systems/pf1/icons/skills/yellow_13.jpg",
  "sort": 6700000,
  "flags": {},
  "system": {
    "description": {
      "value": "<p>You have a +1 luck bonus on attack rolls, weapon damage rolls, saves and skill checks.</p>"
    },
    "tags": [],
    "changes": [
      {
        "_id": "o2dkmdkf",
        "formula": "1",
        "operator": "add",
        "subTarget": "attack",
        "modifier": "luck",
        "priority": 0,
        "value": 1,
        "target": "attack"
      },
      {
        "_id": "6kp0tugu",
        "formula": "1",
        "operator": "add",
        "subTarget": "wdamage",
        "modifier": "luck",
        "priority": 0,
        "value": 1,
        "target": "damage"
      },
      {
        "_id": "3cxhoj07",
        "formula": "1",
        "operator": "add",
        "subTarget": "allSavingThrows",
        "modifier": "luck",
        "priority": 0,
        "value": 1,
        "target": "savingThrows"
      },
      {
        "_id": "v4txq9o0",
        "formula": "1",
        "operator": "add",
        "subTarget": "skills",
        "modifier": "luck",
        "priority": 0,
        "value": 1,
        "target": "skills"
      }
    ],
    "contextNotes": [],
    "links": {
      "children": []
    },
    "scriptCalls": [],
    "level": "5",
    "duration": {
      "value": "@item.level",
      "units": "round"
    }
  }
}
