{
  "_id": "qt0xmkag6ahtvesm",
  "name": "Animate Plants",
  "type": "spell",
  "img": "systems/pf1/icons/misc/magic-swirl.png",
  "sort": 0,
  "flags": {},
  "system": {
    "tags": [],
    "actions": [
      {
        "_id": "byatw9ubu2gbt07u",
        "name": "Use",
        "img": "systems/pf1/icons/misc/magic-swirl.png",
        "description": "",
        "tag": "",
        "activation": {
          "cost": 1,
          "type": "standard"
        },
        "unchainedAction": {
          "activation": {
            "cost": 2,
            "type": "action"
          }
        },
        "duration": {
          "value": "1 round/level or 1 hour/level; see text",
          "units": ""
        },
        "target": {
          "value": "one Large plant per three caster levels or all plants within  range; see text"
        },
        "range": {
          "value": null,
          "units": "close",
          "maxIncrements": 1,
          "minValue": null,
          "minUnits": ""
        },
        "uses": {
          "autoDeductChargesCost": "",
          "self": {
            "value": 0,
            "maxFormula": "",
            "per": null
          },
          "per": "",
          "value": 0,
          "maxFormula": ""
        },
        "measureTemplate": {
          "type": "",
          "size": "0",
          "overrideColor": false,
          "customColor": "",
          "overrideTexture": false,
          "customTexture": ""
        },
        "attackName": "",
        "actionType": "",
        "attackBonus": "",
        "critConfirmBonus": "",
        "damage": {
          "parts": [],
          "critParts": [],
          "nonCritParts": []
        },
        "attackParts": [],
        "formulaicAttacks": {
          "count": {
            "formula": ""
          },
          "bonus": {
            "formula": ""
          },
          "label": null
        },
        "formula": "",
        "ability": {
          "attack": "",
          "damage": "",
          "damageMult": 1,
          "critRange": 20,
          "critMult": 2
        },
        "save": {
          "dc": "0",
          "type": "",
          "description": ""
        },
        "effectNotes": [],
        "attackNotes": [],
        "soundEffect": "",
        "powerAttack": {
          "multiplier": "",
          "damageBonus": 2,
          "critMultiplier": 1
        },
        "naturalAttack": {
          "primaryAttack": true,
          "secondary": {
            "attackBonus": "-5",
            "damageMult": 0.5
          }
        },
        "nonlethal": false,
        "usesAmmo": false,
        "spellEffect": "",
        "spellArea": "",
        "conditionals": [],
        "enh": {
          "value": null
        }
      }
    ],
    "uses": {
      "per": ""
    },
    "attackNotes": [],
    "effectNotes": [],
    "links": {
      "children": []
    },
    "scriptCalls": [],
    "learnedAt": {
      "class": [
        ["druid", 7],
        ["shaman", 7]
      ],
      "domain": [["Plant", 7]],
      "subDomain": [],
      "elementalSchool": [],
      "bloodline": [["Verdant", 8]]
    },
    "level": 7,
    "school": "trs",
    "components": {
      "verbal": true
    },
    "sr": false,
    "shortDescription": "<p>You imbue inanimate plants with mobility and a semblance of life. Each animated plant then immediately attacks whomever or whatever you initially designate as though it were an animated object of the appropriate size category. You may animate one Large or smaller plant, or a number of larger plants as follows: a Huge plant counts as two Large or smaller plants, a Gargantuan plant as four, and a Colossal plant as eight. You can change the designated target or targets as a move action, as if directing an active spell.</p><p>Use the statistics for animated objects (see <i>Pathfinder RPG</i> Bestiary), except that plants smaller than Large don't have hardness.</p><p><i>Animate plants</i> cannot affect plant creatures, nor does it affect nonliving vegetable material.</p><p><i>Entangle</i>: Alternatively, you may imbue all plants within range with a degree of mobility, which allows them to entwine around creatures in the area. This usage of the spell duplicates the effect of an <i>entangle</i> spell. Spell resistance does not keep creatures from being <i>entangle</i>d. This effect lasts 1 hour per caster level.</p>"
  }
}
