{
  "_id": "p856jzzwg1rm6s0o",
  "name": "Counterbalancing Aura",
  "type": "spell",
  "img": "systems/pf1/icons/misc/magic-swirl.png",
  "sort": 0,
  "flags": {},
  "system": {
    "tags": [],
    "actions": [
      {
        "_id": "trxnlpp8q6c5gmn4",
        "name": "Use",
        "img": "systems/pf1/icons/misc/magic-swirl.png",
        "description": "",
        "tag": "",
        "activation": {
          "cost": 1,
          "type": "standard"
        },
        "unchainedAction": {
          "activation": {
            "cost": 2,
            "type": "action"
          }
        },
        "duration": {
          "value": "1 round/level",
          "units": ""
        },
        "target": {
          "value": "one creature/level in a 20-ft.-radius burst centered on you"
        },
        "range": {
          "value": "20",
          "units": "ft",
          "maxIncrements": 1,
          "minValue": null,
          "minUnits": ""
        },
        "uses": {
          "autoDeductChargesCost": "",
          "self": {
            "value": 0,
            "maxFormula": "",
            "per": null
          },
          "per": "",
          "value": 0,
          "maxFormula": ""
        },
        "measureTemplate": {
          "type": "",
          "size": "0",
          "overrideColor": false,
          "customColor": "",
          "overrideTexture": false,
          "customTexture": ""
        },
        "attackName": "",
        "actionType": "spellsave",
        "attackBonus": "",
        "critConfirmBonus": "",
        "damage": {
          "parts": [],
          "critParts": [],
          "nonCritParts": []
        },
        "attackParts": [],
        "formulaicAttacks": {
          "count": {
            "formula": ""
          },
          "bonus": {
            "formula": ""
          },
          "label": null
        },
        "formula": "",
        "ability": {
          "attack": "",
          "damage": "",
          "damageMult": 1,
          "critRange": 20,
          "critMult": 2
        },
        "save": {
          "dc": "0",
          "type": "",
          "description": "see text"
        },
        "effectNotes": [],
        "attackNotes": [],
        "soundEffect": "",
        "powerAttack": {
          "multiplier": "",
          "damageBonus": 2,
          "critMultiplier": 1
        },
        "naturalAttack": {
          "primaryAttack": true,
          "secondary": {
            "attackBonus": "-5",
            "damageMult": 0.5
          }
        },
        "nonlethal": false,
        "usesAmmo": false,
        "spellEffect": "",
        "spellArea": "",
        "conditionals": [],
        "enh": {
          "value": null
        }
      }
    ],
    "uses": {
      "per": ""
    },
    "attackNotes": [],
    "effectNotes": [],
    "links": {
      "children": []
    },
    "scriptCalls": [],
    "learnedAt": {
      "class": [["cleric/oracle", 8]],
      "domain": [],
      "subDomain": [],
      "elementalSchool": [],
      "bloodline": []
    },
    "level": 8,
    "school": "abj",
    "components": {
      "verbal": true,
      "somatic": true,
      "focus": true
    },
    "materials": {
      "focus": "a set of scales worth 500 gp"
    },
    "shortDescription": "<p>An oscillating bronze glow surrounds the targets, protecting them from attacks, granting them resistance to spells cast by neutral creatures, and sickening or nauseating neutral creatures that strike the targets. This abjuration has four effects.  First, each warded creature gains a +4 deflection bonus to AC and a +4 resistance bonus on saving throws. This benefit applies against all attacks and effects, not just attacks by neutral creatures.  Second, a warded creature gains spell resistance 23 against spells cast by chaotic neutral, lawful neutral, neutral evil, and neutral good creatures, and spell resistance 27 against spells cast by neutral creatures with no other alignment components.  Third, the spell protects warded creatures from possession and influence by such creatures (otherwise as <i>protection from</i> evil).  Finally, if a chaotic neutral, lawful neutral, neutral evil, or neutral good creature successfully hits a warded creature with a melee attack, the attacker is sickened for 1d6 rounds (Fortitude negates). If a neutral creature successfully hits a warded creature with a melee attack, the attacker is instead nauseated for 1d6 rounds (Fortitude negates).</p>"
  }
}
