{
  "name": "Forced Mutation",
  "type": "spell",
  "img": "systems/pf1/icons/misc/magic-swirl.png",
  "system": {
    "tags": [],
    "actions": [
      {
        "_id": "CbDC1iwoO5g4eNSy",
        "name": "Use",
        "img": "systems/pf1/icons/misc/magic-swirl.png",
        "description": "",
        "tag": "",
        "activation": {
          "cost": 1,
          "type": "standard"
        },
        "unchainedAction": {
          "activation": {
            "cost": 2,
            "type": "action"
          }
        },
        "duration": {
          "value": "1 round/level",
          "units": ""
        },
        "target": {
          "value": "living creature touched"
        },
        "range": {
          "value": null,
          "units": "touch",
          "maxIncrements": 1,
          "minValue": null,
          "minUnits": ""
        },
        "uses": {
          "autoDeductChargesCost": "",
          "self": {
            "value": 0,
            "maxFormula": "",
            "per": ""
          }
        },
        "measureTemplate": {
          "type": "",
          "size": "",
          "overrideColor": false,
          "customColor": "",
          "overrideTexture": false,
          "customTexture": ""
        },
        "attackName": "",
        "actionType": "msak",
        "attackBonus": "",
        "critConfirmBonus": "",
        "damage": {
          "parts": [],
          "critParts": [],
          "nonCritParts": []
        },
        "attackParts": [],
        "formulaicAttacks": {
          "count": {
            "formula": ""
          },
          "bonus": {
            "formula": ""
          },
          "label": ""
        },
        "formula": "",
        "ability": {
          "attack": "",
          "damage": "",
          "damageMult": 1,
          "critRange": 20,
          "critMult": 2
        },
        "save": {
          "dc": "",
          "type": "fort",
          "description": "Fortitude negates"
        },
        "effectNotes": [],
        "attackNotes": [],
        "soundEffect": "",
        "powerAttack": {
          "multiplier": null,
          "damageBonus": 2,
          "critMultiplier": 1
        },
        "naturalAttack": {
          "primaryAttack": true,
          "secondary": {
            "attackBonus": "-5",
            "damageMult": 0.5
          }
        },
        "nonlethal": false,
        "touch": true,
        "usesAmmo": false,
        "spellEffect": "",
        "spellArea": "",
        "conditionals": [],
        "enh": {
          "value": null
        }
      }
    ],
    "uses": {
      "autoDeductChargesCost": ""
    },
    "attackNotes": [],
    "effectNotes": [],
    "links": {
      "children": []
    },
    "scriptCalls": [],
    "learnedAt": {
      "class": [
        ["arcanist", 3],
        ["cleric", 3],
        ["inquisitor", 3],
        ["magus", 3],
        ["occultist", 3],
        ["oracle", 3],
        ["sorcerer", 3],
        ["warpriest", 3],
        ["witch", 3],
        ["wizard", 3]
      ],
      "domain": [],
      "subDomain": [],
      "elementalSchool": [],
      "bloodline": []
    },
    "level": 3,
    "school": "trs",
    "components": {
      "verbal": true,
      "somatic": true,
      "material": true
    },
    "materials": {
      "value": "a small piece of radioactive clay"
    },
    "spellbook": "",
    "shortDescription": "<p>The body of the target creature twists and distorts, reshaping into a grotesque figure. Because of the disfigurement, the creature takes a –4 penalty to Constitution and Charisma. The creature also receives one of the following deformities (your choice) from the list in the mutant acquired template: blind, deaf, fragile, fractured mind, lame, poor ability (applied to your choice of Strength, Dexterity, Intelligence, or Wisdom), spasms, and useless arm. The deformity is subject to all limitations described in the @Compendium[pf1.monster-templates.4pbHKe1aYEcjBEs4]{mutant} template (for example, this spell cannot impose the lame deformity on a creature with a base speed slower than 20 feet).</p>"
  },
  "flags": {},
  "sort": 0,
  "_id": "B8KNC8vi2LZdlQHl"
}
