{
  "_id": "pa6mgkl4caihdrhm",
  "name": "Giant Vermin",
  "type": "spell",
  "img": "systems/pf1/icons/misc/magic-swirl.png",
  "sort": 0,
  "flags": {},
  "system": {
    "tags": [],
    "actions": [
      {
        "_id": "v5kdgbnqgxlp9qz3",
        "name": "Use",
        "img": "systems/pf1/icons/misc/magic-swirl.png",
        "description": "",
        "tag": "",
        "activation": {
          "cost": 1,
          "type": "standard"
        },
        "unchainedAction": {
          "activation": {
            "cost": 2,
            "type": "action"
          }
        },
        "duration": {
          "value": "1 min./level",
          "units": ""
        },
        "target": {
          "value": "1 or more vermin, no two of which can be more than 30 ft. apart"
        },
        "range": {
          "value": null,
          "units": "close",
          "maxIncrements": 1,
          "minValue": null,
          "minUnits": ""
        },
        "uses": {
          "autoDeductChargesCost": "",
          "self": {
            "value": 0,
            "maxFormula": "",
            "per": null
          },
          "per": "",
          "value": 0,
          "maxFormula": ""
        },
        "measureTemplate": {
          "type": "",
          "size": "0",
          "overrideColor": false,
          "customColor": "",
          "overrideTexture": false,
          "customTexture": ""
        },
        "attackName": "",
        "actionType": "",
        "attackBonus": "",
        "critConfirmBonus": "",
        "damage": {
          "parts": [],
          "critParts": [],
          "nonCritParts": []
        },
        "attackParts": [],
        "formulaicAttacks": {
          "count": {
            "formula": ""
          },
          "bonus": {
            "formula": ""
          },
          "label": null
        },
        "formula": "",
        "ability": {
          "attack": "",
          "damage": "",
          "damageMult": 1,
          "critRange": 20,
          "critMult": 2
        },
        "save": {
          "dc": "0",
          "type": "",
          "description": ""
        },
        "effectNotes": [],
        "attackNotes": [],
        "soundEffect": "",
        "powerAttack": {
          "multiplier": "",
          "damageBonus": 2,
          "critMultiplier": 1
        },
        "naturalAttack": {
          "primaryAttack": true,
          "secondary": {
            "attackBonus": "-5",
            "damageMult": 0.5
          }
        },
        "nonlethal": false,
        "usesAmmo": false,
        "spellEffect": "",
        "spellArea": "",
        "conditionals": [],
        "enh": {
          "value": null
        }
      }
    ],
    "uses": {
      "per": ""
    },
    "attackNotes": [],
    "effectNotes": [],
    "links": {
      "children": []
    },
    "scriptCalls": [],
    "learnedAt": {
      "class": [
        ["cleric/oracle", 4],
        ["druid", 4],
        ["shaman", 4],
        ["hunter", 4]
      ],
      "domain": [],
      "subDomain": [],
      "elementalSchool": [],
      "bloodline": []
    },
    "level": 4,
    "school": "trs",
    "components": {
      "verbal": true,
      "somatic": true,
      "divineFocus": 1
    },
    "shortDescription": "<p>You turn a number of normal-sized centipedes, scorpions, or spiders into their giant counterparts (see the <i>Pathfinder RPG Bestiary</i>). Only one type of vermin can be transmuted (so a single casting cannot affect both a centipede and a spider). The number of vermin which can be affected by this spell depends on your caster level, as noted on the table below.</p><p>Giant vermin created by this spell do not attempt to harm you, but your control of such creatures is limited to simple commands (\"Attack,\" \"Defend,\" \"Stop,\" and so forth). Orders to attack a certain creature when it appears or guard against a particular occurrence are too complex for the vermin to understand. Unless commanded to do otherwise, the giant vermin attack whomever or whatever is near them.</p><p><table><tr><th>Caster Level</th><th>Centipedes</th><th>Scorpions</th><th>Spiders</th></tr><tr><td>9th or lower</td><td>3</td><td>1</td><td>2</td></tr><tr><td>10th-13th</td><td>4</td><td>2</td><td>3</td></tr><tr><td>14th-17th</td><td>6</td><td>3</td><td>4</td></tr><tr><td>18th-19th</td><td>8</td><td>4</td><td>5</td></tr><tr><td>20th or higher</td><td>12</td><td>6</td><td>8</td></tr></table></p>"
  }
}
