{
  "_id": "ew8hm1fndppz1ezx",
  "name": "Harrowing, Greater",
  "type": "spell",
  "img": "systems/pf1/icons/misc/magic-swirl.png",
  "sort": 0,
  "flags": {},
  "system": {
    "tags": [],
    "actions": [
      {
        "_id": "cafq9w59wpltwiaj",
        "name": "Use",
        "img": "systems/pf1/icons/misc/magic-swirl.png",
        "description": "",
        "tag": "",
        "activation": {
          "cost": 10,
          "type": "minute"
        },
        "unchainedAction": {
          "activation": {
            "cost": 10,
            "type": "minute"
          }
        },
        "duration": {
          "value": "1 day/level or until fulfilled",
          "units": ""
        },
        "target": {
          "value": "one creature, plus one additional creature for every 3  caster levels"
        },
        "range": {
          "value": null,
          "units": "touch",
          "maxIncrements": 1,
          "minValue": null,
          "minUnits": ""
        },
        "uses": {
          "autoDeductChargesCost": "",
          "self": {
            "value": 0,
            "maxFormula": "",
            "per": null
          },
          "per": "",
          "value": 0,
          "maxFormula": ""
        },
        "measureTemplate": {
          "type": "",
          "size": "0",
          "overrideColor": false,
          "customColor": "",
          "overrideTexture": false,
          "customTexture": ""
        },
        "attackName": "",
        "actionType": "",
        "attackBonus": "",
        "critConfirmBonus": "",
        "damage": {
          "parts": [],
          "critParts": [],
          "nonCritParts": []
        },
        "attackParts": [],
        "formulaicAttacks": {
          "count": {
            "formula": ""
          },
          "bonus": {
            "formula": ""
          },
          "label": null
        },
        "formula": "",
        "ability": {
          "attack": "",
          "damage": "",
          "damageMult": 1,
          "critRange": 20,
          "critMult": 2
        },
        "save": {
          "dc": "0",
          "type": "",
          "description": ""
        },
        "effectNotes": [],
        "attackNotes": [],
        "soundEffect": "",
        "powerAttack": {
          "multiplier": "",
          "damageBonus": 2,
          "critMultiplier": 1
        },
        "naturalAttack": {
          "primaryAttack": true,
          "secondary": {
            "attackBonus": "-5",
            "damageMult": 0.5
          }
        },
        "nonlethal": false,
        "usesAmmo": false,
        "spellEffect": "",
        "spellArea": "",
        "conditionals": [],
        "enh": {
          "value": null
        }
      }
    ],
    "uses": {
      "per": ""
    },
    "attackNotes": [],
    "effectNotes": [],
    "links": {
      "children": []
    },
    "scriptCalls": [],
    "learnedAt": {
      "class": [
        ["sorcerer/wizard", 6],
        ["bard", 5],
        ["witch", 6]
      ],
      "domain": [],
      "subDomain": [],
      "elementalSchool": [],
      "bloodline": [["Harrow", 7]]
    },
    "level": 6,
    "school": "div",
    "components": {
      "verbal": true,
      "somatic": true,
      "focus": true
    },
    "materials": {
      "focus": "a harrow deck"
    },
    "spellbook": "",
    "sr": false,
    "shortDescription": "<p>This spell functions as @Compendium[pf1.spells.hpdynlxhfnop2wm4]{Harrowing}, except it can affect an entire group of creatures and allows its subjects some measure of control over their destiny. Subjects of a greater <em>harrowing</em> spell record and spend their accumulated bonuses and penalties individually, according to their own alignment.</p>\n<p>Each participant in a greater <em>harrowing</em> can gain a special ability to seize control of fate if a card that matches that participant's alignment is drawn. Like the bonuses and penalties granted by the spell, the special ability can be used once before the end of the spell's duration. The exact ability gained depends on the card's suit; if multiple cards that match a participant's alignment are drawn, the participant can select one suit of her choice during the spell's casting.</p>\n<p><em>Hammers</em>: As a standard action, you can grant yourself a +4 enhancement bonus to Strength for 1 minute. While this bonus persists, you can reroll any bull rush, grapple, or sunder combat maneuver checks. You must use the result of this second roll, even if it is worse.</p>\n<p><em>Keys</em>: As a standard action, you can grant yourself a +4 enhancement bonus to Dexterity for 1 minute. While this bonus persists, you gain evasion, as the rogue class feature. If you already possess evasion, you instead gain improved evasion, as the advanced rogue talent.</p>\n<p><em>Shields</em>: As a standard action, you can grant yourself a +4 enhancement bonus to Constitution for 1 minute. While this bonus persists, you gain fast healing 1 and don't die until you reach a number of negative hit points equal to double your Constitution.</p>\n<p><em>Books</em>: As a standard action, you can grant yourself a +4 enhancement bonus to Intelligence for 1 minute. While this bonus persists, you gain a +3 enhancement bonus on checks with all skills you have no ranks in, and you can use those skills even if they can't normally be used untrained.</p>\n<p><em>Stars</em>: As a standard action, you can grant yourself a +4 enhancement bonus to Wisdom for 1 minute. While this bonus persists, you gain immunity to one of the following (your choice): charm and compulsion effects, curse effects, or fear effects.</p>\n<p><em>Crowns</em>: As a standard action, you can grant yourself a +4 enhancement bonus to Charisma for 1 minute. While this bonus persists, whenever you succeed at a Diplomacy or Intimidate check to improve a nonhostile creature's attitude toward you, that creature's attitude toward you becomes helpful for the remaining duration of the Charisma bonus, regardless of the number of steps by which you would normally improve its attitude. The creature reverts to its original attitude after the duration expires.</p>\n<p>A single creature can be under the effects of only one <em>harrowing</em> or greater <em>harrowing</em> at a time. If the subject is targeted with a second <em>harrowing</em> or greater <em>harrowing</em> spell while a previous <em>harrowing</em> or greater <em>harrowing</em> is s till a ffecting him, the new spell automatically fails for that subject.</p>"
  }
}
