{
  "_id": "0mvIMzqn99fgLnw7",
  "name": "Hurricane Blast",
  "type": "spell",
  "img": "icons/magic/air/air-burst-spiral-large-blue.webp",
  "sort": 0,
  "flags": {},
  "system": {
    "tags": [],
    "actions": [
      {
        "_id": "u39zpdhepiwcxi7r",
        "name": "Use",
        "img": "systems/pf1/icons/misc/magic-swirl.png",
        "description": "",
        "tag": "",
        "activation": {
          "cost": 1,
          "type": "standard"
        },
        "unchainedAction": {
          "activation": {
            "cost": 2,
            "type": "action"
          }
        },
        "duration": {
          "value": "1 round",
          "units": ""
        },
        "target": {
          "value": "you"
        },
        "range": {
          "value": null,
          "units": "personal",
          "maxIncrements": 1,
          "minValue": null,
          "minUnits": ""
        },
        "uses": {
          "autoDeductChargesCost": "",
          "self": {
            "value": 0,
            "maxFormula": "",
            "per": null
          },
          "per": "",
          "value": 0,
          "maxFormula": ""
        },
        "measureTemplate": {
          "type": "",
          "size": "0",
          "overrideColor": false,
          "customColor": "",
          "overrideTexture": false,
          "customTexture": ""
        },
        "attackName": "",
        "actionType": "spellsave",
        "attackBonus": "",
        "critConfirmBonus": "",
        "damage": {
          "parts": [],
          "critParts": [],
          "nonCritParts": []
        },
        "attackParts": [],
        "formulaicAttacks": {
          "count": {
            "formula": ""
          },
          "bonus": {
            "formula": ""
          },
          "label": null
        },
        "formula": "",
        "ability": {
          "attack": "",
          "damage": "",
          "damageMult": 1,
          "critRange": 20,
          "critMult": 2
        },
        "save": {
          "dc": "0",
          "type": "will",
          "description": "Will negates (harmless, object)"
        },
        "effectNotes": [],
        "attackNotes": [],
        "soundEffect": "",
        "powerAttack": {
          "multiplier": "",
          "damageBonus": 2,
          "critMultiplier": 1
        },
        "naturalAttack": {
          "primaryAttack": true,
          "secondary": {
            "attackBonus": "-5",
            "damageMult": 0.5
          }
        },
        "nonlethal": false,
        "usesAmmo": false,
        "spellEffect": "",
        "spellArea": "5-ft.-radius burst/2 levels (maximum 25-ft.-radius burst)",
        "conditionals": [],
        "enh": {
          "value": null
        }
      }
    ],
    "attackNotes": [],
    "effectNotes": [],
    "links": {
      "children": []
    },
    "scriptCalls": [],
    "learnedAt": {
      "class": [
        ["arcanist", 4],
        ["druid", 3],
        ["hunter", 3],
        ["sorcerer/wizard", 4]
      ],
      "domain": [],
      "subDomain": [],
      "elementalSchool": [],
      "bloodline": []
    },
    "level": 4,
    "school": "evo",
    "types": "air",
    "components": {
      "verbal": true,
      "somatic": true
    },
    "spellbook": "",
    "sr": false,
    "shortDescription": "<p>This spell creates a severe blast of air (approximately 50 mph) that originates from you, affecting all creatures in the burst.</p>\n<p>A Tiny or smaller creature on the ground is knocked down and rolled 1d4×10 feet, taking 1d4 points of nonlethal damage per 10 feet. If flying, a Tiny or smaller creature is blown back 2d6×10 feet and takes 2d6 points of nonlethal damage due to battering and buffeting.</p>\n<p>Small creatures are knocked prone by the force of the wind, or if flying are blown back 1d6×10 feet.</p>\n<p>Medium creatures are unable to move forward against the force of the wind, or if flying are blown back 1d6×5 feet.</p>\n<p>Large or larger creatures may move normally within a hurricane blast effect.<br></p>\n<p><em>Hurricane blast</em> can't move a creature beyond the limit of its range. Any creature, regardless of size, takes a -4 penalty on ranged attacks and Listen checks in the area of a <em>hurricane blast</em>. The force of the gust automatically extinguishes candles, torches, and similar unprotected flames. It causes protected flames, such as those of lanterns, to dance wildly and has a 50% chance to extinguish those lights.</p>\n<p>In addition to the effects noted, a hurricane blast can do anything that a sudden blast of wind would be expected to do. It can create a stinging spray of sand or dust, fan a large fire, overturn delicate awnings or hangings, and blow gases or vapors to the edge of its range.</p>"
  }
}
