{
  "_id": "b8lt1275mz4ez4d8",
  "name": "Major Creation",
  "type": "spell",
  "img": "systems/pf1/icons/misc/magic-swirl.png",
  "sort": 0,
  "flags": {},
  "system": {
    "tags": [],
    "actions": [
      {
        "_id": "7vuqvqzm1eh84e5f",
        "name": "Use",
        "img": "systems/pf1/icons/misc/magic-swirl.png",
        "description": "",
        "tag": "",
        "activation": {
          "cost": 10,
          "type": "minute"
        },
        "unchainedAction": {
          "activation": {
            "cost": 10,
            "type": "minute"
          }
        },
        "duration": {
          "value": "see text",
          "units": ""
        },
        "target": {
          "value": ""
        },
        "range": {
          "value": null,
          "units": "close",
          "maxIncrements": 1,
          "minValue": null,
          "minUnits": ""
        },
        "uses": {
          "autoDeductChargesCost": "",
          "self": {
            "value": 0,
            "maxFormula": "",
            "per": null
          },
          "per": "",
          "value": 0,
          "maxFormula": ""
        },
        "measureTemplate": {
          "type": "",
          "size": "0",
          "overrideColor": false,
          "customColor": "",
          "overrideTexture": false,
          "customTexture": ""
        },
        "attackName": "",
        "actionType": "other",
        "attackBonus": "",
        "critConfirmBonus": "",
        "damage": {
          "parts": [],
          "critParts": [],
          "nonCritParts": []
        },
        "attackParts": [],
        "formulaicAttacks": {
          "count": {
            "formula": ""
          },
          "bonus": {
            "formula": ""
          },
          "label": null
        },
        "formula": "",
        "ability": {
          "attack": "",
          "damage": "",
          "damageMult": 1,
          "critRange": 20,
          "critMult": 2
        },
        "save": {
          "dc": "0",
          "type": "",
          "description": ""
        },
        "effectNotes": [],
        "attackNotes": [],
        "soundEffect": "",
        "powerAttack": {
          "multiplier": "",
          "damageBonus": 2,
          "critMultiplier": 1
        },
        "naturalAttack": {
          "primaryAttack": true,
          "secondary": {
            "attackBonus": "-5",
            "damageMult": 0.5
          }
        },
        "nonlethal": false,
        "usesAmmo": false,
        "spellEffect": "unattended, nonmagical object of nonliving plant matter, up to 1 cu. ft./level",
        "spellArea": "",
        "conditionals": [],
        "enh": {
          "value": null
        }
      }
    ],
    "uses": {
      "per": ""
    },
    "attackNotes": [],
    "effectNotes": [],
    "links": {
      "children": []
    },
    "scriptCalls": [],
    "learnedAt": {
      "class": [
        ["sorcerer/wizard", 5],
        ["summoner", 4],
        ["witch", 5],
        ["adept", 5],
        ["psychic", 5],
        ["occultist", 4],
        ["unchained Summoner", 4]
      ],
      "domain": [["Artifice", 6]],
      "subDomain": [["Flotsam", 5]],
      "elementalSchool": [],
      "bloodline": [["Protean", 5]]
    },
    "level": 5,
    "school": "con",
    "subschool": "creation",
    "components": {
      "verbal": true,
      "somatic": true,
      "material": true
    },
    "materials": {
      "value": "a tiny piece of matter of the same sort of item you plan to create with minor creation"
    },
    "sr": false,
    "shortDescription": "<p>This spell functions like <i>minor creation,</i> except that you can also create an object of mineral nature: stone, crystal, metal, or the like. The duration of the created item varies with its relative hardness and rarity, as indicated on the following table.</p><p><table><tr><th>Hardness and Rarity Examples</th><th>Duration</th></tr><tr><td>Vegetable matter</td><td>2 hr./level</td></tr><tr><td>Stone, crystal, base metals</td><td>1 hr./level</td></tr><tr><td>Precious metals</td><td>20 min./level</td></tr><tr><td>Gems</td><td>10 min./level</td></tr><tr><td>Rare metal*</td><td>1 round/level</td></tr><tr><td colspan=\"2\">*Includes adamantine, alchemical silver, and mithral. You can't use major creation to create a cold iron item.</td></tr></table></p>"
  }
}
