{
  "name": "Rising Water",
  "type": "spell",
  "img": "systems/pf1/icons/misc/magic-swirl.png",
  "system": {
    "tags": [],
    "actions": [
      {
        "_id": "di2R4BLNas41AahC",
        "name": "Use",
        "img": "systems/pf1/icons/misc/magic-swirl.png",
        "description": "",
        "tag": "",
        "activation": {
          "cost": 1,
          "type": "standard"
        },
        "unchainedAction": {
          "activation": {
            "cost": 2,
            "type": "action"
          }
        },
        "duration": {
          "value": "1 round/level (D)",
          "units": ""
        },
        "target": {
          "value": ""
        },
        "range": {
          "value": null,
          "units": "medium",
          "maxIncrements": 1,
          "minValue": null,
          "minUnits": ""
        },
        "uses": {
          "autoDeductChargesCost": "",
          "self": {
            "value": 0,
            "maxFormula": "",
            "per": ""
          }
        },
        "measureTemplate": {
          "type": "",
          "size": "",
          "overrideColor": false,
          "customColor": "",
          "overrideTexture": false,
          "customTexture": ""
        },
        "attackName": "",
        "actionType": "",
        "attackBonus": "",
        "critConfirmBonus": "",
        "damage": {
          "parts": [],
          "critParts": [],
          "nonCritParts": []
        },
        "attackParts": [],
        "formulaicAttacks": {
          "count": {
            "formula": ""
          },
          "bonus": {
            "formula": ""
          },
          "label": null
        },
        "formula": "",
        "ability": {
          "attack": null,
          "damage": null,
          "damageMult": 1,
          "critRange": 20,
          "critMult": 2
        },
        "save": {
          "dc": "",
          "type": "",
          "description": ""
        },
        "effectNotes": [],
        "attackNotes": [],
        "soundEffect": "",
        "powerAttack": {
          "multiplier": null,
          "damageBonus": 2,
          "critMultiplier": 1
        },
        "naturalAttack": {
          "primaryAttack": true,
          "secondary": {
            "attackBonus": "-5",
            "damageMult": 0.5
          }
        },
        "nonlethal": false,
        "touch": false,
        "usesAmmo": false,
        "spellEffect": "",
        "spellArea": "cylinder (20-ft. radius, 10 ft. high)",
        "conditionals": [],
        "enh": {
          "value": null
        }
      }
    ],
    "uses": {
      "autoDeductChargesCost": ""
    },
    "attackNotes": [],
    "effectNotes": [],
    "links": {
      "children": []
    },
    "scriptCalls": [],
    "learnedAt": {
      "class": [
        ["arcanist", 4],
        ["bloodrager", 3],
        ["druid", 4],
        ["hunter", 3],
        ["magus", 4],
        ["occultist", 4],
        ["psychic", 4],
        ["ranger", 3],
        ["shaman", 4],
        ["sorcerer", 4],
        ["summoner", 4],
        ["summoner (unchained)", 4],
        ["wizard", 4]
      ],
      "domain": [],
      "subDomain": [],
      "elementalSchool": [],
      "bloodline": []
    },
    "level": 4,
    "school": "con",
    "types": "water",
    "components": {
      "verbal": true,
      "somatic": true,
      "material": true
    },
    "materials": {
      "value": "a lily pad"
    },
    "spellbook": "",
    "sr": false,
    "shortDescription": "<p>You conjure a cylinder of calm water on an area of solid ground or on top of a body of water. The water forms quickly but displaces only air; it doesn’t push away objects or creatures, though anything in the area when the spell is cast is submerged. Unconscious air-breathing creatures caught in the area immediately begin to drown, but other air-breathing creatures can hold their breath while in the cylinder. Movement through the cylinder at normal speed requires a successful DC 10 Swim check (otherwise, creatures move at one-quarter speed). If conjured in an area with insufficient room for the entire cylinder, the cylinder attains its maximum possible size. It retains its shape in defiance of gravity for the spell’s duration, and any creature can enter or exit the cylinder’s sides as easily as stepping into or out of a pool of ordinary water. The water disappears at the end of the spell’s duration, so creatures swimming in the water immediately fall to the ground.</p>"
  },
  "flags": {},
  "sort": 0,
  "_id": "UBp9cManySiQEhQD"
}
