{
  "name": "Rope Tornado",
  "type": "spell",
  "img": "icons/magic/air/wind-tornado-cyclone-white.webp",
  "system": {
    "tags": [],
    "actions": [
      {
        "_id": "YKRgmFj8XrhqUjOL",
        "name": "Use",
        "img": "icons/magic/air/wind-tornado-cyclone-white.webp",
        "description": "",
        "tag": "",
        "activation": {
          "cost": 1,
          "type": "standard"
        },
        "unchainedAction": {
          "activation": {
            "cost": 2,
            "type": "action"
          }
        },
        "duration": {
          "value": "instantaneous",
          "units": ""
        },
        "target": {
          "value": ""
        },
        "range": {
          "value": "120",
          "units": "ft",
          "maxIncrements": 1,
          "minValue": null,
          "minUnits": ""
        },
        "uses": {
          "autoDeductChargesCost": "",
          "self": {
            "value": 0,
            "maxFormula": "",
            "per": ""
          }
        },
        "measureTemplate": {
          "type": "ray",
          "size": "120",
          "overrideColor": false,
          "customColor": "",
          "overrideTexture": false,
          "customTexture": ""
        },
        "attackName": "",
        "actionType": "spellsave",
        "attackBonus": "",
        "critConfirmBonus": "",
        "damage": {
          "parts": [],
          "critParts": [],
          "nonCritParts": []
        },
        "attackParts": [],
        "formulaicAttacks": {
          "count": {
            "formula": ""
          },
          "bonus": {
            "formula": ""
          },
          "label": null
        },
        "formula": "",
        "ability": {
          "attack": null,
          "damage": "",
          "damageMult": 1,
          "critRange": 20,
          "critMult": 2
        },
        "save": {
          "dc": "",
          "type": "ref",
          "description": "Reflex negates"
        },
        "effectNotes": [],
        "attackNotes": [],
        "soundEffect": "",
        "powerAttack": {
          "multiplier": null,
          "damageBonus": 2,
          "critMultiplier": 1
        },
        "naturalAttack": {
          "primaryAttack": true,
          "secondary": {
            "attackBonus": "-5",
            "damageMult": 0.5
          }
        },
        "nonlethal": false,
        "touch": false,
        "usesAmmo": false,
        "spellEffect": "",
        "spellArea": "120 ft. line",
        "conditionals": [],
        "enh": {
          "value": null
        }
      }
    ],
    "uses": {
      "autoDeductChargesCost": ""
    },
    "attackNotes": [],
    "effectNotes": [],
    "links": {
      "children": []
    },
    "scriptCalls": [],
    "learnedAt": {
      "class": [
        ["arcanist", 4],
        ["druid", 4],
        ["hunter", 4],
        ["magus", 4],
        ["occultist", 4],
        ["shaman", 4],
        ["sorcerer", 4],
        ["witch", 4],
        ["wizard", 4]
      ],
      "domain": [],
      "subDomain": [],
      "elementalSchool": [],
      "bloodline": []
    },
    "level": 4,
    "school": "evo",
    "types": "air",
    "components": {
      "verbal": true,
      "somatic": true,
      "material": true
    },
    "materials": {
      "value": "a length of twine"
    },
    "spellbook": "",
    "shortDescription": "<p>A spiraling twister of tornado-force wind surges forth from your palm, unbalancing those it rushes over. Creatures on the ground within the area are knocked prone. A flying creature within the spell’s area must instead succeed at a DC 25 @UUID[Compendium.pf1.pf1e-rules.x175kVqUfLGPt8tC.JournalEntryPage.iH69GIwm8BjecrPN]{Fly} check or plummet to the ground, taking the appropriate amount of falling damage. Creatures that are Huge or larger in size gain a +2 bonus on their Reflex saves, while creatures that are Medium or smaller in size take a –2 penalty.</p><p>Additionally, the area is subjected to tornado-force winds, extinguishing all nonmagical flames, dispersing clouds, and scattering unattended objects.</p>"
  },
  "flags": {},
  "sort": 0,
  "_id": "6cEWqLm3QYhtWNxK"
}
