{
  "_id": "d6lfhyonb3ewpjt4",
  "name": "Secret Chest",
  "type": "spell",
  "img": "systems/pf1/icons/misc/magic-swirl.png",
  "sort": 0,
  "flags": {},
  "system": {
    "tags": [],
    "actions": [
      {
        "_id": "yboplbx7hhepvgxu",
        "name": "Use",
        "img": "systems/pf1/icons/misc/magic-swirl.png",
        "description": "",
        "tag": "",
        "activation": {
          "cost": 10,
          "type": "minute"
        },
        "unchainedAction": {
          "activation": {
            "cost": 10,
            "type": "minute"
          }
        },
        "duration": {
          "value": "60 days or until discharged",
          "units": ""
        },
        "target": {
          "value": "one chest and up to 1 cu. ft. of goods/caster level"
        },
        "range": {
          "value": null,
          "units": "",
          "maxIncrements": 1,
          "minValue": null,
          "minUnits": ""
        },
        "uses": {
          "autoDeductChargesCost": "",
          "self": {
            "value": 0,
            "maxFormula": "",
            "per": null
          },
          "per": "",
          "value": 0,
          "maxFormula": ""
        },
        "measureTemplate": {
          "type": "",
          "size": "0",
          "overrideColor": false,
          "customColor": "",
          "overrideTexture": false,
          "customTexture": ""
        },
        "attackName": "",
        "actionType": "",
        "attackBonus": "",
        "critConfirmBonus": "",
        "damage": {
          "parts": [],
          "critParts": [],
          "nonCritParts": []
        },
        "attackParts": [],
        "formulaicAttacks": {
          "count": {
            "formula": ""
          },
          "bonus": {
            "formula": ""
          },
          "label": null
        },
        "formula": "",
        "ability": {
          "attack": "",
          "damage": "",
          "damageMult": 1,
          "critRange": 20,
          "critMult": 2
        },
        "save": {
          "dc": "0",
          "type": "",
          "description": ""
        },
        "effectNotes": [],
        "attackNotes": [],
        "soundEffect": "",
        "powerAttack": {
          "multiplier": "",
          "damageBonus": 2,
          "critMultiplier": 1
        },
        "naturalAttack": {
          "primaryAttack": true,
          "secondary": {
            "attackBonus": "-5",
            "damageMult": 0.5
          }
        },
        "nonlethal": false,
        "usesAmmo": false,
        "spellEffect": "",
        "spellArea": "",
        "conditionals": [],
        "enh": {
          "value": null
        }
      }
    ],
    "uses": {
      "per": ""
    },
    "attackNotes": [],
    "effectNotes": [],
    "links": {
      "children": []
    },
    "scriptCalls": [],
    "learnedAt": {
      "class": [
        ["sorcerer/wizard", 5],
        ["witch", 5],
        ["psychic", 5],
        ["mesmerist", 5],
        ["occultist", 5],
        ["spiritualist", 5]
      ],
      "domain": [],
      "subDomain": [],
      "elementalSchool": [],
      "bloodline": []
    },
    "level": 5,
    "school": "con",
    "subschool": "summoning",
    "components": {
      "verbal": true,
      "somatic": true,
      "focus": true
    },
    "materials": {
      "focus": "the chest and its replica"
    },
    "sr": false,
    "shortDescription": "<p>You hide a chest on the Ethereal Plane for as long as 60 days and can retrieve it at will. The chest can contain up to 1 cubic foot of material per caster level (regardless of the chest's actual size, which is about 3 feet by 2 feet by 2 feet). If any living creatures are in the chest, there is a 75% chance that the spell simply fails.</p><p>Once the chest is hidden, you can retrieve it by concentrating (a standard action), and it appears next to you.</p><p>The chest must be exceptionally well crafted and expensive, constructed for you by master crafters. The cost of such a chest is never less than 5,000 gp. Once it is constructed, you must make a tiny replica (of the same materials and perfect in every detail) so that the miniature of the chest appears to be a perfect copy. (The replica costs 50 gp.) The chests are nonmagical and can be fitted with locks, wards, and so on, just as any normal chest can be.</p><p>To hide the chest, you cast the spell while touching both the chest and the replica. The chest vanishes into the Ethereal Plane.</p><p>You need the replica to recall the chest. After 60 days, there is a cumulative chance of 5% per day that the chest is irretrievably lost.</p><p>If the miniature of the chest is lost or destroyed, there is no way, even with a <i>wish</i> spell, that the large chest can be summoned back, although an extraplanar expedition might be mounted to find it.</p><p>Living things in the chest eat, sleep, and age normally, and they die if they run out of food, air, water, or whatever they need to survive.</p>"
  }
}
