{
  "_id": "001poiyujbqv24z0",
  "name": "Undead Anatomy IV",
  "type": "spell",
  "img": "systems/pf1/icons/misc/magic-swirl.png",
  "sort": 0,
  "flags": {},
  "system": {
    "tags": [],
    "actions": [
      {
        "_id": "xzjmqnwilcstcpbu",
        "name": "Use",
        "img": "systems/pf1/icons/misc/magic-swirl.png",
        "description": "",
        "tag": "",
        "activation": {
          "cost": 1,
          "type": "standard"
        },
        "unchainedAction": {
          "activation": {
            "cost": 2,
            "type": "action"
          }
        },
        "duration": {
          "value": "1 minute/level (D) (see text)",
          "units": ""
        },
        "target": {
          "value": "you"
        },
        "range": {
          "value": null,
          "units": "personal",
          "maxIncrements": 1,
          "minValue": null,
          "minUnits": ""
        },
        "uses": {
          "autoDeductChargesCost": "",
          "self": {
            "value": 0,
            "maxFormula": "",
            "per": null
          },
          "per": "",
          "value": 0,
          "maxFormula": ""
        },
        "measureTemplate": {
          "type": "",
          "size": "0",
          "overrideColor": false,
          "customColor": "",
          "overrideTexture": false,
          "customTexture": ""
        },
        "attackName": "",
        "actionType": "",
        "attackBonus": "",
        "critConfirmBonus": "",
        "damage": {
          "parts": [],
          "critParts": [],
          "nonCritParts": []
        },
        "attackParts": [],
        "formulaicAttacks": {
          "count": {
            "formula": ""
          },
          "bonus": {
            "formula": ""
          },
          "label": null
        },
        "formula": "",
        "ability": {
          "attack": "",
          "damage": "",
          "damageMult": 1,
          "critRange": 20,
          "critMult": 2
        },
        "save": {
          "dc": "0",
          "type": "",
          "description": ""
        },
        "effectNotes": [],
        "attackNotes": [],
        "soundEffect": "",
        "powerAttack": {
          "multiplier": "",
          "damageBonus": 2,
          "critMultiplier": 1
        },
        "naturalAttack": {
          "primaryAttack": true,
          "secondary": {
            "attackBonus": "-5",
            "damageMult": 0.5
          }
        },
        "nonlethal": false,
        "usesAmmo": false,
        "spellEffect": "",
        "spellArea": "",
        "conditionals": [],
        "enh": {
          "value": null
        }
      }
    ],
    "uses": {
      "per": ""
    },
    "attackNotes": [],
    "effectNotes": [],
    "links": {
      "children": []
    },
    "scriptCalls": [],
    "learnedAt": {
      "class": [["sorcerer/wizard", 8]],
      "domain": [],
      "subDomain": [],
      "elementalSchool": [],
      "bloodline": []
    },
    "level": 8,
    "school": "trs",
    "subschool": "polymorph",
    "components": {
      "verbal": true,
      "somatic": true,
      "material": true
    },
    "materials": {
      "value": "a piece of the creature whose form you plan to assume"
    },
    "sr": false,
    "shortDescription": "<p>This spell functions as <i>undead anatomy III</i>, except it allows you to use more abilities. If the form you assume has any of the following abilities, you gain the listed ability: burrow 60 feet, climb 90 feet, fly 120 feet (good maneuverability), swim 120 feet, blindsense 60 feet, darkvision 90 feet, lifesense 60 feet, low-light vision, scent, tremorsense 60 feet, breath weapon, constrict, DR 10/magic and silver, DR 15/bludgeoning and magic, fast healing 5, fiery death, fire aura, grab, incorporeal, jet, poison, pounce, rake, rend, roar, spikes, trample, trip, and web.</p><p>If the creature's form is incorporeal, the spell's duration is in rounds per level instead of minutes per level, and your bite and claw (or slam) attacks are incorporeal touch attacks. If the creature has immunity or resistance to any energy types, you gain resistance 30 to those energy types. If the creature has vulnerability to an energy type, you gain that vulnerability.</p><p>In this form, you gain a +8 bonus on saves against mindaffecting effects, disease, poison, sleep, and stunning. If the form has a vulnerability to an attack (such as sunlight), you gain that vulnerability.</p><p><i>Tiny</i> undead: If the form you take is that of a <i>Tiny</i> undead, you gain a -2 penalty to your Strength, a +8 size bonus to your Dexterity, and a +3 natural armor bonus.</p><p><i>Large</i> undead: If the form you take is that of a <i>Large</i> undead, you gain a +6 size bonus to your Strength, a -2 penalty on your Dexterity, a +2 size bonus to your Constitution, and a +6 natural armor bonus.</p>"
  }
}
