{
  "_id": "8AMmUGAADKjE3lKU",
  "name": "Unflappable Mien",
  "type": "spell",
  "img": "systems/pf1/icons/misc/magic-swirl.png",
  "sort": 0,
  "flags": {},
  "system": {
    "tags": [],
    "actions": [
      {
        "_id": "w0shyiszlbnq233o",
        "name": "Use",
        "img": "systems/pf1/icons/misc/magic-swirl.png",
        "description": "",
        "tag": "",
        "activation": {
          "cost": 1,
          "type": "standard"
        },
        "unchainedAction": {
          "activation": {
            "cost": 2,
            "type": "action"
          }
        },
        "duration": {
          "value": "10 minutes/level or until discharged; see text",
          "units": ""
        },
        "target": {
          "value": "you"
        },
        "range": {
          "value": null,
          "units": "personal",
          "maxIncrements": 1,
          "minValue": null,
          "minUnits": ""
        },
        "uses": {
          "autoDeductChargesCost": "",
          "self": {
            "value": 0,
            "maxFormula": "",
            "per": null
          },
          "per": null,
          "value": 0,
          "maxFormula": ""
        },
        "measureTemplate": {
          "type": "",
          "size": "",
          "overrideColor": false,
          "customColor": "",
          "overrideTexture": false,
          "customTexture": ""
        },
        "attackName": "",
        "actionType": "",
        "attackBonus": "",
        "critConfirmBonus": "",
        "damage": {
          "parts": [],
          "critParts": [],
          "nonCritParts": []
        },
        "attackParts": [],
        "formulaicAttacks": {
          "count": {
            "formula": ""
          },
          "bonus": {
            "formula": ""
          },
          "label": null
        },
        "formula": "",
        "ability": {
          "attack": null,
          "damage": null,
          "damageMult": 1,
          "critRange": 20,
          "critMult": 2
        },
        "save": {
          "dc": "",
          "type": "",
          "description": ""
        },
        "effectNotes": [],
        "attackNotes": [],
        "soundEffect": "",
        "powerAttack": {
          "multiplier": "",
          "damageBonus": 2,
          "critMultiplier": 1
        },
        "naturalAttack": {
          "primaryAttack": true,
          "secondary": {
            "attackBonus": "-5",
            "damageMult": 0.5
          }
        },
        "nonlethal": false,
        "usesAmmo": false,
        "spellEffect": "",
        "spellArea": "",
        "conditionals": [],
        "enh": {
          "value": null
        }
      }
    ],
    "attackNotes": [],
    "effectNotes": [],
    "links": {
      "children": []
    },
    "scriptCalls": [],
    "learnedAt": {
      "class": [
        ["bard", 3],
        ["mesmerist", 3],
        ["occultist", 3],
        ["psychic", 3],
        ["sorcerer/wizard", 3]
      ],
      "domain": [],
      "subDomain": [],
      "elementalSchool": [],
      "bloodline": []
    },
    "level": 3,
    "school": "evo",
    "types": "force",
    "components": {
      "verbal": true,
      "somatic": true,
      "focus": true
    },
    "materials": {
      "focus": "a diamond clasp, brooch, or pin worth at least 100 gp"
    },
    "spellbook": "",
    "shortDescription": "<p>When a creature attempts to touch you with an attack (such as a <em>touch attack</em>, an <em>unarmed strike</em>, an attack with a <em>natural weapon</em>, or a <em>grapple</em>), it feels a field of force blocking its way. It can choose to abandon the attempt, losing its action, or to push through the ward. If it pushes through, you can trigger a wave of force against that creature. This discharges the spell, deals 1d4 points of force damage per <em>caster level</em> (maximum 10d4), and pushes the creature back 5 feet. If the creature cannot be pushed back 5 feet (if a solid surface is directly behind it, for example), it takes 2d4 additional points of force damage. A successful <em>Fortitude</em> saving throw halves the total amount of force damage the creature takes.</p>\n<p>Members of the <em>Sanctified Prophet</em> prestige class can cast this spell, even though it is not a <em>divination</em> or <em>enchantment</em>.</p>"
  }
}
