{
  "_id": "Fv3FbmXptuDRiL5y",
  "name": "Inquisitor",
  "type": "class",
  "img": "systems/pf1/icons/items/inventory/book-red.jpg",
  "sort": 0,
  "flags": {},
  "system": {
    "description": {
      "value": "<p>Grim and determined, the inquisitor roots out enemies of the faith, using trickery and guile when righteousness and purity is not enough. Although inquisitors are dedicated to a deity, they are above many of the normal rules and conventions of the church. They answer to their deity and their own sense of justice alone, and are willing to take extreme measures to meet their goals.</p>\n<p><strong>Role</strong>: Inquisitors tend to move from place to place, chasing down enemies and researching emerging threats. As a result, they often travel with others, if for no other reason than to mask their presence. Inquisitors work with members of their faith whenever possible, but even such allies are not above suspicion.</p>\n<p><strong>Alignment</strong>: An inquisitor’s alignment must be within one step of her deity’s, along either the law/chaos axis or the good/evil axis.</p>\n<p><strong>Hit Dice</strong>: d8.</p>\n<p><strong>Starting Wealth</strong>: 4d6 × 10 gp (average 140gp.) In addition, each character begins play with an outfit worth 10 gp or less.</p>\n<h2>Class Skills</h2>\n<p>The inquisitor’s class skills are <em>Bluff</em> (<em>Cha</em>), <em>Climb</em> (<em>Str</em>), <em>Craft</em> (<em>Int</em>), <em>Diplomacy</em> (<em>Cha</em>), <em>Disguise</em> (<em>Cha</em>), <em>Heal</em> (<em>Wis</em>), <em>Intimidate</em> (<em>Cha</em>), <em>Knowledge</em> (arcana) (<em>Int</em>), <em>Knowledge</em> (dungeoneering) (<em>Int</em>), <em>Knowledge</em> (nature) (<em>Int</em>), <em>Knowledge</em> (planes) (<em>Int</em>), <em>Knowledge</em> (religion) (<em>Int</em>), <em>Perception</em> (<em>Wis</em>), <em>Profession</em> (<em>Wis</em>), <em>Ride</em> (<em>Dex</em>), <em>Sense Motive</em> (<em>Wis</em>), <em>Spellcraft</em> (<em>Int</em>), <em>Stealth</em> (<em>Dex</em>), <em>Survival</em> (<em>Wis</em>), and <em>Swim</em> (<em>Str</em>).</p>\n<p><strong>Skill Ranks per Level</strong>: 6 + <em>Int</em> modifier.</p>"
    },
    "casting": {
      "type": "spontaneous",
      "progression": "med",
      "ability": "wis",
      "spells": "divine"
    },
    "tags": [],
    "changes": [],
    "links": {
      "children": [],
      "classAssociations": [
        {
          "id": "pf1.class-abilities.dMtxCqoMLtD9nEjU",
          "dataType": "compendium",
          "name": "Domain (INQ)",
          "img": "systems/pf1/icons/skills/light_06.jpg",
          "level": 1,
          "_index": 0
        },
        {
          "id": "pf1.class-abilities.qI4IouTn4uvDPSXv",
          "dataType": "compendium",
          "name": "Judgment",
          "img": "systems/pf1/icons/skills/yellow_38.jpg",
          "level": 1,
          "_index": 1
        },
        {
          "id": "pf1.class-abilities.L9DSWVtX0siTfaXL",
          "dataType": "compendium",
          "name": "Second Judgment",
          "img": "systems/pf1/icons/skills/yellow_38.jpg",
          "level": 8,
          "_index": 2
        },
        {
          "id": "pf1.class-abilities.QXskUuwbmQtFoFti",
          "dataType": "compendium",
          "name": "Third Judgment",
          "img": "systems/pf1/icons/skills/yellow_38.jpg",
          "level": 16,
          "_index": 3
        },
        {
          "id": "pf1.class-abilities.1SnLu7RJAq1hJzYg",
          "dataType": "compendium",
          "name": "True Judgment",
          "img": "systems/pf1/icons/skills/yellow_38.jpg",
          "level": 20,
          "_index": 4
        },
        {
          "id": "pf1.class-abilities.9Y9dpXEcjXGtH6Pe",
          "dataType": "compendium",
          "name": "Monster Lore",
          "img": "systems/pf1/icons/skills/blue_02.jpg",
          "level": 1,
          "_index": 5
        },
        {
          "id": "pf1.class-abilities.CzEGD1Fv60Sa4UXe",
          "dataType": "compendium",
          "name": "Stern Gaze",
          "img": "systems/pf1/icons/spells/evil-eye-eerie-1.jpg",
          "level": 1,
          "_index": 6
        },
        {
          "id": "pf1.class-abilities.FkPoMSAx3FTGvnXy",
          "dataType": "compendium",
          "name": "Cunning Initiative",
          "img": "systems/pf1/icons/spells/haste-fire-1.jpg",
          "level": 2,
          "_index": 7
        },
        {
          "id": "pf1.class-abilities.KGjeQOeDKBMUt98q",
          "dataType": "compendium",
          "name": "Detect Alignment",
          "img": "systems/pf1/icons/spells/evil-eye-red-1.jpg",
          "level": 2,
          "_index": 8
        },
        {
          "id": "pf1.class-abilities.5VtEwp9mLrB6oTsF",
          "dataType": "compendium",
          "name": "Track (INQ)",
          "img": "systems/pf1/icons/skills/beast_01.jpg",
          "level": 2,
          "_index": 9
        },
        {
          "id": "pf1.class-abilities.10EysX8x5hvz48lr",
          "dataType": "compendium",
          "name": "Solo Tactics",
          "img": "systems/pf1/icons/skills/blue_35.jpg",
          "level": 3,
          "_index": 10
        },
        {
          "id": "pf1.class-abilities.717fyDCcfLtD345B",
          "dataType": "compendium",
          "name": "Teamwork Feat",
          "img": "systems/pf1/icons/skills/gray_08.jpg",
          "level": 3,
          "_index": 11
        },
        {
          "id": "pf1.class-abilities.MpvhQz62qw68D2pd",
          "dataType": "compendium",
          "name": "Bane",
          "img": "systems/pf1/icons/skills/fire_13.jpg",
          "level": 5,
          "_index": 12
        },
        {
          "id": "pf1.class-abilities.S9lYCsz7oA7v3GzR",
          "dataType": "compendium",
          "name": "Discern Lies",
          "img": "systems/pf1/icons/skills/emerald_11.jpg",
          "level": 5,
          "_index": 13
        },
        {
          "id": "pf1.class-abilities.igyMWtX3cB2HZeSF",
          "dataType": "compendium",
          "name": "Stalwart",
          "img": "systems/pf1/icons/skills/blue_18.jpg",
          "level": 11,
          "_index": 14
        },
        {
          "id": "pf1.class-abilities.TNYCH3v1Y9lUQDPT",
          "dataType": "compendium",
          "name": "Greater Bane",
          "img": "systems/pf1/icons/skills/weapon_29.jpg",
          "level": 12,
          "_index": 15
        },
        {
          "id": "pf1.class-abilities.UGtjpdIwNF8mAh4z",
          "dataType": "compendium",
          "name": "Exploit Weakness",
          "img": "systems/pf1/icons/skills/yellow_32.jpg",
          "level": 14,
          "_index": 16
        },
        {
          "id": "pf1.class-abilities.cbRqq4Zwspgr3681",
          "dataType": "compendium",
          "name": "Slayer",
          "img": "systems/pf1/icons/skills/yellow_43.jpg",
          "level": 17,
          "_index": 17
        }
      ]
    },
    "tag": "inquisitor",
    "useCustomTag": true,
    "armorProf": {
      "value": ["lgt", "med", "shl"]
    },
    "weaponProf": {
      "value": ["sim"],
      "custom": "Hand Crossbow;Longbow;Repeating Crossbow;Shortbow;Favored Weapon"
    },
    "languages": {
      "value": []
    },
    "scriptCalls": [],
    "bab": "med",
    "skillsPerLevel": 6,
    "savingThrows": {
      "fort": {
        "value": "high"
      },
      "will": {
        "value": "high"
      }
    },
    "classSkills": {
      "acr": false,
      "apr": false,
      "art": true,
      "blf": true,
      "clm": true,
      "crf": true,
      "dip": true,
      "dev": false,
      "dis": true,
      "esc": false,
      "fly": false,
      "han": false,
      "hea": true,
      "int": true,
      "kar": true,
      "kdu": true,
      "ken": false,
      "kge": false,
      "khi": false,
      "klo": false,
      "kna": true,
      "kno": false,
      "kpl": true,
      "kre": true,
      "lin": false,
      "lor": true,
      "per": true,
      "prf": false,
      "pro": true,
      "rid": true,
      "sen": true,
      "slt": false,
      "spl": true,
      "ste": true,
      "sur": true,
      "swm": true,
      "umd": false
    }
  }
}
