{
  "_id": "G2SqFdNKFxbujzbH",
  "name": "Skald",
  "type": "class",
  "img": "systems/pf1/icons/items/inventory/drum.jpg",
  "sort": 0,
  "flags": {},
  "system": {
    "description": {
      "value": "<p>Skalds are poets, historians, and keepers of lore who use their gifts for oration and song to inspire allies into a frenzied rage. They balance a violent spirit with the veneer of civilization, recording events such as heroic battles and the deeds of great leaders, enhancing these stories in the retelling to earn bloodier victories in combat. A skald’s poetry is nuanced and often has multiple overlapping meanings, and he applies similar talents to emulate magic from other spellcasters.</p>\n<p><strong>Role</strong>: A skald inspires his allies, and often presses forward to fight enemies in melee. Outside of combat, he’s useful as a healer and scholar, less versatile but more durable than a bard.</p>\n<p><strong>Alignment</strong>: Any.</p>\n<p><strong>Hit Die</strong>: d8.</p>\n<p><strong>Parent Classes</strong>: <em>Barbarian</em> and <em>bard</em>.</p>\n<p><strong>Starting Wealth</strong>: 3d6 × 10 gp (average 105 gp.) In addition, each character begins play with an outfit worth 10 gp or less.</p>\n<h2>Class Skills</h2>\n<p>The skald’s class skills are <em>Acrobatics</em> (<em>Dex</em>), <em>Appraise</em> (<em>Int</em>), <em>Bluff</em> (<em>Cha</em>), <em>Climb</em> (<em>Str</em>), <em>Craft</em> (<em>Int</em>), <em>Diplomacy</em> (<em>Cha</em>), <em>Escape Artist</em> (<em>Dex</em>), <em>Handle Animal</em> (<em>Cha</em>), <em>Intimidate</em> (<em>Cha</em>), <em>Knowledge</em> (all) (<em>Int</em>), <em>Linguistics</em> (<em>Int</em>), <em>Perception</em> (<em>Wis</em>), <em>Perform</em> (oratory, percussion, sing, string, wind<em>errata</em>) (<em>Cha</em>), <em>Profession</em> (<em>Wis</em>), <em>Ride</em> (<em>Dex</em>), <em>Sense Motive</em> (<em>Wis</em>), <em>Spellcraft</em> (<em>Int</em>), <em>Swim</em> (<em>Str</em>), and <em>Use Magic Device</em> (<em>Cha</em>).</p>\n<p><strong>Skill Ranks per Level</strong>: 4 + <em>Int</em> modifier.</p>"
    },
    "casting": {
      "type": "spontaneous",
      "progression": "med",
      "ability": "cha",
      "spells": "arcane"
    },
    "tags": [],
    "changes": [],
    "links": {
      "children": [],
      "classAssociations": [
        {
          "id": "pf1.class-abilities.6789ez9tvie2bw08",
          "dataType": "compendium",
          "name": "Bardic Knowledge (SKA)",
          "img": "systems/pf1/icons/items/inventory/book-blue.jpg",
          "level": 1,
          "_index": 0
        },
        {
          "id": "pf1.class-abilities.1HQUUhQhowqKfmCA",
          "dataType": "compendium",
          "name": "Inspired Rage",
          "img": "systems/pf1/icons/skills/yellow_17.jpg",
          "level": 1,
          "_index": 1
        },
        {
          "id": "pf1.class-abilities.sPqP7QFldieWEADi",
          "dataType": "compendium",
          "name": "Raging Song",
          "img": "systems/pf1/icons/skills/affliction_24.jpg",
          "level": 1,
          "_index": 2
        },
        {
          "id": "pf1.class-abilities.BS9WDbCy2Up3QHw9",
          "dataType": "compendium",
          "name": "Scribe Scroll",
          "img": "systems/pf1/icons/items/inventory/note-scroll.jpg",
          "level": 1,
          "_index": 3
        },
        {
          "id": "pf1.class-abilities.HAqAsb5H56C6cZm3",
          "dataType": "compendium",
          "name": "Versatile Performance",
          "img": "systems/pf1/icons/feats/persuasive.jpg",
          "level": 2,
          "_index": 4
        },
        {
          "id": "pf1.class-abilities.wew6ophJrcab24m6",
          "dataType": "compendium",
          "name": "Well-Versed",
          "img": "systems/pf1/icons/feats/extra-performance.png",
          "level": 2,
          "_index": 5
        },
        {
          "id": "pf1.class-abilities.i4GboHYSOofHEJ4i",
          "dataType": "compendium",
          "name": "Rage Powers (SKA)",
          "img": "systems/pf1/icons/feats/greater-sunder.jpg",
          "level": 3,
          "_index": 6
        },
        {
          "id": "pf1.class-abilities.jR8RFYhHsjRzzmB0",
          "dataType": "compendium",
          "name": "Song of Marching",
          "img": "systems/pf1/icons/skills/yellow_08.jpg",
          "level": 3,
          "_index": 7
        },
        {
          "id": "pf1.class-abilities.7WaQxnVaaoL4AGr8",
          "dataType": "compendium",
          "name": "Uncanny Dodge",
          "img": "systems/pf1/icons/feats/wind-stance.jpg",
          "level": 4,
          "_index": 8
        },
        {
          "id": "pf1.class-abilities.ZfnHhhTFQVo0Lj4P",
          "dataType": "compendium",
          "name": "Improved Uncanny Dodge",
          "img": "systems/pf1/icons/feats/wind-stance.jpg",
          "level": 8,
          "_index": 9
        },
        {
          "id": "pf1.class-abilities.tlvQVJUUFUVQ92EH",
          "dataType": "compendium",
          "name": "Spell Kenning",
          "img": "systems/pf1/icons/feats/extra-lay-on-hands.jpg",
          "level": 5,
          "_index": 10
        },
        {
          "id": "pf1.class-abilities.xqWYyijR7PxZGI69",
          "dataType": "compendium",
          "name": "Song of Strength",
          "img": "systems/pf1/icons/feats/athletic.jpg",
          "level": 6,
          "_index": 11
        },
        {
          "id": "pf1.class-abilities.msQWK7TW7mufzf8l",
          "dataType": "compendium",
          "name": "Lore Master",
          "img": "systems/pf1/icons/items/inventory/book-tan.jpg",
          "level": 7,
          "_index": 12
        },
        {
          "id": "pf1.class-abilities.kMjMAG6Gjs7unAz5",
          "dataType": "compendium",
          "name": "Damage Reduction (SKA)",
          "img": "systems/pf1/icons/feats/improved-shield-bash.jpg",
          "level": 9,
          "_index": 13
        },
        {
          "id": "pf1.class-abilities.pmWnRksUzrKvNOvy",
          "dataType": "compendium",
          "name": "Dirge of Doom",
          "img": "systems/pf1/icons/feats/medusas-wrath.jpg",
          "level": 10,
          "_index": 14
        },
        {
          "id": "pf1.class-abilities.CYOk7sUXkGbfRKPi",
          "dataType": "compendium",
          "name": "Song of the Fallen",
          "img": "systems/pf1/icons/skills/affliction_07.jpg",
          "level": 14,
          "_index": 15
        },
        {
          "id": "pf1.class-abilities.q7aOR0jKvbkVHhyF",
          "dataType": "compendium",
          "name": "Master Skald",
          "img": "systems/pf1/icons/feats/intimidating-prowess.jpg",
          "level": 20,
          "_index": 16
        }
      ]
    },
    "tag": "skald",
    "useCustomTag": true,
    "armorProf": {
      "value": ["lgt", "med", "shl"]
    },
    "weaponProf": {
      "value": ["sim", "mar"]
    },
    "languages": {
      "value": []
    },
    "scriptCalls": [],
    "bab": "med",
    "skillsPerLevel": 4,
    "savingThrows": {
      "fort": {
        "value": "high"
      },
      "will": {
        "value": "high"
      }
    },
    "classSkills": {
      "acr": true,
      "apr": true,
      "art": true,
      "blf": true,
      "clm": true,
      "crf": true,
      "dip": true,
      "dev": false,
      "dis": false,
      "esc": true,
      "fly": false,
      "han": true,
      "hea": false,
      "int": true,
      "kar": true,
      "kdu": true,
      "ken": true,
      "kge": true,
      "khi": true,
      "klo": true,
      "kna": true,
      "kno": true,
      "kpl": true,
      "kre": true,
      "lin": true,
      "lor": true,
      "per": true,
      "prf": true,
      "pro": true,
      "rid": true,
      "sen": true,
      "slt": false,
      "spl": true,
      "ste": false,
      "sur": false,
      "swm": true,
      "umd": true
    }
  }
}
