{
  "_id": "cOY76lMUkupH534m",
  "name": "Slayer",
  "type": "class",
  "img": "systems/pf1/icons/skills/weapon_39.jpg",
  "sort": 0,
  "flags": {},
  "system": {
    "description": {
      "value": "<p>Skilled at tracking down targets, slayers are consummate hunters, living for the chase and the deadly stroke that brings it to a close. Slayers spend most of their time honing their weapon skills, studying the habits and anatomy of foes, and practicing combat maneuvers.</p>\n<p><strong>Role</strong>: The slayer is elusive, and good at finding the opportune time and location to strike. Combining the deadliest talents of rangers and rogues, a slayer’s abilities are all about getting into combat, dealing with a target, and then getting back out again.</p>\n<p><strong>Alignment</strong>: Any.</p>\n<p><strong>Hit Die</strong>: d10.</p>\n<p><strong>Parent Classes</strong>: <em>Ranger</em> and <em>rogue</em>.</p>\n<p><strong>Starting Wealth</strong>: 5d6 × 10 gp (average 175 gp.) In addition, each character begins play with an outfit worth 10 gp or less.</p>\n<h2>Class Skills</h2>\n<p>The slayer’s class skills are <em>Acrobatics</em> (<em>Dex</em>), <em>Bluff</em> (<em>Cha</em>), <em>Climb</em> (<em>Str</em>), <em>Craft</em> (<em>Int</em>), <em>Disguise</em> (<em>Cha</em>), <em>Heal</em> (<em>Wis</em>), <em>Intimidate</em> (<em>Cha</em>), <em>Knowledge</em> (dungeoneering) (<em>Int</em>), <em>Knowledge</em> (geography) (<em>Int</em>), <em>Knowledge</em> (local) (<em>Int</em>), <em>Perception</em> (<em>Wis</em>), <em>Profession</em> (<em>Wis</em>), <em>Ride</em> (<em>Dex</em>), <em>Sense Motive</em> (<em>Wis</em>), <em>Stealth</em> (<em>Dex</em>), <em>Survival</em> (<em>Wis</em>), and <em>Swim</em> (<em>Str</em>).</p>\n<p><strong>Skill Ranks per Level</strong>: 6 + <em>Int</em> <em>modifier</em>.</p>"
    },
    "tags": [],
    "changes": [],
    "links": {
      "children": [],
      "classAssociations": [
        {
          "id": "pf1.class-abilities.JnXrphJlr1ULx1MK",
          "dataType": "compendium",
          "name": "Studied Target",
          "img": "systems/pf1/icons/feats/tiring-critical.jpg",
          "level": 1,
          "_index": 0
        },
        {
          "id": "pf1.class-abilities.r8wPs0bB3WhOLxbX",
          "dataType": "compendium",
          "name": "Track",
          "img": "systems/pf1/icons/skills/beast_01.jpg",
          "level": 1,
          "_index": 1
        },
        {
          "id": "pf1.class-abilities.Zn9ecDCXShBK4vj8",
          "dataType": "compendium",
          "name": "Slayer Talents",
          "img": "systems/pf1/icons/feats/channel-smite.jpg",
          "level": 2,
          "_index": 2
        },
        {
          "id": "pf1.class-abilities.aNTZXUUBQlh5VDTv",
          "dataType": "compendium",
          "name": "Advanced Slayer Talents",
          "img": "systems/pf1/icons/feats/greater-weapon-focus.jpg",
          "level": 10,
          "_index": 3
        },
        {
          "id": "pf1.class-abilities.Wl3FUflcmvQP0PaQ",
          "dataType": "compendium",
          "name": "Sneak Attack (SLA)",
          "img": "systems/pf1/icons/feats/weapon-finesse.jpg",
          "level": 3,
          "_index": 4
        },
        {
          "id": "pf1.class-abilities.0oO5lfLEq2ggvGHg",
          "dataType": "compendium",
          "name": "Stalker",
          "img": "systems/pf1/icons/feats/stealthy.jpg",
          "level": 7,
          "_index": 5
        },
        {
          "id": "pf1.class-abilities.sk0HNTe9lKBpHQpN",
          "dataType": "compendium",
          "name": "Swift Tracker",
          "img": "systems/pf1/icons/skills/green_20.jpg",
          "level": 11,
          "_index": 6
        },
        {
          "id": "pf1.class-abilities.5NS7Ec3WhKIkhygg",
          "dataType": "compendium",
          "name": "Quarry",
          "img": "systems/pf1/icons/skills/arrow_05.jpg",
          "level": 14,
          "_index": 7
        },
        {
          "id": "pf1.class-abilities.yotHT522pQoKDhID",
          "dataType": "compendium",
          "name": "Slayer's Advance",
          "img": "systems/pf1/icons/feats/acrobatic-step.png",
          "level": 13,
          "_index": 8
        },
        {
          "id": "pf1.class-abilities.oRac7XDHBN0JzuyY",
          "dataType": "compendium",
          "name": "Improved Quarry",
          "img": "systems/pf1/icons/skills/emerald_10.jpg",
          "level": 19,
          "_index": 9
        },
        {
          "id": "pf1.class-abilities.znkQ87s5WAKHaUVu",
          "dataType": "compendium",
          "name": "Master Slayer",
          "img": "systems/pf1/icons/feats/cleave.jpg",
          "level": 20,
          "_index": 10
        }
      ]
    },
    "tag": "slayer",
    "useCustomTag": true,
    "armorProf": {
      "value": ["lgt", "med", "shl"]
    },
    "weaponProf": {
      "value": ["sim", "mar"]
    },
    "languages": {
      "value": []
    },
    "scriptCalls": [],
    "hd": 10,
    "hp": 10,
    "bab": "high",
    "skillsPerLevel": 6,
    "savingThrows": {
      "fort": {
        "value": "high"
      },
      "ref": {
        "value": "high"
      }
    },
    "classSkills": {
      "acr": true,
      "apr": false,
      "art": true,
      "blf": true,
      "clm": true,
      "crf": true,
      "dip": false,
      "dev": false,
      "dis": true,
      "esc": false,
      "fly": false,
      "han": false,
      "hea": true,
      "int": true,
      "kar": false,
      "kdu": true,
      "ken": false,
      "kge": true,
      "khi": false,
      "klo": true,
      "kna": false,
      "kno": false,
      "kpl": false,
      "kre": false,
      "lin": false,
      "lor": true,
      "per": true,
      "prf": false,
      "pro": true,
      "rid": true,
      "sen": true,
      "slt": false,
      "spl": false,
      "ste": true,
      "sur": true,
      "swm": true,
      "umd": false
    }
  }
}
