{
  "_id": "AoWSbnuTSGIxmv61",
  "name": "Sorcerer",
  "type": "class",
  "img": "systems/pf1/icons/spells/fireball-red-3.jpg",
  "sort": 0,
  "flags": {},
  "system": {
    "description": {
      "value": "<p>Scions of innately magical bloodlines, the chosen of deities, the spawn of monsters, pawns of fate and destiny, or simply flukes of fickle magic, sorcerers look within themselves for arcane prowess and draw forth might few mortals can imagine. Emboldened by lives ever threatening to be consumed by their innate powers, these magic-touched souls endlessly indulge in and refine their mysterious abilities, gradually learning how to harness their birthright and coax forth ever greater arcane feats. Just as varied as these innately powerful spellcasters’ abilities and inspirations are the ways in which they choose to utilize their gifts. While some seek to control their abilities through meditation and discipline, becoming masters of their fantastic birthright, others give in to their magic, letting it rule their lives with often explosive results. Regardless, sorcerers live and breathe that which other spellcasters devote their lives to mastering, and for them magic is more than a boon or a field of study; it is life itself.</p>\n<p><strong>Role</strong>: Sorcerers excel at casting a selection of favored spells frequently, making them powerful battle mages. As they become familiar with a specific and ever-widening set of spells, sorcerers often discover new and versatile ways of making use of magics other spellcasters might overlook. Their bloodlines also grant them additional abilities, assuring that no two sorcerers are ever quite alike.</p>\n<p><strong>Alignment</strong>: Any</p>\n<p><strong>Hit Die</strong>: d6</p>\n<p><strong>Starting Wealth</strong>: 2d6 × 10 gp (average 70 gp.) In addition, each character begins play with an outfit worth 10 gp or less.</p>\n<h2>Class Skills</h2>\n<p>The sorcerer’s class skills are <em>Appraise</em> (<em>Int</em>), <em>Bluff</em> (<em>Cha</em>), <em>Craft</em> (<em>Int</em>), <em>Fly</em> (<em>Dex</em>), <em>Intimidate</em> (<em>Cha</em>), <em>Knowledge</em> (arcana) (<em>Int</em>), <em>Profession</em> (<em>Wis</em>), <em>Spellcraft</em> (<em>Int</em>), and <em>Use Magic Device</em> (<em>Cha</em>).</p>\n<p><strong>Skill Ranks per Level</strong>: 2 + <em>Int</em> modifier.</p>"
    },
    "casting": {
      "type": "spontaneous",
      "progression": "high",
      "ability": "cha",
      "spells": "arcane"
    },
    "tags": [],
    "changes": [],
    "links": {
      "children": [],
      "classAssociations": [
        {
          "id": "pf1.class-abilities.vVkKDPniD09W5JgO",
          "dataType": "compendium",
          "name": "Eschew Materials",
          "img": "systems/pf1/icons/skills/nature_07.jpg",
          "level": 1,
          "_index": 0
        },
        {
          "id": "pf1.class-abilities.F5mCXQR9VZfKfpTH",
          "dataType": "compendium",
          "name": "Sorcerer Bloodline",
          "img": "systems/pf1/icons/skills/red_33.jpg",
          "level": 1,
          "_index": 1
        }
      ]
    },
    "tag": "sorcerer",
    "useCustomTag": true,
    "armorProf": {
      "value": []
    },
    "weaponProf": {
      "value": ["sim"]
    },
    "languages": {
      "value": []
    },
    "scriptCalls": [],
    "hd": 6,
    "hp": 6,
    "skillsPerLevel": 2,
    "savingThrows": {
      "will": {
        "value": "high"
      }
    },
    "classSkills": {
      "acr": false,
      "apr": true,
      "art": true,
      "blf": true,
      "clm": false,
      "crf": true,
      "dip": false,
      "dev": false,
      "dis": false,
      "esc": false,
      "fly": true,
      "han": false,
      "hea": false,
      "int": true,
      "kar": true,
      "kdu": false,
      "ken": false,
      "kge": false,
      "khi": false,
      "klo": false,
      "kna": false,
      "kno": false,
      "kpl": false,
      "kre": false,
      "lin": false,
      "lor": true,
      "per": false,
      "prf": false,
      "pro": true,
      "rid": false,
      "sen": false,
      "slt": false,
      "spl": true,
      "ste": false,
      "sur": false,
      "swm": false,
      "umd": true
    }
  }
}
