{
  "_id": "KfcnHrgAMpBhScKB",
  "name": "Warrior",
  "type": "class",
  "img": "systems/pf1/icons/items/weapons/club.PNG",
  "sort": 100001,
  "flags": {},
  "system": {
    "description": {
      "value": "<p><strong>Alignment:</strong> Any.</p>\n<p><strong>Hit Die</strong>: d10.</p>\n<h2>Class Skills</h2>\n<p>The warrior’s class skills (and the key ability for each skill) are <em>Climb</em> (<em>Str</em>), <em>Craft</em> (<em>Int</em>), <em>Handle Animal</em> (<em>Cha</em>), <em>Intimidate</em> (<em>Cha</em>), <em>Profession</em> (<em>Wis</em>), <em>Ride</em> (<em>Dex</em>), and <em>Swim</em> (<em>Str</em>).</p>\n<p><strong>Skill Ranks per Level</strong>: 2 + <em>Int</em> modifier.</p>"
    },
    "tags": [],
    "changes": [],
    "links": {
      "children": [],
      "classAssociations": []
    },
    "tag": "warrior",
    "useCustomTag": true,
    "armorProf": {
      "value": ["lgt", "med", "hvy", "shl", "twr"]
    },
    "weaponProf": {
      "value": ["sim", "mar"]
    },
    "languages": {
      "value": []
    },
    "scriptCalls": [],
    "subType": "npc",
    "hd": 10,
    "hp": 10,
    "bab": "high",
    "skillsPerLevel": 2,
    "savingThrows": {
      "fort": {
        "value": "high"
      }
    },
    "classSkills": {
      "clm": true,
      "acr": false,
      "apr": false,
      "art": true,
      "blf": false,
      "crf": true,
      "dip": false,
      "dev": false,
      "dis": false,
      "esc": false,
      "fly": false,
      "han": true,
      "hea": false,
      "int": true,
      "kar": false,
      "kdu": false,
      "ken": false,
      "kge": false,
      "khi": false,
      "klo": false,
      "kna": false,
      "kno": false,
      "kpl": false,
      "kre": false,
      "lin": false,
      "lor": true,
      "per": false,
      "prf": false,
      "pro": true,
      "rid": true,
      "sen": false,
      "slt": false,
      "spl": false,
      "ste": false,
      "sur": false,
      "swm": true,
      "umd": false
    }
  }
}
